WeightClassKg,Event,Equipment,Tested,Sex,Name,CyrillicName,Team,BirthDate,Division,BodyweightKg,Squat1Kg,Squat2Kg,Squat3Kg,Squat4Kg,Best3SquatKg,Bench1Kg,Bench2Kg,Bench3Kg,Bench4Kg,Best3BenchKg,Deadlift1Kg,Deadlift2Kg,Deadlift3Kg,Deadlift4Kg,Best3DeadliftKg,TotalKg,Place
48,SBD,Multi-ply,Yes,F,Kseniya Baeva,Ксения Баева,СС,2000-10-21,Amateur Teen 17-19,46.65,-77.5,77.5,87.5,,87.5,50,57.5,-65,,57.5,80,90,-100,,90,235,1
56,SBD,Multi-ply,Yes,F,Kseniya Nikandrova,Ксения Никандрова,Новоспорт,1999-12-19,Amateur Teen 17-19,54.48,-85,85,92.5,,92.5,72.5,-77.5,-77.5,,72.5,100,105,107.5,,107.5,272.5,1
60,SBD,Multi-ply,Yes,F,Irina Kochina,Ирина Кочина,СС,1999-05-12,Amateur Teen 17-19,60,105,-115,-115,,105,82.5,87.5,-95,,87.5,100,110,-115,,110,302.5,1
67.5,SBD,Multi-ply,Yes,F,Yuliya Guseva,Юлия Гусева,Новоспорт,2000-11-15,Amateur Teen 17-19,65.3,115,125,-130,,125,100,-107.5,107.5,,107.5,115,125,130,,130,362.5,1
52,SBD,Multi-ply,Yes,F,Polina Goryachkina,Полина Горячкина,Бурятия,1996-03-20,Amateur Juniors 20-23,51.55,120,140,-150,,140,-60,-60,-60,,,100,120,130,,130,,DQ
52,SBD,Multi-ply,Yes,F,Ekaterina Kudryavtseva,Екатерина Кудрявцева,Стальной Медведь,1988-03-08,Amateur Open,51.5,110,120,-125,,120,70,-82.5,-82.5,,70,95,100,-105,,100,290,1
52,SBD,Multi-ply,Yes,F,Polina Goryachkina,Полина Горячкина,Бурятия,1996-03-20,Amateur Open,51.55,120,140,-150,,140,-60,-60,-60,,,100,120,130,,130,,DQ
56,SBD,Multi-ply,Yes,F,Alena Sorokovikova,Алена Сороковикова,Бурятия,1993-05-29,Amateur Open,54.65,90,-110,-110,,90,30,-40,40,,40,80,100,-110,,100,230,1
60,SBD,Multi-ply,Yes,F,Anastasiya Loginova,Анастасия Логинова,СС,1998-02-26,Amateur Open,59.6,150,-157.5,157.5,,157.5,95,-100,-100,,95,150,155,165,,165,417.5,1
67.5,SBD,Multi-ply,Yes,F,Tatyana Barabanova,Татьяна Барабанова,Томская Сила,1996-01-21,Amateur Open,64.85,97.5,-105,105,,105,-92.5,92.5,-107.5,,92.5,110,117.5,125,,125,322.5,1
67.5,SBD,Multi-ply,Yes,F,Tatyana Slepokurova,Татьяна Слепокурова,Стальной Медведь,1969-01-07,Amateur Open,63.75,-110,110,-115,,110,-87.5,-87.5,-87.5,,,125,135,-140,,135,,DQ
82.5,SBD,Multi-ply,Yes,F,Natalya Krasotka,Наталья Красотка,Новоспорт,1978-09-27,Amateur Open,81.1,120,130,140,,140,115,125,-130,,125,135,145,,,145,410,1
67.5,SBD,Multi-ply,Yes,F,Tatyana Slepokurova,Татьяна Слепокурова,Стальной Медведь,1969-01-07,Amateur Masters 40-49,63.75,-110,110,-115,,110,-87.5,-87.5,-87.5,,,125,135,-140,,135,,DQ
75,SBD,Multi-ply,Yes,M,Nazar Murashko,Назар Мурашко,СС,2002-12-25,Amateur Teen 14-16,68.4,-100,110,-120,,110,105,-112.5,112.5,,112.5,125,135,150,,150,372.5,1
82.5,SBD,Multi-ply,Yes,M,Vladislav Mukhomedyarov,Владислав Мухомедьяров,Новоспорт,1996-07-04,Amateur Juniors 20-23,79.55,145,-160,-170,,145,135,150,157.5,,157.5,180,200,-210,,200,502.5,1
67.5,SBD,Multi-ply,Yes,M,Andrey Kolbin,Андрей Колбин,Стальной Медведь,1984-07-22,Amateur Open,66.95,160,-170,-170,,160,-160,160,-175,,160,170,190,-207.5,,190,510,1
90,SBD,Multi-ply,Yes,M,Evgeniy Raspopin,Евгений Распопин,СС,1998-02-17,Amateur Open,88,200,210,220,,220,170,182.5,187.5,,187.5,225,235,-245,,235,642.5,2
90,SBD,Multi-ply,Yes,M,Artem Bazaykin,Артем Базайкин,Импульс,1992-02-04,Amateur Open,88.75,-220,-235,,,,,,,,,,,,,,,DQ
56,B,Multi-ply,Yes,F,Viktoriya Pribytkov,Виктория Прибытков,Рельеф,2001-08-10,Amateur Teen 14-16,56,,,,,,92.5,100,-107.5,,100,,,,,,100,1
48,B,Multi-ply,Yes,F,Kseniya Baeva,Ксения Баева,СС,2000-10-21,Amateur Teen 17-19,46.65,,,,,,50,57.5,-65,,57.5,,,,,,57.5,1
52,B,Multi-ply,Yes,F,Varvara Lychko,Варвара Лычко,Новоспорт,2000-11-03,Amateur Teen 17-19,50.7,,,,,,82.5,92.5,-100,,92.5,,,,,,92.5,1
56,B,Multi-ply,Yes,F,Kseniya Nikandrova,Ксения Никандрова,Новоспорт,1999-12-19,Amateur Teen 17-19,54.48,,,,,,72.5,-77.5,-77.5,,72.5,,,,,,72.5,1
60,B,Multi-ply,Yes,F,Irina Kochina,Ирина Кочина,СС,1999-05-12,Amateur Teen 17-19,60,,,,,,82.5,87.5,-95,,87.5,,,,,,87.5,1
60,B,Multi-ply,Yes,F,Anastasiya Sledenko,Анастасия Следенко,СС,1999-11-08,Amateur Teen 17-19,59.3,,,,,,-75,-75,-75,,,,,,,,,DQ
67.5,B,Multi-ply,Yes,F,Yuliya Guseva,Юлия Гусева,Новоспорт,2000-11-15,Amateur Teen 17-19,65.3,,,,,,100,-107.5,107.5,,107.5,,,,,,107.5,1
56,B,Multi-ply,Yes,F,Yana Mikheeva,Яна Михеева,Новоспорт,1997-01-07,Amateur Juniors 20-23,55.8,,,,,,70,77.5,85,,85,,,,,,85,1
60,B,Multi-ply,Yes,F,Anastasiya Loginova,Анастасия Логинова,СС,1998-02-26,Amateur Juniors 20-23,59.6,,,,,,95,-100,-100,,95,,,,,,95,1
48,B,Multi-ply,Yes,F,Galina Elchina,Галина Ельчина,Стальной Медведь,1968-06-08,Amateur Open,47.95,,,,,,85,-92.5,-92.5,,85,,,,,,85,1
52,B,Multi-ply,Yes,F,Ekaterina Kudryavtseva,Екатерина Кудрявцева,Стальной Медведь,1988-03-08,Amateur Open,51.5,,,,,,70,-82.5,-82.5,,70,,,,,,70,1
60,B,Multi-ply,Yes,F,Anna Novoselova,Анна Новоселова,Стальной Медведь,1992-10-06,Amateur Open,59.7,,,,,,-107.5,-107.5,107.5,,107.5,,,,,,107.5,1
60,B,Multi-ply,Yes,F,Margarita Koroleva,Маргарита Королева,СС,1994-01-28,Amateur Open,59.06,,,,,,75,-82.5,-82.5,,75,,,,,,75,2
67.5,B,Multi-ply,Yes,F,Tatyana Barabanova,Татьяна Барабанова,Томская Сила,1996-01-21,Amateur Open,64.85,,,,,,-92.5,92.5,-107.5,,92.5,,,,,,92.5,1
67.5,B,Multi-ply,Yes,F,Tatyana Slepokurova,Татьяна Слепокурова,Стальной Медведь,1969-01-07,Amateur Open,63.75,,,,,,-87.5,-87.5,-87.5,,,,,,,,,DQ
67.5,B,Multi-ply,Yes,F,Natalya Plugatyr,Наталья Плугатырь,СС,1979-07-14,Amateur Open,67.5,,,,,,-105,-107.5,-107.5,,,,,,,,,DQ
82.5,B,Multi-ply,Yes,F,Natalya Krasotka,Наталья Красотка,Новоспорт,1978-09-27,Amateur Open,81.1,,,,,,115,125,-130,,125,,,,,,125,1
82.5,B,Multi-ply,Yes,F,Valentina Polynskaya,Валентина Полынская,СС,1983-03-29,Amateur Open,79.95,,,,,,100,107.5,-112.5,,107.5,,,,,,107.5,2
48,B,Multi-ply,Yes,F,Galina Elchina,Галина Ельчина,Стальной Медведь,1968-06-08,Amateur Masters 40-49,47.95,,,,,,85,-92.5,-92.5,,85,,,,,,85,1
60,B,Multi-ply,Yes,F,Natalya Glinkina,Наталья Глинкина,СС,1972-12-15,Amateur Masters 40-49,59.5,,,,,,-70,70,75,,75,,,,,,75,1
67.5,B,Multi-ply,Yes,F,Tatyana Slepokurova,Татьяна Слепокурова,Стальной Медведь,1969-01-07,Amateur Masters 40-49,63.75,,,,,,-87.5,-87.5,-87.5,,,,,,,,,DQ
75,B,Multi-ply,Yes,M,Sergey Paul,Сергей Пауль,Новоспорт,1999-04-01,Amateur Teen 17-19,72,,,,,,-140,140,150,,150,,,,,,150,1
67.5,B,Multi-ply,Yes,M,Demur Khorava,Демур Хорава,СС,1995-06-06,Amateur Juniors 20-23,64.2,,,,,,152.5,162.5,-167.5,,162.5,,,,,,162.5,1
90,B,Multi-ply,Yes,M,Evgeniy Raspopin,Евгений Распопин,СС,1998-02-17,Amateur Juniors 20-23,88,,,,,,170,182.5,187.5,,187.5,,,,,,187.5,1
67.5,B,Multi-ply,Yes,M,Nikolay Aleksandrov,Николай Александров,СС,1991-09-23,Amateur Open,65.8,,,,,,150,160,-167.5,,160,,,,,,160,1
67.5,B,Multi-ply,Yes,M,Andrey Kolbin,Андрей Колбин,Стальной Медведь,1984-07-22,Amateur Open,66.95,,,,,,-160,160,-175,,160,,,,,,160,2
67.5,B,Multi-ply,Yes,M,Maksim Konovalov,Максим Коновалов,СС,1984-05-25,Amateur Open,65.8,,,,,,145,152.5,-167.5,,152.5,,,,,,152.5,3
67.5,B,Multi-ply,Yes,M,Maksim Kovalev,Максим Ковалев,Стальной Медведь,1987-01-28,Amateur Open,67.5,,,,,,140,-167.5,-167.5,,140,,,,,,140,5
75,B,Multi-ply,Yes,M,Vladimir Vesnin,Владимир Веснин,СС,1988-04-11,Amateur Open,71.5,,,,,,150,162.5,167.5,,167.5,,,,,,167.5,3
75,B,Multi-ply,Yes,M,Aleksey Ponarin,Алексей Понарин,Бурятия,1990-10-12,Amateur Open,75,,,,,,132.5,-150,-150,,132.5,,,,,,132.5,4
75,B,Multi-ply,Yes,M,Aleksandr Buzunov,Александр Бузунов,Стальной Медведь,1993-09-29,Amateur Open,72.4,,,,,,-162.5,-162.5,-162.5,,,,,,,,,DQ
75,B,Multi-ply,Yes,M,Vyacheslav Dementev,Вячеслав Дементьев,Стальной Медведь,1983-02-17,Amateur Open,73.85,,,,,,-130,-130,-130,,,,,,,,,DQ
82.5,B,Multi-ply,Yes,M,Yuriy Mikhaylov,Юрий Михайлов,СС,1987-07-22,Amateur Open,82.5,,,,,,215,-230,-230,,215,,,,,,215,6
82.5,B,Multi-ply,Yes,M,Vasily Schastlivyy,Василй Счастливый,Рельеф,1989-04-20,Amateur Open,82.5,,,,,,190,202.5,210,,210,,,,,,210,7
82.5,B,Multi-ply,Yes,M,Yuriy Nogay,Юрий Ногай,Стальной Медведь,1983-05-26,Amateur Open,81.95,,,,,,-270,-285,-285,,,,,,,,,DQ
90,B,Multi-ply,Yes,M,Vladimir Doroshev,Владимир Дорошев,,1980-10-05,Amateur Open,88.6,,,,,,-245,245,-260,265,245,,,,,,245,2
90,B,Multi-ply,Yes,M,Ivan Volozhanin,Иван Воложанин,Стальной Медведь,1991-06-08,Amateur Open,86.5,,,,,,-187.5,187.5,-197.5,,187.5,,,,,,187.5,6
90,B,Multi-ply,Yes,M,Evgeniy Myshkin,Евгений Мышкин,Новоспорт,1985-05-15,Amateur Open,86.7,,,,,,175,187.5,-195,,187.5,,,,,,187.5,7
90,B,Multi-ply,Yes,M,Artem Streltsov,Артем Стрельцов,Стальной Медведь,1993-11-07,Amateur Open,86.4,,,,,,-170,180,-195,,180,,,,,,180,8
100,B,Multi-ply,Yes,M,Ilya Tazyrachev,Илья Тазырачев,,1993-02-28,Amateur Open,94.15,,,,,,212.5,-220,-220,,212.5,,,,,,212.5,3
100,B,Multi-ply,Yes,M,Mikhail Luzan,Михаил Лузан,Патриот,1982-01-27,Amateur Open,94.8,,,,,,-195,-202.5,202.5,,202.5,,,,,,202.5,4
100,B,Multi-ply,Yes,M,Aleksey Zhuravlev,Алексей Журавлев,,1989-10-10,Amateur Open,97.7,,,,,,202.5,-210,-210,,202.5,,,,,,202.5,5
100,B,Multi-ply,Yes,M,Pavel Babich,Павел Бабич,Галкин team,1984-08-09,Amateur Open,100,,,,,,-180,180,-190,,180,,,,,,180,6
100,B,Multi-ply,Yes,M,Dmitriy Sherin,Дмитрий Шерин,Стальной Медведь,1991-02-17,Amateur Open,93.25,,,,,,-285,-285,-285,,,,,,,,,DQ
125,B,Multi-ply,Yes,M,Konstantin Starodubov,Константин Стародубов,,1982-10-17,Amateur Open,124,,,,,,255,280,300,,300,,,,,,300,2
140,B,Multi-ply,Yes,M,Yuriy Shmelev,Юрий Шмелев,Новоспорт,1987-09-23,Amateur Open,138.5,,,,,,240,-255,,,240,,,,,,240,2
75,B,Multi-ply,Yes,M,Pavel Nikolovskiy,Павел Николовский,,1978-05-08,Amateur Masters 40-49,73.1,,,,,,200,210,220,,220,,,,,,220,1
82.5,B,Multi-ply,Yes,M,Dmitriy Zavarzin,Дмитрий Заварзин,СС,1973-11-07,Amateur Masters 40-49,82.15,,,,,,160,167.5,175,,175,,,,,,175,2
90,B,Multi-ply,Yes,M,Sergey Boldin,Сергей Болдин,Барабинск,1971-05-31,Amateur Masters 40-49,87.15,,,,,,180,-200,-200,,180,,,,,,180,2
100,B,Multi-ply,Yes,M,Aleksandr Votchal,Александр Вотчал,СС,1976-05-14,Amateur Masters 40-49,97.55,,,,,,165,175,-180,,175,,,,,,175,3
110,B,Multi-ply,Yes,M,Sergey Fefler,Сергей Фефлер,СС,1977-09-12,Amateur Masters 40-49,109.95,,,,,,-190,190,205,,205,,,,,,205,2
125,B,Multi-ply,Yes,M,Andrey Kislyak,Андрей Кисляк,,1977-03-19,Amateur Masters 40-49,114.5,,,,,,-255,255,-262.5,,255,,,,,,255,2
82.5,B,Multi-ply,Yes,M,Nikolay Efanov,Николай Ефанов,Стальной Медведь,1958-07-10,Amateur Masters 50-59,82.4,,,,,,-160,160,-175,,160,,,,,,160,1
110,B,Multi-ply,Yes,M,Mikhail Ishchechkin,Михаил Ищечкин,Силуэт,1962-01-22,Amateur Masters 50-59,105.85,,,,,,-190,205,,,205,,,,,,205,1
125,B,Multi-ply,Yes,M,Vladimir Simonenko,Владимир Симоненко,Богатырь,1960-09-02,Amateur Masters 50-59,122,,,,,,170,,,,170,,,,,,170,1
75,B,Multi-ply,Yes,M,Nikolay Zakharov,Николай Захаров,Новоспорт,1951-12-21,Amateur Masters 60-69,73.15,,,,,,90,-100,-100,,90,,,,,,90,1
100,B,Multi-ply,Yes,M,Vyacheslav Nikolaev,Вячеслав Николаев,Стальной Медведь,1956-07-10,Amateur Masters 60-69,97.9,,,,,,160,180,-200,,180,,,,,,180,1
110,B,Multi-ply,Yes,M,Anatoliy Shapovalov,Анатолий Шаповалов,Богатырь,1947-09-17,Amateur Masters 70-79,106.1,,,,,,-140,-145,-145,,,,,,,,,DQ
52,SBD,Wraps,Yes,M,Nikita Gubarev,Никита Губарев,Новоспорт,2003-05-26,Amateur Teen 14-16,46.1,-75,75,-80,,75,35,-45,45,,45,80,90,-95,,90,210,1
60,SBD,Wraps,Yes,M,Valentin Sekerin,Валентин Секерин,СС,2001-10-07,Amateur Teen 14-16,60,130,-140,-147.5,,130,72.5,-75,75,,75,150,155,-160,,155,360,1
60,SBD,Wraps,Yes,M,Denis Seleznev,Денис Селезнев,Новоспорт,2002-04-15,Amateur Teen 14-16,58.35,90,100,110,,110,50,60,-70,,60,130,152.5,-160,,152.5,322.5,2
60,SBD,Wraps,Yes,M,Aleksandr Vostrikov,Александр Востриков,Новоспорт,2001-08-03,Amateur Teen 14-16,58.8,87.5,95,102.5,,102.5,50,55,-60,,55,100,115,120,,120,277.5,4
67.5,SBD,Wraps,Yes,M,Ilya Spektoruk,Илья Спекторук,СС,2003-07-10,Amateur Teen 14-16,67.1,140,150,-155,,150,80,-90,90,,90,190,200,-205,,200,440,1
67.5,SBD,Wraps,Yes,M,Artem Prozorov,Артем Прозоров,Новоспорт,2002-06-07,Amateur Teen 14-16,66.05,100,105,-110,,105,-62.5,-62.5,-62.5,,,140,-150,-150,,140,,DQ
75,SBD,Wraps,Yes,M,Mikhail Shpilev,Михаил Шпилев,Богатырь,2004-01-22,Amateur Teen 14-16,75,-100,110,122.5,,122.5,95,105,-110,,105,120,140,155,,155,382.5,1
75,SBD,Wraps,Yes,M,Daniil Druzhinin,Даниил Дружинин,Новоспорт,2003-10-03,Amateur Teen 14-16,73.15,115,125,137.5,,137.5,62.5,70,75,,75,130,140,145,,145,357.5,2
82.5,SBD,Wraps,Yes,M,Aleksandr Voznesenskiy,Александр Вознесенский,Новоспорт,2002-06-04,Amateur Teen 14-16,75.5,110,120,-127.5,,120,70,80,85,,85,165,175,187.5,,187.5,392.5,1
100,SBD,Wraps,Yes,M,Aleksey Kovalchuk,Алексей Ковальчук,Новоспорт,2003-07-16,Amateur Teen 14-16,90.35,90,100,110,,110,42.5,47.5,-52.5,,47.5,100,115,125,,125,282.5,1
56,SBD,Wraps,Yes,M,Aleksandr Mikheev,Александр Михеев,Барабинск,2001-02-19,Amateur Teen 17-19,55.14,120,130,135,,135,90,95,-97.5,,95,160,175,185,,185,415,1
56,SBD,Wraps,Yes,M,Aleksandr Chuporshnev,Александр Чупоршнев,Рельеф,1999-05-20,Amateur Teen 17-19,52.45,107.5,115,-117.5,,115,85,90,-95,,90,150,-160,-160,,150,355,2
67.5,SBD,Wraps,Yes,M,Vladislav Ostrovershenko,Владислав Островершенко,СС,2000-06-01,Amateur Teen 17-19,62.25,120,130,-135,,130,105,-110,-110,,105,125,132.5,140,,140,375,1
75,SBD,Wraps,Yes,M,Aleksey Andrushevskiy,Алексей Андрушевский,,1998-10-21,Amateur Teen 17-19,74.8,140,150,-160,,150,130,-137.5,-137.5,,130,180,190,197.5,,197.5,477.5,1
75,SBD,Wraps,Yes,M,Sergey Paul,Сергей Пауль,Новоспорт,1999-04-01,Amateur Teen 17-19,72.8,140,150,157.5,,157.5,105,110,-112.5,,110,190,-200,200,,200,467.5,2
90,SBD,Wraps,Yes,M,Maksim Prachikov,Максим Прачиков,хаммер фит,1998-10-08,Amateur Teen 17-19,87.95,-200,-210,-210,,,120,,,,120,,,,,,,DQ
100,SBD,Wraps,Yes,M,Aleksey Vasilchuk,Алексей Васильчук,СКС,2000-11-26,Amateur Teen 17-19,92.75,-195,-195,-195,,,-130,,,,,-200,,,,,,DQ
82.5,SBD,Wraps,Yes,M,Vladislav Berezov,Владислав Березов,Новоспорт,1997-06-24,Amateur Juniors 20-23,79.8,160,180,192.5,,192.5,100,115,-120,,115,190,210,230,,230,537.5,3
82.5,SBD,Wraps,Yes,M,Artem Suyargulov,Артем Суяргулов,Iron-сфера,1997-06-06,Amateur Juniors 20-23,80.9,-170,170,180,,180,105,110,115,,115,170,202.5,-222.5,,202.5,497.5,4
90,SBD,Wraps,Yes,M,Ivan Simakov,Иван Симаков,Барабинск,1994-07-30,Amateur Juniors 20-23,89.3,155,170,180,,180,125,130,-135,,130,190,205,225,,225,535,2
90,SBD,Wraps,Yes,M,Nikita Kolmakov,Никита Колмаков,Импульс,1995-05-20,Amateur Juniors 20-23,88.6,-180,200,-210,,200,-145,-155,-155,,,,,,,,,DQ
100,SBD,Wraps,Yes,M,Artur Budko,Артур Будько,Iron-сфера,1996-12-21,Amateur Juniors 20-23,98,210,230,-240,,230,140,150,-165,,150,220,240,260,,260,640,1
110,SBD,Wraps,Yes,M,Ruslan Murzinov,Руслан Мурзинов,Iron-сфера,1997-10-16,Amateur Juniors 20-23,101.8,-220,230,240,,240,140,-150,160,,160,-220,230,250,,250,650,2
140,SBD,Wraps,Yes,M,Viktor Dudko,Виктор Дудко,Iron-сфера,1997-08-27,Amateur Juniors 20-23,138.5,-100,-100,100,,100,80,90,-100,,90,100,110,140,,140,330,1
67.5,SBD,Wraps,Yes,M,Sergey Poboykin,Сергей Побойкин,Стальной Медведь,1989-03-10,Amateur Open,66.15,165,172.5,-177.5,,172.5,137.5,-142.5,-142.5,,137.5,190,-200,200,,200,510,1
75,SBD,Wraps,Yes,M,Roman Yakovlev,Роман Яковлев,Новоспорт,1989-02-24,Amateur Open,71.8,140,150,-160,,150,105,-115,115,,115,190,210,-220,,210,475,2
75,SBD,Wraps,Yes,M,Denis Denisov,Денис Денисов,,1988-11-17,Amateur Open,74.85,150,-160,-160,,150,105,-110,110,,110,190,-205,-205,,190,450,3
75,SBD,Wraps,Yes,M,Aleksey Ponarin,Алексей Понарин,Бурятия,1990-10-12,Amateur Open,73.9,140,160,170,,170,100,115,-125,,115,140,150,-160,,150,435,4
82.5,SBD,Wraps,Yes,M,Semen Golovachuk,Семен Головачук,Новоспорт,1991-11-07,Amateur Open,81.3,212.5,222.5,230,,230,160,167.5,170,,170,245,-257.5,-257.5,,245,645,1
82.5,SBD,Wraps,Yes,M,Sergey Polosin,Сергей Полосин,Стальной Медведь,1983-09-27,Amateur Open,82.05,200,210,220,,220,115,120,-125,,120,250,-260,-260,,250,590,2
82.5,SBD,Wraps,Yes,M,Anton Konstantinov,Антон Константинов,,1988-08-26,Amateur Open,81.95,120,130,140,,140,95,105,-110,,105,140,-160,160,,160,405,4
90,SBD,Wraps,Yes,M,Dmitriy Kolomov,Дмитрий Коломов,Рельеф,1996-07-02,Amateur Open,90,215,225,-232.5,,225,140,147.5,152.5,,152.5,255,265,-267,,265,642.5,3
90,SBD,Wraps,Yes,M,Aleksey Bragin,Алексей Брагин,Колыванец,1981-11-25,Amateur Open,87.55,190,200,-212.5,,200,145,150,155,,155,200,220,230,,230,585,4
90,SBD,Wraps,Yes,M,Andrey Minenko,Андрей Миненко,СС,1992-09-24,Amateur Open,86.3,160,165,170,,170,112.5,-117.5,-117.5,,112.5,180,-190,-190,,180,462.5,6
90,SBD,Wraps,Yes,M,Mark Bryginskiy,Марк Брыгинский,,1990-03-29,Amateur Open,84.75,140,145,150,,150,110,-115,-115,,110,180,-190,-190,,180,440,7
90,SBD,Wraps,Yes,M,Evgeniy Tsibulin,Евгений Цибулин,,1988-02-11,Amateur Open,89.9,-145,145,152.5,,152.5,95,-100,-102.5,,95,180,185,-187.5,,185,432.5,8
100,SBD,Wraps,Yes,M,Aleksandr Ivanov,Александр Иванов,Iron-сфера,1989-08-21,Amateur Open,98.95,-210,210,-230,,210,160,170,-175,,170,242.5,260,275,,275,655,4
100,SBD,Wraps,Yes,M,Makhmadsolikh Salimov,Махмадсолих Салимов,,1986-09-10,Amateur Open,100,210,225,230,,230,160,175,-185,,175,230,-250,250,,250,655,5
100,SBD,Wraps,Yes,M,Nikita Khloptsev,Никита Хлопцев,,1990-09-10,Amateur Open,98.25,190,-200,200,,200,140,150,-155,,150,220,225,-235,,225,575,7
100,SBD,Wraps,Yes,M,Aleksey Churkin,Алексей Чуркин,Стальной Медведь,1987-07-06,Amateur Open,98.15,160,170,180,,180,115,-120,120,,120,210,220,-235,,220,520,9
110,SBD,Wraps,Yes,M,Konstantin Zhukov,Константин Жуков,Обь,1987-04-21,Amateur Open,109.95,210,230,240,,240,172.5,-182.5,-182.5,,172.5,220,247.5,,,247.5,660,3
110,SBD,Wraps,Yes,M,Denis Miroshnichenko,Денис Мирошниченко,Профлига,1976-09-27,Amateur Open,109.1,-207.5,-212.5,215,,215,127.5,-135,-135,,127.5,217.5,225,235,,235,577.5,6
110,SBD,Wraps,Yes,M,Ivan Trukhin,Иван Трухин,Новоспорт,1982-05-13,Amateur Open,108.65,165,175,180,,180,-110,115,125,,125,170,180,185,,185,490,7
100,SBD,Wraps,Yes,M,Vasiliy Mandzyuk,Василий Мандзюк,Автовокзал,1971-08-08,Amateur Masters 40-49,99.2,180,192.5,202.5,,202.5,140,147.5,150,,150,190,205,212.5,,212.5,565,1
67.5,SBD,Wraps,Yes,M,Nikolay Emelyanov #2,Николай Емельянов,кемерово,1963-12-30,Amateur Masters 50-59,65.7,120,130,135,,135,90,92.5,-95,,92.5,160,172.5,-180,,172.5,400,1
75,SBD,Wraps,Yes,M,Ramil Samigullin,Рамиль Самигуллин,Молодость,1961-02-24,Amateur Masters 50-59,74.35,165,172.5,177.5,,177.5,105,-107.5,107.5,,107.5,170,180,190,,190,475,1
100,SBD,Wraps,Yes,M,Aleksey Denisov,Алексей Денисов,Богатырь,1963-05-01,Amateur Masters 50-59,96.45,-170,-170,170,,170,105,115,120,,120,170,190,205,,205,495,2
67.5,SBD,Wraps,Yes,M,Vladimir Sviderskiy,Владимир Свидерский,Молодость,1951-05-07,Amateur Masters 60-69,64.3,115,120,125,,125,85,90,-92.5,,90,127.5,132.5,137.5,,137.5,352.5,1
82.5,SBD,Wraps,Yes,M,Viktor Safimov,Виктор Сафимов,Вертикаль,1949-08-15,Amateur Masters 60-69,76,-150,150,,,150,80,87.5,92.5,,92.5,150,172.5,180,,180,422.5,1
90,SBD,Wraps,Yes,M,Vladimir Pleshkov,Владимир Плешков,,1944-08-29,Amateur Masters 70-79,86.5,-145,145,150,,150,112.5,115,,,115,160,170,172.5,,172.5,437.5,1
44,SBD,Wraps,Yes,F,Natalya Odintsova,Наталья Одинцова,Новоспорт,2002-08-14,Amateur Teen 14-16,41.6,55,62.5,70,,70,30,37.5,-40,,37.5,40,50,,,50,157.5,1
48,SBD,Wraps,Yes,F,Vladislava Khoda,Владислава Хода,Барабинск,2002-05-26,Amateur Teen 14-16,47.9,55,62.5,67.5,,67.5,30,35,-37.5,,35,80,90,100,,100,202.5,1
52,SBD,Wraps,Yes,F,Anastasiya Sharamet,Анастасия Шарамет,Новоспорт,2002-06-17,Amateur Teen 14-16,50.2,55,-60,-62.5,,55,25,30,-32.5,,30,52.5,60,65,,65,150,1
67.5,SBD,Wraps,Yes,F,Anastasiya Dorokhova,Анастасия Дорохова,Колыванец,2002-02-18,Amateur Teen 14-16,66.35,140,145,-150,,145,82.5,85,87.5,,87.5,155,160,165,,165,397.5,1
75,SBD,Wraps,Yes,F,Tatyana Koval,Татьяна Коваль,Молодость,2003-01-25,Amateur Teen 14-16,70.75,95,100,-105,,100,-45,-45,-50,,,85,90,-95,,90,,DQ
44,SBD,Wraps,Yes,F,Mariya Yadryshnikova,Мария Ядрышникова,Новоспорт,2000-02-25,Amateur Teen 17-19,43.7,62.5,70,,,70,35,-40,-40,,35,90,-100,-100,,90,195,1
52,SBD,Wraps,Yes,F,Varvara Lychko,Варвара Лычко,Новоспорт,2000-11-03,Amateur Teen 17-19,50.7,75,-85,90,,90,55,60,-62.5,,60,100,110,-120,,110,260,1
60,SBD,Wraps,Yes,F,Mariya Sukhova,Мария Сухова,СС,1999-09-29,Amateur Teen 17-19,59.95,-90,90,100,,100,50,-55,-55,,50,135,-145,-145,,135,285,1
60,SBD,Wraps,Yes,F,Anastasiya Andreeva,Анастасия Андреева,СС,2001-01-26,Amateur Teen 17-19,60,97.5,-105,-105,,97.5,55,-60,-60,,55,115,122.5,-135,,122.5,275,2
60,SBD,Wraps,Yes,F,Sofya Klykova,Софья Клыкова,Новоспорт,2000-06-24,Amateur Teen 17-19,57.7,60,65,-72.5,,65,30,35,-40,,35,62.5,70,-82.5,,70,170,3
52,SBD,Wraps,Yes,F,Yuliya Dezhina,Юлия Дежина,Новоспорт,1997-06-14,Amateur Juniors 20-23,51.34,65,75,82.5,,82.5,30,37.5,-40,,37.5,70,90,100,,100,220,1
56,SBD,Wraps,Yes,F,Aleksandra Baklanova,Александра Бакланова,Новоспорт,1995-03-24,Amateur Juniors 20-23,55.6,90,97.5,100,,100,47.5,52.5,-55,,52.5,110,120,-125,,120,272.5,1
82.5,SBD,Wraps,Yes,F,Olga Gerasimyuk,Ольга Герасимюк,Колыванец,1996-03-01,Amateur Juniors 20-23,82.3,165,170,-175,,170,105,107.5,110,,110,200,212.5,,,212.5,492.5,1
44,SBD,Wraps,Yes,F,Lyudmila Barva,Людмила Барва,СС,1994-07-10,Amateur Open,43.98,70,75,-80,,75,-35,35,-37.5,,35,90,95,-102.5,,95,205,1
52,SBD,Wraps,Yes,F,Anastasiya Menshova,Анастасия Меньшова,Галкин team,1992-02-25,Amateur Open,51,75,80,-85,,80,45,50,52.5,,52.5,90,100,107.5,,107.5,240,1
52,SBD,Wraps,Yes,F,Darya Yudina,Дарья Юдина,Новоспорт,1988-06-09,Amateur Open,50.9,70,82.5,-90,,82.5,-40,40,45,,45,90,102.5,-112.5,,102.5,230,2
56,SBD,Wraps,Yes,F,Mariya Tarasova,Мария Тарасова,Галкин team,1989-08-18,Amateur Open,55.4,92.5,100,105,,105,47.5,52.5,-55,,52.5,105,115,122.5,,122.5,280,1
56,SBD,Wraps,Yes,F,Aleksandra Baklanova,Александра Бакланова,Новоспорт,1995-03-24,Amateur Open,55.6,90,97.5,100,,100,47.5,52.5,-55,,52.5,110,120,-125,,120,272.5,2
56,SBD,Wraps,Yes,F,Oksana Mikheeva,Оксана Михеева,Барабинск,1988-10-02,Amateur Open,55.6,80,87.5,92.5,,92.5,50,55,-57.5,,55,115,122.5,125,,125,272.5,3
56,SBD,Wraps,Yes,F,Natalya Batukova,Наталья Батукова,Новоспорт,1985-05-28,Amateur Open,55.88,90,100,-105,,100,45,50,-55,,50,105,115,120,,120,270,4
56,SBD,Wraps,Yes,F,Kseniya Lebedintseva,Ксения Лебединцева,территория силы,1990-09-14,Amateur Open,54.15,80,-85,85,,85,45,50,52.5,,52.5,107.5,115,125,,125,262.5,5
56,SBD,Wraps,Yes,F,Kseniya Kondrateva,Ксения Кондратьева,,1988-07-05,Amateur Open,55.4,80,87.5,92.5,,92.5,47.5,52.5,55,,55,-110,110,-125,,110,257.5,6
56,SBD,Wraps,Yes,F,Altynay Ubushaeva,Алтынай Убушаева,Алекс Фитнесс,1991-06-06,Amateur Open,54.6,90,95,-97.5,,95,-42.5,-42.5,42.5,,42.5,95,102.5,-107.5,,102.5,240,7
60,SBD,Wraps,Yes,F,Tatyana Fradkina,Татьяна Фрадкина,территория силы,1982-11-15,Amateur Open,58.65,80,85,90,,90,47.5,-52.5,-52.5,,47.5,115,-122.5,-122.5,,115,252.5,2
60,SBD,Wraps,Yes,F,Natalya Malenkova,Наталья Маленкова,Галкин team,1981-11-04,Amateur Open,56.6,-60,65,70,,70,40,45,-47.5,,45,100,110,112.5,,112.5,227.5,3
67.5,SBD,Wraps,Yes,F,Anastasiya Dorokhova,Анастасия Дорохова,Колыванец,2002-02-18,Amateur Open,66.35,140,145,-150,,145,82.5,85,87.5,,87.5,155,160,165,,165,397.5,1
67.5,SBD,Wraps,Yes,F,Kseniya Melnik,Ксения Мельник,Галкин team,1986-11-25,Amateur Open,66.55,135,142.5,-145,,142.5,80,85,87.5,,87.5,145,157.5,-160,,157.5,387.5,2
67.5,SBD,Wraps,Yes,F,Irina Marunchenko,Ирина Марунченко,Галкин team,1986-05-20,Amateur Open,65.35,107.5,115,-122.5,,115,65,-70,-70,,65,110,120,125,,125,305,3
67.5,SBD,Wraps,Yes,F,Valentina Minakova,Валентина Минакова,,1987-11-01,Amateur Open,65.15,95,-105,105,,105,-50,50,55,,55,110,120,-127.5,,120,280,5
67.5,SBD,Wraps,Yes,F,Svetlana Danilenko,Светлана Даниленко,СС,1984-11-04,Amateur Open,66.7,100,-105,105,,105,42.5,47.5,-50,,47.5,110,120,-125,,120,272.5,6
67.5,SBD,Wraps,Yes,F,Anastasiya Tsibulina,Анастасия Цибулина,Томская Сила,1986-09-15,Amateur Open,65.45,80,-87.5,,,80,-60,-60,60,,60,110,-120,120,,120,260,7
75,SBD,Wraps,Yes,F,Nina Lebedintseva,Нина Лебединцева,Новоспорт,1985-05-24,Amateur Open,73.5,100,110,-115,,110,65,-70,-70,,65,132.5,145,147.5,,147.5,322.5,2
75,SBD,Wraps,Yes,F,Ekaterina Sokolovich,Екатерина Соколович,Галкин team,1997-08-15,Amateur Open,72.3,90,100,-107.5,,100,55,60,62.5,,62.5,105,115,-117.5,,115,277.5,4
82.5,SBD,Wraps,Yes,F,Olga Gerasimyuk,Ольга Герасимюк,Колыванец,1996-03-01,Amateur Open,82.3,165,170,-175,,170,105,107.5,110,,110,200,212.5,,,212.5,492.5,1
60,SBD,Wraps,Yes,F,Tatyana Pishchalko,Татьяна Пищалко,Стальной Медведь,1974-04-23,Amateur Masters 40-49,59.35,-70,75,-85,,75,-45,-45,45,,45,100,-105,-105,,100,220,1
60,SBD,Wraps,Yes,F,Zhamilya Lebedintseva,Жамиля Лебединцева,Новоспорт,1963-05-26,Amateur Masters 50-59,56.42,40,45,47.5,,47.5,30,35,-37.5,,35,50,60,70,,70,152.5,1
90,D,Raw,Yes,M,Anatoliy Mazepa,Анатолий Мазепа,Алекс Фитнесс,2000-05-15,Amateur Teen 17-19,89.25,,,,,,,,,,,-197.5,197.5,-210,,197.5,197.5,1
82.5,D,Raw,Yes,M,Maksim Troyanov,Максим Троянов,,1991-12-11,Amateur Open,81.35,,,,,,,,,,,-220,220,-230,,220,220,1
82.5,D,Raw,Yes,M,Aydyn Eres-Ool,Айдын Эрес-Оол,,1985-03-03,Amateur Open,82.2,,,,,,,,,,,205,217.5,-225,,217.5,217.5,2
90,D,Raw,Yes,M,Ilya Mikhaelis,Илья Михаэлис,СС,1993-04-07,Amateur Open,88.95,,,,,,,,,,,225,230,,,230,230,1
90,D,Raw,Yes,M,Anatoliy Stasikov,Анатолий Стасиков,территория силы,1985-11-09,Amateur Open,87.15,,,,,,,,,,,200,210,225,,225,225,2
90,D,Raw,Yes,M,Igor Kulakovskiy,Игорь Кулаковский,Томская Сила,1990-04-14,Amateur Open,87.85,,,,,,,,,,,180,-190,-190,,180,180,3
100,D,Raw,Yes,M,Aleksandr Chernov,Александр Чернов,,1989-08-15,Amateur Open,99.2,,,,,,,,,,,230,250,270,,270,270,1
100,D,Raw,Yes,M,Vyacheslav Nikolaev,Вячеслав Николаев,Стальной Медведь,1956-07-10,Amateur Open,97.9,,,,,,,,,,,220,240,-257.5,,240,240,2
82.5,D,Raw,Yes,M,Aleksey Vinyukov,Алексей Винюков,Профлига,1973-10-19,Amateur Masters 40-49,82.5,,,,,,,,,,,225,-245,-245,,225,225,1
90,D,Raw,Yes,M,Eduard Isagulov,Эдуард Исагулов,Ермак,1970-10-09,Amateur Masters 40-49,88.9,,,,,,,,,,,170,180,190,,190,190,1
100,D,Raw,Yes,M,Vyacheslav Safonov,Вячеслав Сафонов,СК Здоровье,1975-11-07,Amateur Masters 40-49,96,,,,,,,,,,,200,-210,-210,,200,200,1
100,D,Raw,Yes,M,Dmitriy Valman,Дмитрий Вальман,Олимпия,1977-05-24,Amateur Masters 40-49,99.4,,,,,,,,,,,185,197.5,200,,200,200,2
110,D,Raw,Yes,M,David Ryazanov,Давид Рязанов,,1976-03-14,Amateur Masters 40-49,102.5,,,,,,,,,,,-200,-200,200,,200,200,1
82.5,D,Raw,Yes,M,Nikolay Efanov,Николай Ефанов,Стальной Медведь,1958-07-10,Amateur Masters 50-59,82.25,,,,,,,,,,,200,210,-215,,210,210,1
110,D,Raw,Yes,M,Artur Kobets,Артур Кобец,Здоровье,1967-06-10,Amateur Masters 50-59,105,,,,,,,,,,,185,200,212.5,,212.5,212.5,2
140,D,Raw,Yes,M,Andrey Galin,Андрей Галин,Автовокзал,1967-03-29,Amateur Masters 50-59,134.85,,,,,,,,,,,235,255,257.5,,257.5,257.5,1
75,D,Raw,Yes,M,Gennadiy Chuldenko,Геннадий Чулденко,Молодость,1948-07-04,Amateur Masters 60-69,74,,,,,,,,,,,205,,,,205,205,1
100,D,Raw,Yes,M,Vyacheslav Nikolaev,Вячеслав Николаев,Стальной Медведь,1956-07-10,Amateur Masters 60-69,97.9,,,,,,,,,,,220,240,-257.5,,240,240,1
75,D,Raw,Yes,M,Boris Dolmatov,Борис Долматов,,1945-08-04,Amateur Masters 70-79,70,,,,,,,,,,,155,165,170,,170,170,1
82.5,D,Raw,Yes,M,Yuriy Isagulov,Юрий Исагулов,Ермак,1944-01-02,Amateur Masters 70-79,80.75,,,,,,,,,,,150,162.5,,,162.5,162.5,1
52,D,Raw,Yes,F,Valeriya Nesvetaylo,Валерия Несветайло,СС,1986-12-20,Amateur Open,51.8,,,,,,,,,,,-110,-110,110,,110,110,1
56,D,Raw,Yes,F,Viktoriya Simanovich,Виктория Симанович,Железный Самсон,1984-01-16,Amateur Open,53.8,,,,,,,,,,,100,110,115,,115,115,1
67.5,D,Raw,Yes,F,Svetlana Krasnokutskaya,Светлана Краснокутская,,1988-06-08,Amateur Open,66.2,,,,,,,,,,,100,-117.5,-117.5,,100,100,1
56,D,Raw,Yes,F,Irina Monoshkina,Ирина Моношкина,Автовокзал,1975-05-21,Amateur Masters 40-49,54.64,,,,,,,,,,,105,115,-120,,115,115,1
44,B,Raw,Yes,M,Daniil Gazizov,Даниил Газизов,,2006-06-05,Amateur Teen 13,35.4,,,,,,30,-35,35,,35,,,,,,35,1
44,B,Raw,Yes,M,Kirill Kontsevoy,Кирилл Концевой,СС,2012-06-13,Amateur Teen 13,24.56,,,,,,15,20,-30,,20,,,,,,20,2
60,B,Raw,Yes,M,Nikita Pozolotin,Никита Позолотин,Новоспорт,2004-08-06,Amateur Teen 13,59.82,,,,,,50,-60,-60,,50,,,,,,50,1
67.5,B,Raw,Yes,M,Gleb Tuzov,Глеб Тузов,Профлига,2006-01-10,Amateur Teen 13,65.6,,,,,,55,-60,-60,,55,,,,,,55,1
110,B,Raw,Yes,M,Ivan Beygel,Иван Бейгель,Профлига,2004-07-26,Amateur Teen 13,102.5,,,,,,55,60,-65,,60,,,,,,60,1
52,B,Raw,Yes,M,Artemiy Aleksandrov,Артемий Александров,Рельеф,2002-09-04,Amateur Teen 14-16,51.8,,,,,,75,-82.5,82.5,,82.5,,,,,,82.5,1
52,B,Raw,Yes,M,Yakov Mishin,Яков Мишин,Профлига,2001-12-11,Amateur Teen 14-16,48.95,,,,,,-70,-70,-70,,,,,,,,,DQ
60,B,Raw,Yes,M,Nikita Pomeshchikov,Никита Помещиков,Атлет,2003-05-12,Amateur Teen 14-16,57.95,,,,,,75,80,87.5,,87.5,,,,,,87.5,1
67.5,B,Raw,Yes,M,Kirill Shveyko,Кирилл Швейко,Алтайский край,2001-12-05,Amateur Teen 14-16,67,,,,,,125,130,132.5,,132.5,,,,,,132.5,1
67.5,B,Raw,Yes,M,Danil Misyukov,Данил Мисюков,Здоровье,2002-05-21,Amateur Teen 14-16,65,,,,,,95,102.5,110,,110,,,,,,110,2
67.5,B,Raw,Yes,M,Ilya Pelenev,Илья Пеленев,,2002-06-02,Amateur Teen 14-16,66.7,,,,,,95,100,105,,105,,,,,,105,3
67.5,B,Raw,Yes,M,Ilya Gaak,Илья Гаак,,2001-10-09,Amateur Teen 14-16,64.35,,,,,,-105,-105,-105,,,,,,,,,DQ
56,B,Raw,Yes,M,Roman Stakhanov,Роман Стаханов,Новоспорт,1999-06-29,Amateur Teen 17-19,55.3,,,,,,85,-92.5,92.5,,92.5,,,,,,92.5,1
60,B,Raw,Yes,M,Artem Shilin,Артем Шилин,,2001-05-20,Amateur Teen 17-19,59.1,,,,,,82.5,87.5,-100,,87.5,,,,,,87.5,2
67.5,B,Raw,Yes,M,Vladislav Ostrovershenko,Владислав Островершенко,СС,2000-06-01,Amateur Teen 17-19,62.25,,,,,,105,-110,-110,,105,,,,,,105,1
67.5,B,Raw,Yes,M,Aleksandr Udovenko,Александр Удовенко,Новоспорт,1998-12-10,Amateur Teen 17-19,65.35,,,,,,100,-110,-110,,100,,,,,,100,2
75,B,Raw,Yes,M,Mikhail Galimon,Михаил Галимон,Новоспорт,1999-07-21,Amateur Teen 17-19,74.9,,,,,,-127.5,-132.5,132.5,,132.5,,,,,,132.5,1
75,B,Raw,Yes,M,Aleksey Andrushevskiy,Алексей Андрушевский,,1998-10-21,Amateur Teen 17-19,74.8,,,,,,130,-137.5,-137.5,,130,,,,,,130,2
100,B,Raw,Yes,M,Aleksey Vasilchuk,Алексей Васильчук,СКС,2000-11-26,Amateur Teen 17-19,94.45,,,,,,120,130,-142.5,,130,,,,,,130,1
75,B,Raw,Yes,M,Dmitriy Boldin,Дмитрий Болдин,Барабинск,1998-03-29,Amateur Juniors 20-23,74.4,,,,,,130,137.5,-140,,137.5,,,,,,137.5,1
82.5,B,Raw,Yes,M,Yakhyokhozhi Egamberdiev,Яхёхожи Эгамбердиев,Новоспорт,1994-06-17,Amateur Juniors 20-23,77.9,,,,,,125,135,145,,145,,,,,,145,1
82.5,B,Raw,Yes,M,Romanman Stolyar,Романман Столяр,Новоспорт,1994-08-17,Amateur Juniors 20-23,81.2,,,,,,120,130,-135,,130,,,,,,130,2
90,B,Raw,Yes,M,Nikita Kolmakov,Никита Колмаков,Импульс,1995-05-20,Amateur Juniors 20-23,88.6,,,,,,-145,-155,-155,,,,,,,,,DQ
52,B,Raw,Yes,M,Dmitriy Dranitskiy,Дмитрий Драницкий,,1984-02-03,Amateur Open,51.2,,,,,,100,-110,-110,,100,,,,,,100,1
67.5,B,Raw,Yes,M,Sergey Poboykin,Сергей Побойкин,Стальной Медведь,1989-03-10,Amateur Open,66.15,,,,,,137.5,-142.5,-142.5,,137.5,,,,,,137.5,1
67.5,B,Raw,Yes,M,Dmitriy Akulinchev,Дмитрий Акулинчев,,1992-05-23,Amateur Open,63.8,,,,,,120,-125,127.5,,127.5,,,,,,127.5,2
67.5,B,Raw,Yes,M,Vladislav Yushin,Владислав Юшин,территория силы,1989-05-04,Amateur Open,66.85,,,,,,105,-110,-110,,105,,,,,,105,4
67.5,B,Raw,Yes,M,Roman Eliseev,Роман Елисеев,,1989-10-20,Amateur Open,64,,,,,,95,100,-105,,100,,,,,,100,5
67.5,B,Raw,Yes,M,Yuriy Zhmaev,Юрий Жмаев,,1979-08-27,Amateur Open,66.85,,,,,,-140,-145,-145,,,,,,,,,DQ
75,B,Raw,Yes,M,Denis Kuklin,Денис Куклин,Новоспорт,1989-09-06,Amateur Open,74.1,,,,,,127.5,135,137.5,,137.5,,,,,,137.5,3
75,B,Raw,Yes,M,Denis Dubkov,Денис Дубков,фитнес проект,1978-12-31,Amateur Open,72.85,,,,,,120,-127.5,-127.5,,120,,,,,,120,4
75,B,Raw,Yes,M,Aleksey Butrin,Алексей Бутрин,,1983-12-07,Amateur Open,72.95,,,,,,112.5,120,-125,,120,,,,,,120,5
75,B,Raw,Yes,M,Roman Shadrin,Роман Шадрин,Профлига,1993-11-10,Amateur Open,74.75,,,,,,-115,115,-120,,115,,,,,,115,6
75,B,Raw,Yes,M,Kirill Rybakov,Кирилл Рыбаков,,1989-07-17,Amateur Open,74.65,,,,,,110,-120,-120,,110,,,,,,110,7
75,B,Raw,Yes,M,Igor Gil,Игорь Гиль,Новоспорт,1990-01-21,Amateur Open,73.4,,,,,,72.5,-82.5,-87.5,,72.5,,,,,,72.5,10
82.5,B,Raw,Yes,M,Ivan Matvienko,Иван Матвиенко,СС,1990-10-04,Amateur Open,79.3,,,,,,135,142.5,-147.5,,142.5,,,,,,142.5,5
82.5,B,Raw,Yes,M,Vitaliy Larionov,Виталий Ларионов,сектор силы,1989-04-16,Amateur Open,80.75,,,,,,-140,,,,,,,,,,,DQ
82.5,B,Raw,Yes,M,Oleg Antonov,Олег Антонов,Профлига,1984-04-09,Amateur Open,81.85,,,,,,-140,-140,-140,,,,,,,,,DQ
90,B,Raw,Yes,M,Aleksey Limarev,Алексей Лимарев,Стальной Медведь,1986-09-05,Amateur Open,88.6,,,,,,145,155,160,,160,,,,,,160,3
90,B,Raw,Yes,M,Aleksey Bragin,Алексей Брагин,Колыванец,1981-11-25,Amateur Open,87.55,,,,,,145,150,155,,155,,,,,,155,4
90,B,Raw,Yes,M,Danila Omelchenko,Данила Омельченко,СС,1980-09-27,Amateur Open,89.4,,,,,,145,-155,-155,,145,,,,,,145,5
90,B,Raw,Yes,M,Evgeniy Myshkin,Евгений Мышкин,Новоспорт,1985-05-15,Amateur Open,86.7,,,,,,135,-145,-145,,135,,,,,,135,6
90,B,Raw,Yes,M,Sergey Yatskevich,Сергей Яцкевич,,1988-04-22,Amateur Open,87.7,,,,,,130,135,-137.5,,135,,,,,,135,7
90,B,Raw,Yes,M,Ilya Ternovoy,Илья Терновой,,1990-08-10,Amateur Open,88.65,,,,,,-135,135,-140,,135,,,,,,135,8
90,B,Raw,Yes,M,Yuriy Kutulaev,Юрий Кутулаев,сталинград,1991-06-03,Amateur Open,87.25,,,,,,130,-135,-135,,130,,,,,,130,9
90,B,Raw,Yes,M,Aleksandr Grushkovskiy,Александр Грушковский,Новоспорт,1987-10-20,Amateur Open,88.3,,,,,,-120,-130,130,,130,,,,,,130,10
90,B,Raw,Yes,M,Stanislav Osipov,Станислав Осипов,Новоспорт,1988-07-12,Amateur Open,89.15,,,,,,-110,-110,115,,115,,,,,,115,11
90,B,Raw,Yes,M,Eduard Osipov,Эдуард Осипов,Новоспорт,1978-12-27,Amateur Open,89.5,,,,,,95,102.5,-105,,102.5,,,,,,102.5,12
90,B,Raw,Yes,M,Igor Gorshenin,Игорь Горшенин,Профлига,1990-01-24,Amateur Open,89.9,,,,,,-150,-150,-150,,,,,,,,,DQ
100,B,Raw,Yes,M,Evgeniy Rodionov,Евгений Родионов,стимул,1991-06-11,Amateur Open,97.75,,,,,,177.5,187.5,-192.5,,187.5,,,,,,187.5,2
100,B,Raw,Yes,M,Artem Gomolko,Артем Гомолко,Профлига,1987-12-24,Amateur Open,93.2,,,,,,-185,-185,185,,185,,,,,,185,3
100,B,Raw,Yes,M,Makhmadsolikh Salimov,Махмадсолих Салимов,,1986-09-10,Amateur Open,100,,,,,,160,175,-185,,175,,,,,,175,5
100,B,Raw,Yes,M,Ilya Zakharov,Илья Захаров,Олимпия джим,1994-01-19,Amateur Open,99.85,,,,,,162.5,-167.5,167.5,,167.5,,,,,,167.5,6
100,B,Raw,Yes,M,Aleksandr Chernikov,Александр Черников,Профлига,1987-08-17,Amateur Open,97.15,,,,,,-155,162.5,-165,,162.5,,,,,,162.5,7
100,B,Raw,Yes,M,Mikhail Gozhenko,Михаил Гоженко,,1990-11-03,Amateur Open,94.3,,,,,,155,-160,-160,,155,,,,,,155,8
100,B,Raw,Yes,M,Vladimir Panin,Владимир Панин,Вертикаль,1982-07-23,Amateur Open,96.2,,,,,,155,-162.5,-162.5,,155,,,,,,155,9
100,B,Raw,Yes,M,Denis Plugatyr,Денис Плугатырь,СС,1978-05-26,Amateur Open,97.5,,,,,,150,155,-162.5,,155,,,,,,155,10
100,B,Raw,Yes,M,Egor Veselov,Егор Веселов,Олимп,1986-11-21,Amateur Open,99.5,,,,,,150,-162.5,-162.5,,150,,,,,,150,11
100,B,Raw,Yes,M,Pavel Podkorytov,Павел Подкорытов,Стронг-фитнесс,1991-01-23,Amateur Open,97.95,,,,,,135,-142.5,-142.5,,135,,,,,,135,12
100,B,Raw,Yes,M,Denis Shefer,Денис Шефер,СС,1993-06-29,Amateur Open,98.75,,,,,,130,135,-142.5,,135,,,,,,135,13
100,B,Raw,Yes,M,Andrey Fradkin,Андрей Фрадкин,территория силы,1982-02-02,Amateur Open,98.95,,,,,,-162.5,-162.5,-162.5,,,,,,,,,DQ
110,B,Raw,Yes,M,Vadim Smirnov,Вадим Смирнов,Мистратов Тим,1982-10-13,Amateur Open,103.85,,,,,,205,210,212.5,,212.5,,,,,,212.5,2
110,B,Raw,Yes,M,Aleksandr Kadochnikov,Александр Кадочников,,1990-07-26,Amateur Open,107.4,,,,,,-190,195,200,,200,,,,,,200,3
110,B,Raw,Yes,M,Igor Stepanov,Игорь Степанов,Галкин team,1989-04-09,Amateur Open,109.7,,,,,,167.5,-172.5,177.5,,177.5,,,,,,177.5,5
110,B,Raw,Yes,M,Vladimir Kanshen,Владимир Каньшен,Молодость,1990-12-13,Amateur Open,105,,,,,,167.5,170,175,,175,,,,,,175,6
110,B,Raw,Yes,M,Konstantin Zhukov,Константин Жуков,Обь,1987-04-21,Amateur Open,109.95,,,,,,172.5,-182.5,-182.5,,172.5,,,,,,172.5,7
110,B,Raw,Yes,M,Sergey Bocharov,Сергей Бочаров,Молодость,1978-10-27,Amateur Open,102.15,,,,,,167.5,170,-177.5,,170,,,,,,170,8
110,B,Raw,Yes,M,Aleksandr Chernov,Александр Чернов,,1989-08-15,Amateur Open,100.7,,,,,,140,155,167.5,,167.5,,,,,,167.5,9
110,B,Raw,Yes,M,Mikhail Dyakonenko,Михаил Дьяконенко,сектор силы,1990-01-05,Amateur Open,105.5,,,,,,155,167.5,-170,,167.5,,,,,,167.5,10
110,B,Raw,Yes,M,Aleksandr Salikov,Александр Саликов,,1989-03-28,Amateur Open,108.95,,,,,,155,162.5,-167.5,,162.5,,,,,,162.5,13
110,B,Raw,Yes,M,Vladimir Pleshakov,Владимир Плешаков,Стальной Медведь,1975-12-22,Amateur Open,108.3,,,,,,-160,160,-167.5,,160,,,,,,160,14
110,B,Raw,Yes,M,Mikhail Ovsyannikov,Михаил Овсянников,,1985-02-23,Amateur Open,109.95,,,,,,155,-160,-160,,155,,,,,,155,15
110,B,Raw,Yes,M,Grigoriy Bogoslovtsev,Григорий Богословцев,,1984-06-20,Amateur Open,108.3,,,,,,137.5,147.5,-150,,147.5,,,,,,147.5,16
125,B,Raw,Yes,M,Aleksey Dovbnya,Алексей Довбня,Профлига,1983-06-12,Amateur Open,121.7,,,,,,-205,205,-215,,205,,,,,,205,4
125,B,Raw,Yes,M,Pavel Tumanov,Павел Туманов,Новоспорт,1992-09-02,Amateur Open,111.15,,,,,,185,-195,-195,,185,,,,,,185,5
125,B,Raw,Yes,M,Dmitriy Melkov,Дмитрий Мельков,Кристалл,1971-03-18,Amateur Open,115.35,,,,,,165,170,-175,,170,,,,,,170,6
75,B,Raw,Yes,M,Yuriy Ageev,Юрий Агеев,Кристалл,1975-05-22,Amateur Masters 40-49,73.8,,,,,,140,145,-147.5,,145,,,,,,145,1
75,B,Raw,Yes,M,Igor Degtyarev,Игорь Дегтярев,агму,1972-11-19,Amateur Masters 40-49,72,,,,,,107.5,112.5,115,,115,,,,,,115,2
82.5,B,Raw,Yes,M,Sergey Grishin,Сергей Гришин,СС,1972-07-16,Amateur Masters 40-49,81.9,,,,,,127.5,132.5,137.5,,137.5,,,,,,137.5,1
90,B,Raw,Yes,M,Sergey Deryuzhenko,Сергей Дерюженко,,1977-06-16,Amateur Masters 40-49,87.65,,,,,,147.5,155,-160,,155,,,,,,155,3
90,B,Raw,Yes,M,Oleg Zarutskiy,Олег Заруцкий,Профлига,1973-01-03,Amateur Masters 40-49,86.55,,,,,,-130,130,135,,135,,,,,,135,6
90,B,Raw,Yes,M,Igor Larichev,Игорь Ларичев,Здоровье,1971-06-06,Amateur Masters 40-49,87.2,,,,,,135,-142.5,-142.5,,135,,,,,,135,7
90,B,Raw,Yes,M,Valeriy Kuznetsov #2,Валерій Кузнєцов,,1974-01-23,Amateur Masters 40-49,89.4,,,,,,120,130,-135,,130,,,,,,130,8
90,B,Raw,Yes,M,Vladimir Pichugin,Владимир Пичугин,,1971-09-13,Amateur Masters 40-49,88.4,,,,,,-127.5,-130,-135,,,,,,,,,DQ
90,B,Raw,Yes,M,Vsevolod Sandomirskiy,Всеволод Сандомирский,СС,1969-01-31,Amateur Masters 40-49,89.25,,,,,,-140,,,,,,,,,,,DQ
100,B,Raw,Yes,M,Aleksandr Kuznetsov #26,Александр Кузнецов,,1971-01-04,Amateur Masters 40-49,98.45,,,,,,157.5,-162.5,-162.5,,157.5,,,,,,157.5,2
100,B,Raw,Yes,M,Vyacheslav Safonov,Вячеслав Сафонов,СК Здоровье,1975-11-07,Amateur Masters 40-49,96.45,,,,,,-152.5,155,,,155,,,,,,155,3
100,B,Raw,Yes,M,Aleksandrsandr Votchal,Александрсандр Вотчал,СС,1976-05-14,Amateur Masters 40-49,97.55,,,,,,140,150,-155,,150,,,,,,150,4
100,B,Raw,Yes,M,Vyacheslav Churakov,Вячеслав Чураков,,1977-05-16,Amateur Masters 40-49,98,,,,,,-150,150,-152.5,,150,,,,,,150,5
110,B,Raw,Yes,M,Sergey Gerber,Сергей Гербер,Новоспорт,1977-07-15,Amateur Masters 40-49,109.65,,,,,,185,190,-202.5,,190,,,,,,190,2
110,B,Raw,Yes,M,Oleg Zherdev,Олег Жердев,Атлет-Легион,1970-05-12,Amateur Masters 40-49,108.9,,,,,,160,180,-200,,180,,,,,,180,3
110,B,Raw,Yes,M,David Ryazanov,Давид Рязанов,,1976-03-14,Amateur Masters 40-49,102.3,,,,,,160,-170,170,,170,,,,,,170,4
110,B,Raw,Yes,M,Dmitriy Kosov,Дмитрий Косов,Новоспорт,1973-10-02,Amateur Masters 40-49,107.7,,,,,,115,-122.5,-122.5,,115,,,,,,115,5
125,B,Raw,Yes,M,Andrey Kislyak,Андрей Кисляк,,1977-03-19,Amateur Masters 40-49,114.3,,,,,,185,192.5,-197.5,,192.5,,,,,,192.5,2
125,B,Raw,Yes,M,Dmitriy Melkov,Дмитрий Мельков,Кристалл,1971-03-18,Amateur Masters 40-49,115.35,,,,,,165,170,-175,,170,,,,,,170,3
140+,B,Raw,Yes,M,Oleg Osipenko,Олег Осипенко,Алтайский край,1977-10-24,Amateur Masters 40-49,144.1,,,,,,210,223,-230,,223,,,,,,223,1
60,B,Raw,Yes,M,Vladimir Zuev,Владимир Зуев,,1964-10-16,Amateur Masters 50-59,58.9,,,,,,-82.5,,,,,,,,,,,DQ
75,B,Raw,Yes,M,Sergey Khoda,Сергей Хода,Барабинск,1967-08-10,Amateur Masters 50-59,73.75,,,,,,80,87.5,-95,,87.5,,,,,,87.5,2
82.5,B,Raw,Yes,M,Aleksandr Ilin,Александр Ильин,,1960-08-13,Amateur Masters 50-59,80,,,,,,120,125,127.5,,127.5,,,,,,127.5,2
90,B,Raw,Yes,M,Vladimir Chumakov,Владимир Чумаков,,1964-03-18,Amateur Masters 50-59,87,,,,,,135,145,-150,,145,,,,,,145,1
100,B,Raw,Yes,M,Yuriy Malchevskiy,Юрий Мальчевский,,1961-04-11,Amateur Masters 50-59,99.6,,,,,,142.5,147.5,-150,,147.5,,,,,,147.5,1
110,B,Raw,Yes,M,Aleksandr Aniskin,Александр Анискин,СК Здоровье,1963-01-02,Amateur Masters 50-59,109.7,,,,,,145,-150,-150,,145,,,,,,145,2
125,B,Raw,Yes,M,Vladimir Simonenko,Владимир Симоненко,Богатырь,1960-09-02,Amateur Masters 50-59,122,,,,,,-140,140,,,140,,,,,,140,2
75,B,Raw,Yes,M,Aleksandr Yarygin,Александр Ярыгин,Здоровье,1951-07-30,Amateur Masters 60-69,73.65,,,,,,-95,95,-100,,95,,,,,,95,1
82.5,B,Raw,Yes,M,Viktor Karasev,Виктор Карасев,,1952-12-31,Amateur Masters 60-69,80.6,,,,,,-70,-70,,,,,,,,,,DQ
90,B,Raw,Yes,M,Aleksandr Razmakhnin,Александр Размахнин,Новоспорт,1951-08-08,Amateur Masters 60-69,87.75,,,,,,110,120,125,,125,,,,,,125,1
90,B,Raw,Yes,M,Viktor Shleyfer,Виктор Шлейфер,,1948-07-23,Amateur Masters 60-69,83.7,,,,,,70,-75,75,,75,,,,,,75,2
110,B,Raw,Yes,M,Aleksandr Pozyabkin,Александр Позябкин,,1958-03-06,Amateur Masters 60-69,101.6,,,,,,125,130,-135,,130,,,,,,130,1
90,B,Raw,Yes,M,Vladimir Pleshkov,Владимир Плешков,,1944-08-29,Amateur Masters 70-79,86.5,,,,,,112.5,115,,,115,,,,,,115,1
110,B,Raw,Yes,M,Anatoliy Shapovalov,Анатолий Шаповалов,Богатырь,1947-09-17,Amateur Masters 70-79,106.1,,,,,,115,120,-130,,120,,,,,,120,1
52,B,Raw,Yes,F,Sofya Nechaeva,Софья Нечаева,Рельеф,2001-08-14,Amateur Teen 14-16,52,,,,,,55,60,-62.5,,60,,,,,,60,1
52,B,Raw,Yes,F,Ekaterina Zanina,Екатерина Занина,Идеалспорт,2000-10-23,Amateur Teen 17-19,51.94,,,,,,47.5,-52.5,-52.5,,47.5,,,,,,47.5,1
60,B,Raw,Yes,F,Mariya Sukhova,Мария Сухова,СС,1999-09-29,Amateur Teen 17-19,59.95,,,,,,50,-55,-55,,50,,,,,,50,1
56,B,Raw,Yes,F,Irina Denezhkina,Ирина Денежкина,Профлига,1994-07-04,Amateur Juniors 20-23,54.1,,,,,,50,-52.5,55,,55,,,,,,55,1
82.5,B,Raw,Yes,F,Mariya Rusakova,Мария Русакова,ачинск,1995-01-30,Amateur Juniors 20-23,82.1,,,,,,-85,85,-95,,85,,,,,,85,1
48,B,Raw,Yes,F,Mariya Okhramenko,Мария Охраменко,Айронфит,1990-10-27,Amateur Open,46.6,,,,,,50,55,57.5,,57.5,,,,,,57.5,1
52,B,Raw,Yes,F,Alla Gutaya,Алла Гутая,Вертикаль,1993-05-29,Amateur Open,51.35,,,,,,62.5,-67.5,67.5,,67.5,,,,,,67.5,1
52,B,Raw,Yes,F,Ekaterina Zanina,Екатерина Занина,Идеалспорт,2000-10-23,Amateur Open,51.94,,,,,,47.5,-52.5,-52.5,,47.5,,,,,,47.5,3
56,B,Raw,Yes,F,Anna Golomentseva,Анна Голоменцева,СС,1990-01-15,Amateur Open,55.52,,,,,,47.5,52.5,-57.5,,52.5,,,,,,52.5,2
60,B,Raw,Yes,F,Inna Boykova,Инна Бойкова,Вертикаль,1968-02-06,Amateur Open,56.6,,,,,,70,75,-77.5,,75,,,,,,75,1
60,B,Raw,Yes,F,Tatyana Borisova,Татьяна Борисова,,1973-06-04,Amateur Open,59.95,,,,,,62.5,-67.5,67.5,,67.5,,,,,,67.5,2
60,B,Raw,Yes,F,Yuliya Vanik,Юлия Ваник,,1978-06-09,Amateur Open,58.86,,,,,,45,-47.5,47.5,,47.5,,,,,,47.5,3
67.5,B,Raw,Yes,F,Yuliya Ryadnova,Юлия Ряднова,,1988-10-15,Amateur Open,65.25,,,,,,65,-70,-70,72.5,65,,,,,,65,1
67.5,B,Raw,Yes,F,Anastasiya Tsibulina,Анастасия Цибулина,Томская Сила,1986-09-15,Amateur Open,65.45,,,,,,-60,-60,60,,60,,,,,,60,2
75,B,Raw,Yes,F,Nina Lebedintseva,Нина Лебединцева,Новоспорт,1985-05-24,Amateur Open,73.5,,,,,,65,-70,-70,,65,,,,,,65,1
75,B,Raw,Yes,F,Irina Makasher,Ирина Макашер,СС,1990-02-24,Amateur Open,72.5,,,,,,57.5,-65,-65,,57.5,,,,,,57.5,2
48,B,Raw,Yes,F,Nonna Starostina,Нонна Старостина,СС,1969-12-02,Amateur Masters 40-49,47.8,,,,,,45,-50,-50,,45,,,,,,45,1
56,B,Raw,Yes,F,Irina Kiseleva,Ирина Киселева,,1974-08-18,Amateur Masters 40-49,55.7,,,,,,65,-70,-70,,65,,,,,,65,1
60,B,Raw,Yes,F,Tatyana Borisova,Татьяна Борисова,,1973-06-04,Amateur Masters 40-49,59.95,,,,,,62.5,-67.5,67.5,,67.5,,,,,,67.5,1
56,B,Raw,Yes,F,Anzhelika Sviridova,Анжелика Свиридова,СС,1968-12-09,Amateur Masters 40-49,55.8,,,,,,45,50,52.5,,52.5,,,,,,52.5,2
60,B,Raw,Yes,M,Kirill Larionov,Кирилл Ларионов,Здоровье,2000-09-07,Amateur Teen 17-19,56.88,,,,,,85,90,95,,95,,,,,,95,1
75,B,Raw,Yes,M,Ivan Bychkov,Иван Бычков,Новоспорт,1989-06-16,Amateur Open,68.7,,,,,,57.5,67.5,75,,75,,,,,,75,9
52,SBD,Wraps,No,F,Nadezhda Komarova,Надежда Комарова,,1994-10-06,Pro Juniors 20-23,49.68,57.5,62.5,-65,,62.5,40,-45,,,40,100,110,112.5,,112.5,215,2
60,SBD,Wraps,No,F,Vera Volobueva,Вера Волобуева,,1957-03-28,Pro Open,59.9,90,-95,-97.5,,90,60,62.5,-65,,62.5,115,120,125,,125,277.5,1
67.5,SBD,Wraps,No,F,Yuliya Korovina,Юлия Коровина,Рельеф,1976-07-12,Pro Open,66.25,-82.5,82.5,-92.5,,82.5,50,55,57.5,,57.5,130,140,150,,150,290,4
67.5,SBD,Wraps,No,F,Olga Bazner,Ольга Базнер,,1992-04-18,Pro Open,62.7,-60,60,70,,70,37.5,-42.5,45,,45,60,80,90,,90,205,8
75,SBD,Wraps,No,F,Galina Abramova,Галина Абрамова,Новоспорт,1989-06-19,Pro Open,70,120,127.5,,,127.5,67.5,72.5,75,,75,150,170,,,170,372.5,1
75,SBD,Wraps,No,F,Irina Zotova,Ирина Зотова,Рельеф,1973-11-29,Pro Open,73.55,110,117.5,120,,120,67.5,70,-72.5,,70,-130,130,-145,,130,320,3
82.5,SBD,Wraps,No,F,Anna Chubarova,Анна Чубарова,Рельеф,1988-02-03,Pro Open,82.35,170,180,-185,,180,100,107.5,-110,,107.5,180,195,202.5,,202.5,490,2
82.5,SBD,Wraps,No,F,Olga Rimarenko,Ольга Римаренко,СС,1980-12-10,Pro Open,82,70,77.5,85,,85,35,-40,40,,40,100,110,120,,120,245,3
52,SBD,Wraps,No,F,Marina Kizhaykina,Марина Кижайкина,СС,1977-04-18,Pro Masters 40-49,51.94,65,75,82.5,,82.5,45,-50,-50,,45,75,82.5,90,,90,217.5,1
60,SBD,Wraps,No,F,Irina Monoshkina,Ирина Моношкина,Автовокзал,1975-05-21,Pro Masters 40-49,56.4,65,-70,-70,,65,35,-40,,,35,95,105,117.5,,117.5,217.5,2
52,SBD,Wraps,No,M,Ivan Sorokin,Иван Сорокин,СС,2003-10-22,Pro Teen 14-16,40.42,50,55,-60,,55,30,35,-37.5,,35,45,-55,55,,55,145,1
56,SBD,Wraps,No,M,Semen Bodyukov,Семен Бодюков,Рельеф,2002-12-25,Pro Teen 14-16,54.1,-110,115,120,,120,70,72.5,-75,,72.5,105,115,117.5,,117.5,310,1
60,SBD,Wraps,No,M,Mikhail Goldaev,Михаил Голдаев,СС,2002-01-05,Pro Teen 14-16,59.2,100,105,-110,,105,62.5,-67.5,67.5,,67.5,110,-115,-115,,110,282.5,3
67.5,SBD,Wraps,No,M,Egor Gluzdov,Егор Глуздов,СС,2002-07-14,Pro Teen 14-16,66.5,90,100,107.5,,107.5,50,57.5,-65,,57.5,120,130,137.5,,137.5,302.5,2
82.5,SBD,Wraps,No,M,Ruslan Tsvetkovskiy,Руслан Цветковский,Новоспорт,1998-05-28,Pro Teen 17-19,81.65,205,220,232.5,,232.5,130,145,150,,150,250,270,-290,,270,652.5,1
90,SBD,Wraps,No,M,Viktor Tikhonov,Виктор Тихонов,СС,2001-04-21,Pro Teen 17-19,87.95,165,175,182.5,,182.5,95,-100,-100,,95,140,-145,-145,,140,417.5,1
110,SBD,Wraps,No,M,Pavel Nomokonov,Павел Номоконов,Пульс,1998-10-25,Pro Teen 17-19,108.75,-175,175,-190,,175,110,120,-130,,120,210,230,-242.5,,230,525,1
75,SBD,Wraps,No,M,Evgeniy Tolmachev,Евгений Толмачев,Колыванец,1998-04-19,Pro Juniors 20-23,74.2,190,202.5,-210,,202.5,140,142.5,145,,145,210,220,,,220,567.5,1
75,SBD,Wraps,No,M,Maksim Kudelin,Максим Куделин,Новоспорт,1997-08-17,Pro Juniors 20-23,74.6,90,100,110,,110,-70,77.5,85,,85,130,145,-150,,145,340,2
82.5,SBD,Wraps,No,M,Pavel Mitrakov,Павел Митраков,Новоспорт,1994-07-12,Pro Juniors 20-23,81.9,210,225,-235,,225,125,-135,-140,,125,240,260,-285,,260,610,1
82.5,SBD,Wraps,No,M,Vladislav Dolgopolov,Владислав Долгополов,Новоспорт,1995-07-04,Pro Juniors 20-23,81.4,190,200,-205,,200,-150,150,-155,,150,230,-240,,,230,580,2
90,SBD,Wraps,No,M,Nikolay Shestakov,Николай Шестаков,Рельеф,1996-04-12,Pro Juniors 20-23,89.15,-250,250,-260,,250,160,170,-180,,170,260,270,-280,,270,690,1
110,SBD,Wraps,No,M,Valentin Ryndin,Валентин Рындин,Рельеф,1995-07-19,Pro Juniors 20-23,109.65,220,230,240,,240,150,-157.5,160,,160,265,285,-300,,285,685,1
125,SBD,Wraps,No,M,Egor Shilov,Егор Шилов,СС,1996-12-23,Pro Juniors 20-23,123.35,290,-300,-300,,290,150,157.5,162.5,,162.5,300,312.5,-322.5,,312.5,765,1
75,SBD,Wraps,No,M,Aleksandr Tanzinchan,Александр Танзинчан,Новоспорт,1987-03-17,Pro Open,74.55,210,230,245,,245,-130,142.5,150,,150,210,235,250,,250,645,1
82.5,SBD,Wraps,No,M,Vladimir Khorev,Владимир Хорев,Новоспорт,1991-04-18,Pro Open,81.4,175,190,200,,200,120,130,135,,135,190,-205,205,,205,540,3
90,SBD,Wraps,No,M,Vladimir Konovalov,Владимир Коновалов,,1998-01-03,Pro Open,87.95,230,-245,250,,250,145,152.5,155,,155,240,255,262.5,,262.5,667.5,1
90,SBD,Wraps,No,M,Maksim Titov,Максим Титов,Рельеф,1987-04-04,Pro Open,89.05,-220,230,235,,235,160,-170,-170,,160,260,265,-272.5,,265,660,2
90,SBD,Wraps,No,M,Nikolay Larkin,Николай Ларкин,СС,1992-05-17,Pro Open,88.75,190,-197.5,-197.5,,190,140,147.5,150,,150,225,-242.5,242.5,,242.5,582.5,5
100,SBD,Wraps,No,M,Sergey Shpilev,Сергей Шпилев,СС,1980-02-17,Pro Open,97.45,235,242.5,250,,250,152.5,162.5,-170,,162.5,245,252.5,260,,260,672.5,1
100,SBD,Wraps,No,M,Mikhail Pisarev,Михаил Писарев,СС,1990-10-14,Pro Open,98.9,230,-240,-240,,230,160,-170,170,,170,250,260,265,,265,665,2
100,SBD,Wraps,No,M,Arseniy Aliev,Арсений Алиев,Колыванец,1993-06-05,Pro Open,99.75,242.5,-250,-250,,242.5,160,170,-175,,170,250,-262.5,-262.5,,250,662.5,3
100,SBD,Wraps,No,M,Anton Katsyuk,Антон Кацюк,Новоспорт,1989-04-20,Pro Open,98.5,200,220,-240,,220,150,160,-165,,160,260,-275,-275,275,260,640,6
100,SBD,Wraps,No,M,Sergey Bogachuk,Сергей Богачук,СС,1989-05-30,Pro Open,93.9,190,200,-207.5,,200,125,130,-135,,130,220,230,240,,240,570,8
110,SBD,Wraps,No,M,Evgeniy Shadrov,Евгений Шадров,Пульс,1993-02-11,Pro Open,106.95,250,-270,270,,270,190,-210,210,,210,310,330,-340,,330,810,1
110,SBD,Wraps,No,M,Sergey Lysko,Сергей Лыско,,1987-10-17,Pro Open,103.2,250,270,-290,,270,170,180,-185,,180,270,285,290,,290,740,2
110,SBD,Wraps,No,M,Ruslan Guliev,Руслан Гулиев,Новоспорт,1988-08-09,Pro Open,106,200,210,220,,220,120,135,145,,145,240,250,255,,255,620,4
110,SBD,Wraps,No,M,Pavel Pakhtanov,Павел Пахтанов,Колыванец,1993-07-25,Pro Open,107.45,180,190,195,,195,165,-172.5,172.5,,172.5,220,230,237.5,,237.5,605,5
125,SBD,Wraps,No,M,Sergey Semakin,Сергей Семакин,Эльбрус,1978-08-29,Pro Open,117.2,280,300,-310,,300,180,-185,,,180,300,320,-340,,320,800,1
125,SBD,Wraps,No,M,Egor Shilov,Егор Шилов,СС,1996-12-23,Pro Open,123.35,290,-300,-300,,290,150,157.5,162.5,,162.5,300,312.5,-322.5,,312.5,765,2
125,SBD,Wraps,No,M,Nikolay Volkov,Николай Волков,Рельеф,1987-12-12,Pro Open,119.7,210,220,230,,230,155,165,-170,,165,280,295,-307.5,,295,690,3
125,SBD,Wraps,No,M,Vitaliy Gubkin,Виталий Губкин,,1980-08-09,Pro Open,113.9,240,-250,-260,,240,-180,,,,,,,,,,,DQ
140+,SBD,Wraps,No,M,Shokirzhon Radzhabov,Шокиржон Раджабов,,1985-03-31,Pro Open,152.8,295,315,-320,,315,205,215,222.5,,222.5,230,275,310,,310,847.5,1
75,SBD,Wraps,No,M,Dmitriy Timoshenko,Дмитрий Тимошенко,СС,1975-04-02,Pro Masters 40-49,72.8,120,130,137.5,,137.5,80,85,-90,,85,150,160,-170,,160,382.5,1
100,SBD,Wraps,No,M,Sergey Yurkin,Сергей Юркин,Рельеф,1969-02-03,Pro Masters 40-49,100,175,185,195,,195,130,137.5,-142.5,,137.5,185,200,,,200,532.5,2
100,SBD,Wraps,No,M,Vladimir Panuev,Владимир Пануев,динамо,1962-10-22,Pro Masters 50-59,95.7,175,182.5,,,182.5,120,125,,,125,200,212.5,220,,220,527.5,1
125,SBD,Wraps,No,M,Avgust Belskiy,Август Бельский,,1965-08-11,Pro Masters 50-59,122,-190,190,200,,200,160,170,,,170,200,215,220,,220,590,1
90,SBD,Wraps,No,M,Yuriy Shumskikh,Юрий Шумских,Кольцово,1958-04-19,Pro Masters 60-69,83.4,165,175,180,,180,95,100,102.5,,102.5,170,-175,,,170,452.5,1
100,SBD,Wraps,No,M,Valeriy Vorobyov,Валерий Воробьёв,,1953-11-26,Pro Masters 60-69,98,170,180,190,,190,150,155,157.5,,157.5,180,195,210,,210,557.5,1
82.5,B,Raw,No,M,Stanislav Matytsin,Станислав Матыцин,Новоспорт,2003-12-10,Pro Teen 14-16,77.75,,,,,,42.5,-50,52.5,,52.5,,,,,,52.5,1
75,B,Raw,No,M,Vladimir Zimin,Владимир Зимин,Силуэт,1999-09-16,Pro Teen 17-19,70.9,,,,,,100,105,110,,110,,,,,,110,3
90,B,Raw,No,M,Evgeniy Egorov,Евгений Егоров,Профлига,1996-08-15,Pro Juniors 20-23,89.7,,,,,,180,185,-195,,185,,,,,,185,1
90,B,Raw,No,M,Artem Tarasov,Артем Тарасов,Стальной Медведь,1994-06-01,Pro Juniors 20-23,88.9,,,,,,-182.5,-182.5,,,,,,,,,,DQ
67.5,B,Raw,No,M,Andrey Chugaevskiy,Андрей Чугаевский,,1981-02-26,Pro Open,66.15,,,,,,105,-110,112.5,,112.5,,,,,,112.5,3
75,B,Raw,No,M,Ilya Dugushkin,Илья Дугушкин,Новоспорт,1986-04-11,Pro Open,74.8,,,,,,162.5,170,,,170,,,,,,170,1
75,B,Raw,No,M,Aleksey Manankov,Алексей Мананков,,1982-02-04,Pro Open,72.8,,,,,,140,145,150,,150,,,,,,150,2
75,B,Raw,No,M,Andrey Klopovskiy,Андрей Клоповский,СС,1990-08-17,Pro Open,73.4,,,,,,107.5,-112.5,-112.5,,107.5,,,,,,107.5,8
82.5,B,Raw,No,M,Roman Korotkikh,Роман Коротких,СС,1994-08-21,Pro Open,82.4,,,,,,180,190,195,,195,,,,,,195,1
82.5,B,Raw,No,M,Artyom Dyakov,Артём Дъяков,Новоспорт,1992-04-04,Pro Open,81.7,,,,,,152.5,162.5,170,,170,,,,,,170,2
82.5,B,Raw,No,M,Vitaliy Temishev,Виталий Темишев,Кольцово,1983-04-15,Pro Open,82.4,,,,,,150,160,-165,,160,,,,,,160,3
82.5,B,Raw,No,M,Mikhail Parfenov,Михаил Парфенов,Новоспорт,1989-07-11,Pro Open,76.75,,,,,,135,145,-150,,145,,,,,,145,4
90,B,Raw,No,M,Evgeniy Egorov,Евгений Егоров,Профлига,1996-08-15,Pro Open,89.7,,,,,,180,185,-195,,185,,,,,,185,1
90,B,Raw,No,M,Aleksey Zavorin,Алексей Заворин,Новоспорт,1975-04-30,Pro Open,89.4,,,,,,160,-170,170,,170,,,,,,170,2
90,B,Raw,No,M,Vladimir Boyarkin,Владимир Бояркин,,1984-09-19,Pro Open,89.3,,,,,,-165,-165,-165,,,,,,,,,DQ
100,B,Raw,No,M,Denis Romanov,Денис Романов,,1994-04-24,Pro Open,99.65,,,,,,215,225,-227.5,,225,,,,,,225,1
100,B,Raw,No,M,Ilya Grigorev,Илья Григорьев,,1993-01-12,Pro Open,97.8,,,,,,180,-192.5,,,180,,,,,,180,4
110,B,Raw,No,M,Konstantin Kovazhenko,Константин Коваженко,,1978-04-17,Pro Open,104.65,,,,,,205,215,225,,225,,,,,,225,1
110,B,Raw,No,M,Maksim Chuvichkin,Максим Чувичкин,,1983-11-12,Pro Open,109.45,,,,,,190,200,-205,,200,,,,,,200,4
110,B,Raw,No,M,Sergey Kachusov,Сергей Качусов,,1978-12-15,Pro Open,102.15,,,,,,150,155,162.5,,162.5,,,,,,162.5,11
110,B,Raw,No,M,Pavel Chelyaev,Павел Челяев,Новоспорт,1980-04-03,Pro Open,108.3,,,,,,150,162.5,-175,,162.5,,,,,,162.5,12
125,B,Raw,No,M,Grigoriy Kobrin,Григорий Кобрин,,1969-10-19,Pro Open,115,,,,,,222.5,-232.5,235,,235,,,,,,235,1
125,B,Raw,No,M,Viktor Andreev,Виктор Андреев,,1981-04-15,Pro Open,123.05,,,,,,200,210,215,,215,,,,,,215,2
125,B,Raw,No,M,Aleksandr Bakhman,Александр Бахман,Новоспорт,1989-07-29,Pro Open,116.6,,,,,,190,200,205,,205,,,,,,205,3
140+,B,Raw,No,M,Shokirzhon Radzhabov,Шокиржон Раджабов,,1985-03-31,Pro Open,152.8,,,,,,205,215,222.5,,222.5,,,,,,222.5,1
90,B,Raw,No,M,Aleksey Zavorin,Алексей Заворин,Новоспорт,1975-04-30,Pro Masters 40-49,89.4,,,,,,160,-170,170,,170,,,,,,170,1
90,B,Raw,No,M,Aleksandr Zimin,Александр Зимин,Силуэт,1969-08-29,Pro Masters 40-49,87.85,,,,,,150,160,165,,165,,,,,,165,2
90,B,Raw,No,M,Dmitriy Gilev,Дмитрий Гилев,Новоспорт,1976-08-29,Pro Masters 40-49,88.5,,,,,,142.5,152.5,-160,,152.5,,,,,,152.5,4
90,B,Raw,No,M,Aleksey Kislyanskiy,Алексей Кислянский,,1976-07-20,Pro Masters 40-49,89.55,,,,,,140,-145,-150,,140,,,,,,140,5
100,B,Raw,No,M,Sergey Galyanov,Сергей Гальянов,,1972-06-01,Pro Masters 40-49,95.7,,,,,,155,165,-175,,165,,,,,,165,1
100,B,Raw,No,M,Aleksandr Gryaznov,Александр Грязнов,,1975-06-08,Pro Masters 40-49,98.2,,,,,,135,140,145,,145,,,,,,145,6
110,B,Raw,No,M,Sergey Pismennyy,Сергей Письменный,,1976-10-05,Pro Masters 40-49,107.3,,,,,,190,200,-210,,200,,,,,,200,1
110,B,Raw,No,M,Aleksey Kuprienko,Алексей Куприенко,,1972-01-19,Pro Masters 40-49,109.7,,,,,,-190,-200,,,,,,,,,,DQ
125,B,Raw,No,M,Grigoriy Kobrin,Григорий Кобрин,,1969-10-19,Pro Masters 40-49,115,,,,,,222.5,-232.5,235,,235,,,,,,235,1
75,B,Raw,No,M,Aleksey Yachnev,Алексей Ячнев,Новоспорт,1961-09-06,Pro Masters 50-59,73.65,,,,,,132.5,-142.5,145,,145,,,,,,145,1
82.5,B,Raw,No,M,Sergey Kashtanov,Сергей Каштанов,Силуэт,1958-06-27,Pro Masters 50-59,81.55,,,,,,120,-130,132.5,,132.5,,,,,,132.5,1
82.5,B,Raw,No,M,Aleksey Korobov,Алексей Коробов,Томская Сила,1959-03-21,Pro Masters 50-59,79.65,,,,,,100,,,,100,,,,,,100,3
110,B,Raw,No,M,Serik Tukushev,Серик Тукушев,,1967-09-26,Pro Masters 50-59,108.1,,,,,,170,180,-190,,180,,,,,,180,1
125,B,Raw,No,M,Avgust Belskiy,Август Бельский,,1965-08-11,Pro Masters 50-59,122,,,,,,160,170,,,170,,,,,,170,1
125,B,Raw,No,M,Andrey Mazepa,Андрей Мазепа,,1964-04-09,Pro Masters 50-59,117.3,,,,,,125,130,135,,135,,,,,,135,3
52,B,Raw,No,F,Irina Faryanova,Ирина Фарьянова,Введите команду...,1989-07-30,Pro Open,51.38,,,,,,62.5,65,67.5,,67.5,,,,,,67.5,2
56,B,Raw,No,F,Anna Vishnyak,Анна Вишняк,Стальной Медведь,1984-12-12,Pro Open,55.8,,,,,,87.5,-90,,,87.5,,,,,,87.5,1
100,D,Raw,No,M,Oleg Lagunov,Олег Лагунов,,1967-03-05,Pro Masters 50-59,93.8,,,,,,,,,,,-250,260,276,,276,276,1
110,D,Raw,No,M,Sergey Laryagin,Сергей Ларягин,,1962-03-14,Pro Masters 50-59,108.85,,,,,,,,,,,200,217.5,221,,221,221,1
67.5,SBD,Multi-ply,No,M,Evgeniy Gansh,Евгений Ганш,Рельеф,1992-04-10,Pro Open,67.15,-300,-300,-300,,,-190,,,,,-260,,,,,,DQ
82.5,SBD,Multi-ply,No,M,Kirill Duplinskiy,Кирилл Дуплинский,Рельеф,1987-08-31,Pro Open,82.2,-270,-270,270,,270,-185,190,195,,195,240,250,260,,260,725,1
82.5,SBD,Multi-ply,No,M,Oleg Saidov,Олег Саидов,СС,1988-11-28,Pro Open,76.05,115,125,135,,135,110,120,125,,125,140,155,170,,170,430,2
82.5,SBD,Multi-ply,No,M,Roman Korotkikh,Роман Коротких,СС,1994-08-21,Pro Open,82.4,250,265,-275,,265,-270,-270,-270,,,-250,,,,,,DQ
90,SBD,Multi-ply,No,M,Dmitriy Goryachkin,Дмитрий Горячкин,Бурятия,1990-03-18,Pro Open,87.9,-270,270,-300,,270,170,-185,-185,,170,250,270,-285,,270,710,1
90,SBD,Multi-ply,No,M,Dmitriy Ekimov,Дмитрий Екимов,СС,1969-12-30,Pro Open,87.35,170,182.5,-190,,182.5,180,-195,195,,195,180,195,-202.5,,195,572.5,3
100,SBD,Multi-ply,No,M,Kirill Potanin,Кирилл Потанин,Эльбрус,1989-07-14,Pro Open,93.45,-290,290,,,290,200,207.5,210,,210,290,305,310,,310,810,1
100,SBD,Multi-ply,No,M,Aleksandr Taynikov,Александр Тайников,СС,1979-04-10,Pro Open,97.5,220,230,-237.5,,230,245,255,265,,265,-220,-230,-230,,,,DQ
110,SBD,Multi-ply,No,M,Oleg Rybnikov,Олег Рыбников,Пульс,1990-08-01,Pro Open,109.1,-290,-290,290,,290,190,205,212.5,,212.5,270,290,300,,300,802.5,1
110,SBD,Multi-ply,No,M,Kirill Yakovlev,Кирилл Яковлев,СС,1995-02-04,Pro Open,109.9,240,-255,-255,,240,230,240,250,,250,230,-245,-265,,230,720,2
90,SBD,Multi-ply,No,M,Dmitriy Ekimov,Дмитрий Екимов,СС,1969-12-30,Pro Masters 40-49,87.35,170,182.5,-190,,182.5,180,-195,195,,195,180,195,-202.5,,195,572.5,1
100,SBD,Multi-ply,No,M,Oleg Efremov-Otchenash,Олег Ефремов-Отченаш,СС,1969-12-31,Pro Masters 40-49,99,215,227.5,-240,,227.5,230,-240,240,,240,200,215,-230,,215,682.5,1
67.5,SBD,Multi-ply,No,F,Marianna Efremova-Otchenash,Марианна Ефремова-Отченаш,СС,1977-04-09,Pro Masters 40-49,66.9,110,-122.5,-125,,110,-100,-100,-100,,,110,135,140,,140,,DQ
82.5,D,Multi-ply,No,M,Sergey Fedoseev,Сергей Федосеев,Стальной Медведь,1982-01-18,Pro Open,81.2,,,,,,,,,,,165,175,185,,185,185,3
67.5,B,Multi-ply,No,M,Evgeniy Odintsov,Евгений Одинцов,Новоспорт,1994-03-08,Pro Open,66,,,,,,-145,145,-155,,145,,,,,,145,4
75,B,Multi-ply,No,M,Ilya Dugushkin,Илья Дугушкин,Новоспорт,1986-04-11,Pro Open,74.8,,,,,,250,-265,-270,,250,,,,,,250,1
75,B,Multi-ply,No,M,Denis Lubyagin,Денис Лубягин,Рельеф,1994-03-29,Pro Open,74.9,,,,,,250,-260,-260,,250,,,,,,250,2
75,B,Multi-ply,No,M,Evgeniy Gansh,Евгений Ганш,Рельеф,1992-04-10,Pro Open,71.35,,,,,,-190,-190,-190,,,,,,,,,DQ
82.5,B,Multi-ply,No,M,Sergey Bogun,Сергей Богун,Рельеф,1999-04-03,Pro Open,77.75,,,,,,-280,-290,290,,290,,,,,,290,1
82.5,B,Multi-ply,No,M,Roman Korotkikh,Роман Коротких,СС,1994-08-21,Pro Open,82.4,,,,,,262.5,-282.5,-302.5,,262.5,,,,,,262.5,2
82.5,B,Multi-ply,No,M,Mikhail Kuleshov,Михаил Кулешов,Рельеф,1990-11-25,Pro Open,81.95,,,,,,-230,240,-250,,240,,,,,,240,3
82.5,B,Multi-ply,No,M,Artyom Dyakov,Артём Дъяков,Новоспорт,1992-04-04,Pro Open,81.7,,,,,,-215,215,230,,230,,,,,,230,4
82.5,B,Multi-ply,No,M,Aleksey Usmanov,Алексей Усманов,СС,1973-02-27,Pro Open,81.65,,,,,,210,-220,220,,220,,,,,,220,5
82.5,B,Multi-ply,No,M,Sergeygey Fedoseev,Сергейгей Федосеев,Стальной Медведь,1982-01-18,Pro Open,81.6,,,,,,175,-187.5,-187.5,,175,,,,,,175,8
82.5,B,Multi-ply,No,M,Dmitriy Khovanskiy,Дмитрий Хованский,Стальной Медведь,1986-05-26,Pro Open,81.8,,,,,,-300,-300,,,,,,,,,,DQ
90,B,Multi-ply,No,M,Artem Bykhovets,Артем Быховец,Стальной Медведь,1983-07-19,Pro Open,89.5,,,,,,290,310,-325,,310,,,,,,310,1
90,B,Multi-ply,No,M,Dmitriy Savchenko,Дмитрий Савченко,Стальной Медведь,1981-08-03,Pro Open,89,,,,,,242.5,-255,-255,,242.5,,,,,,242.5,3
90,B,Multi-ply,No,M,Aleksandr Yakovlev,Александр Яковлев,Олимпия,1983-06-21,Pro Open,87.55,,,,,,230,-240,-245,,230,,,,,,230,4
90,B,Multi-ply,No,M,Dmitriy Ekimov,Дмитрий Екимов,СС,1969-12-30,Pro Open,87.35,,,,,,180,-195,195,,195,,,,,,195,5
90,B,Multi-ply,No,M,Evgeniy Nyavro,Евгений Нявро,СС,1980-02-01,Pro Open,86.8,,,,,,140,150,-160,,150,,,,,,150,9
90,B,Multi-ply,No,M,Kirill Kurilkin,Кирилл Курилкин,,1987-07-29,Pro Open,87.5,,,,,,-222.5,-222.5,-222.5,,,,,,,,,DQ
100,B,Multi-ply,No,M,Igor Kiryukhin,Игорь Кирюхин,СС,1970-03-22,Pro Open,100,,,,,,280,290,300,,300,,,,,,300,1
100,B,Multi-ply,No,M,Anton Epikhin,Антон Епихин,Томская Сила,1988-10-11,Pro Open,100,,,,,,295,-307.5,-307.5,,295,,,,,,295,2
100,B,Multi-ply,No,M,Kirill Kovalenko,Кирилл Коваленко,Новоспорт,1990-05-03,Pro Open,90.85,,,,,,160,-170,-175,,160,,,,,,160,7
110,B,Multi-ply,No,M,Maksim Medvedev,Максим Медведев,,1981-05-16,Pro Open,109.75,,,,,,-340,-340,-367.5,,,,,,,,,DQ
125,B,Multi-ply,No,M,Konstantin Elshin,Константин Ельшин,Олимпия,1986-07-19,Pro Open,122,,,,,,-370,370,-407.5,,370,,,,,,370,1
125,B,Multi-ply,No,M,Yuriy Sufimov,Юрий Суфимов,Вертикаль,1970-04-20,Pro Open,113.3,,,,,,-285,,,,,,,,,,,DQ
140,B,Multi-ply,No,M,Karim Kananov,Карим Кананов,Новоспорт,1994-05-17,Pro Open,134.65,,,,,,250,262.5,270,,270,,,,,,270,1
82.5,B,Multi-ply,No,M,Aleksey Usmanov,Алексей Усманов,СС,1973-02-27,Pro Masters 40-49,81.65,,,,,,210,-220,220,,220,,,,,,220,1
90,B,Multi-ply,No,M,Dmitriy Ekimov,Дмитрий Екимов,СС,1969-12-30,Pro Masters 40-49,87.35,,,,,,180,-195,195,,195,,,,,,195,1
90,B,Multi-ply,No,M,Vyacheslav Makarov,Вячеслав Макаров,,1974-05-17,Pro Masters 40-49,86.15,,,,,,160,-180,-180,,160,,,,,,160,3
100,B,Multi-ply,No,M,Igor Kiryukhin,Игорь Кирюхин,СС,1970-03-22,Pro Masters 40-49,100,,,,,,280,290,300,,300,,,,,,300,1
100,B,Multi-ply,No,M,Oleg Efremov-Otchenash,Олег Ефремов-Отченаш,СС,1969-12-31,Pro Masters 40-49,99,,,,,,230,-240,240,,240,,,,,,240,2
110,B,Multi-ply,No,M,Sergey Pismennyy,Сергей Письменный,,1976-10-05,Pro Masters 40-49,107.3,,,,,,270,285,-300,,285,,,,,,285,1
125,B,Multi-ply,No,M,Viktor Prisyazhnyuk,Виктор Присяжнюк,Олимпия,1976-03-15,Pro Masters 40-49,111.65,,,,,,280,-305,-305,,280,,,,,,280,1
125,B,Multi-ply,No,M,Yuriy Sufimov,Юрий Суфимов,Вертикаль,1970-04-20,Pro Masters 40-49,113.3,,,,,,-285,,,,,,,,,,,DQ
100,B,Multi-ply,No,M,Nikolay Kuznetsov,Николай Кузнецов,СС,1960-12-28,Pro Masters 50-59,94.3,,,,,,200,220,-242.5,,220,,,,,,220,1
56,B,Multi-ply,No,F,Anna Vishnyak,Анна Вишняк,Стальной Медведь,1984-12-12,Pro Open,55.8,,,,,,90,100,110,,110,,,,,,110,1
90,B,Multi-ply,No,F,Elena Volkova,Елена Волкова,Стальной Медведь,1978-06-15,Pro Open,86.85,,,,,,100,115,-127.5,,115,,,,,,115,1
67.5,B,Multi-ply,No,F,Marianna Efremova-Otchenash,Марианна Ефремова-Отченаш,СС,1977-04-09,Pro Masters 40-49,67.5,,,,,,90,97.5,-105,,97.5,,,,,,97.5,1
