Place,Name,Team,Division,BodyweightKg,WeightClassKg,Squat1Kg,Squat2Kg,Squat3Kg,Best3SquatKg,Bench1Kg,Bench2Kg,Bench3Kg,Best3BenchKg,Deadlift1Kg,Deadlift2Kg,Deadlift3Kg,Best3DeadliftKg,TotalKg,Sex,Event,Equipment,BirthDate
1,Alice Francis-Freeman,SC,F-C-U23,70.6,72,147.5,157.5,-162.5,157.5,85,90,95,95,160,165,-167.5,165,417.5,F,SBD,Raw,
2,Lydia Charles,GL,F-C-U23,70.2,72,145,152.5,157.5,157.5,70,-75,-77.5,70,-167.5,-172.5,172.5,172.5,400,F,SBD,Raw,
3,Rosie Howard,YNE,F-C-U23,70.3,72,122.5,130,-135,130,67.5,72.5,-75,72.5,175,185,190.5,190.5,393,F,SBD,Raw,1995-02-05
4,Suzanne Goulder,EM,F-C-U23,69.8,72,127.5,-137.5,137.5,137.5,77.5,82.5,-85,82.5,157.5,170,-172.5,170,390,F,SBD,Raw,
5,Kara Swankie,SC,F-C-U23,71.5,72,130,137.5,,137.5,70,-75,-75,70,170,180,-190,180,387.5,F,SBD,Raw,
6,Natalie Cameron,GL,F-C-U23,68.6,72,115,120,-122.5,120,80,85,-90,85,160,170,-180,170,375,F,SBD,Raw,
7,Sophia Ellis,GL,F-C-U23,71,72,100,110,120,120,75,82.5,-87.5,82.5,155,162.5,170,170,372.5,F,SBD,Raw,
8,Zoe Clark,SM,F-C-U23,69.7,72,117.5,125,127.5,127.5,75,80,-82.5,80,120,135,-140,135,342.5,F,SBD,Raw,
9,Natasha Hartke,YNE,F-C-U23,67.8,72,100,110,112.5,112.5,60,65,-67.5,65,135,142.5,147.5,147.5,325,F,SBD,Raw,
1,Hannah-Louise Graham,NM,F-C-U23,70.5,72,95,-102.5,,95,57.5,62.5,65,65,155,-167.5,-167.5,155,315,F,SBD,Raw,
1,Phoebe Thorpe,GL,F-C-U23,69.7,72,107.5,115,-120,115,55,60,-65,60,122.5,130,137.5,137.5,312.5,F,SBD,Raw,
1,Amy Pitman,NW,F-C-U23,70.8,72,92.5,100,105,105,47.5,-52.5,-52.5,47.5,125,132.5,140,140,292.5,F,SBD,Raw,
1,Chloe Bartrum,EM,F-C-U23,71.3,72,105,110,115,115,47.5,50,52.5,52.5,115,-120,125,125,292.5,F,SBD,Raw,
1,Elisha Timoney,NI,F-C-U23,70.5,72,105,110,-115,110,52.5,57.5,-60,57.5,-115,122.5,-130,122.5,290,F,SBD,Raw,
1,Jay Wymer,SE,F-C-U23,68.1,72,87.5,95,100,100,40,42.5,45,45,115,125,-130,125,270,F,SBD,Raw,
1,Charley Bond,SE,F-C-U23,67.7,72,87.5,95,100,100,50,55,-57.5,55,95,105,110,110,265,F,SBD,Raw,
1,Rhian Whelan,GL,F-C-U23,66.4,72,85,-92.5,-92.5,85,55,60,-62.5,60,100,105,110,110,255,F,SBD,Raw,
1,Krista Shuttleworth,YNE,F-C-U23,69.5,72,75,82.5,-100,82.5,42.5,47.5,-52.5,47.5,90,100,120,120,250,F,SBD,Raw,
DQ,Kate Jackson,NW,F-C-U23,70,72,-122.5,-122.5,122.5,122.5,60,62.5,-65,62.5,-140,-140,-140,,,F,SBD,Raw,
1,Mariella Fisher,NW,F-C-Open,69.4,72,147.5,157.5,163,163,82.5,87.5,90,90,175,185,190,190,443,F,SBD,Raw,
2,Grace Howse,EM,F-C-Open,67.2,72,92.5,100,105,105,70,72.5,-75,72.5,130,140,-145,140,317.5,F,SBD,Raw,
1,Cherry Yeung,NW,F-C-U23,41.7,43,87.5,95,-100,95,50,55,-57.5,55,125,135,-140.5,135,285,F,SBD,Raw,
1,Sabrina Shah,GL,F-C-U23,46.2,47,107.5,112.5,115.5,115.5,67.5,70,-73,70,120,125,130,130,315.5,F,SBD,Raw,
2,Chloe Dickinson,YNE,F-C-U23,46.6,47,72.5,80,85,85,42.5,-47.5,47.5,47.5,92.5,100,105,105,237.5,F,SBD,Raw,
3,Alice Walters,SE,F-C-U23,46.6,47,45,50,-52.5,50,30,32.5,35,35,55,60,65,65,150,F,SBD,Raw,
1,Erin Aldcroft,YNE,F-C-U23,49.6,52,100,105,110,110,65,70,75,75,127.5,137.5,142.5,142.5,327.5,F,SBD,Raw,
2,Tiarna Pearce,GL,F-C-U23,52,52,112.5,117.5,122.5,122.5,55,-60,-60,55,130,-140,140,140,317.5,F,SBD,Raw,
3,Maris Vasenius,SC,F-C-U23,50.9,52,100,-105,-105,100,65,70,73,73,-117.5,130,135,135,308,F,SBD,Raw,
4,Megan Cotcher,NW,F-C-U23,52,52,105,112.5,-115,112.5,60,65,-67.5,65,122.5,130,-135,130,307.5,F,SBD,Raw,
5,Justine Lee,YNE,F-C-U23,50.2,52,90,95,100,100,55,57.5,-60,57.5,130,140,-150,140,297.5,F,SBD,Raw,
6,Shannon Tong,GL,F-C-U23,51.3,52,95,102.5,107.5,107.5,60,65,-67.5,65,107.5,112.5,120,120,292.5,F,SBD,Raw,
7,Yasmin Bappoo,WM,F-C-U23,48,52,95,100,105,105,47.5,50,-52.5,50,127.5,132.5,135,135,290,F,SBD,Raw,
8,Lydia Forrest,SE,F-C-U23,51.7,52,100,105,-110,105,47.5,50,52.5,52.5,107.5,115,122.5,122.5,280,F,SBD,Raw,
9,Amrita Panesar,SM,F-C-U23,50,52,85,90,-95,90,47.5,52.5,55,55,105,115,125,125,270,F,SBD,Raw,
1,Lara Acosta,WM,F-C-U23,51.9,52,82.5,90,-95,90,40,42.5,45,45,110,117.5,125,125,260,F,SBD,Raw,
1,Frances Matthewman,NM,F-C-U23,50.6,52,-72.5,72.5,77.5,77.5,45,50,-52.5,50,107.5,115,120,120,247.5,F,SBD,Raw,
1,Catherine Smith,WM,F-C-U23,55.3,57,117.5,127.5,-132.5,127.5,55,60,62.5,62.5,157.5,170,185,185,375,F,SBD,Raw,
2,Elspeth McLeod,YNE,F-C-U23,57,57,117.5,125,-127.5,125,82.5,85.5,90,90,140,152.5,160,160,375,F,SBD,Raw,
3,Emily Norley,SE,F-C-U23,57,57,117.5,122.5,-127.5,122.5,72.5,-77.5,77.5,77.5,125,132.5,137.5,137.5,337.5,F,SBD,Raw,
4,Sheina Kaye,NW,F-C-U23,54.9,57,-105,105,112.5,112.5,60,65,67.5,67.5,135,-142.5,-142.5,135,315,F,SBD,Raw,
5,Francesca Bolt,NM,F-C-U23,56.6,57,102.5,107.5,-112.5,107.5,57.5,60,62.5,62.5,125,132.5,135,135,305,F,SBD,Raw,
6,Sabrina Rew,WM,F-C-U23,56.6,57,102.5,110,115,115,55,60,65,65,102.5,110,115,115,295,F,SBD,Raw,
7,Hannah Hickinbotham,WM,F-C-U23,57,57,97.5,-105,107.5,107.5,57.5,62.5,-65,62.5,112.5,122.5,-130,122.5,292.5,F,SBD,Raw,
8,Joely Hawke,GL,F-C-U23,54.2,57,95,102.5,-110,102.5,52.5,57.5,60,60,120,127.5,-135,127.5,290,F,SBD,Raw,
9,Anouska Bridgeman,WM,F-C-U23,56.6,57,87.5,92.5,97.5,97.5,45,50,55,55,115,125,135,135,287.5,F,SBD,Raw,
1,Claudia Jenkinson,YNE,F-C-U23,56,57,92.5,97.5,-102.5,97.5,55,-57.5,-57.5,55,97.5,102.5,107.5,107.5,260,F,SBD,Raw,
1,Anisha Chopra,SM,F-C-U23,55.9,57,75,85,90,90,40,42.5,45,45,95,105,112.5,112.5,247.5,F,SBD,Raw,
1,Jaime Lei Fuller,SW,F-C-Open,51.4,52,92.5,95,-100,95,52.5,57.5,-60,57.5,-97.5,97.5,102.5,102.5,255,F,SBD,Raw,
2,Lily Belsher,NM,F-C-Open,50.2,52,45,50,55,55,27.5,30,32.5,32.5,65,70,75,75,162.5,F,SBD,Raw,
1,Shannon Smith #1,SW,F-C-Open,56.7,57,95,102.5,110.5,110.5,57.5,63.5,70,70,132.5,140.5,145,145,325.5,F,SBD,Raw,
2,Kearna-Lea McCalla,WM,F-C-Open,56.3,57,80,-82.5,-82.5,80,30,-35,35,35,100,-105,105,105,220,F,SBD,Raw,
3,Caitlin Thompson,YNE,F-C-Open,55.7,57,75,80,85,85,35,37.5,-40,37.5,-90,-90,90,90,212.5,F,SBD,Raw,
1,Moa Wikner,GL,F-C-U23,61.9,63,132.5,137.5,140,140,85,87.5,90.5,90.5,165,175,178.5,178.5,409,F,SBD,Raw,
2,Suzanne Daniel,SE,F-C-U23,61.7,63,125,137.5,-145,137.5,75,80,85,85,165,-178,179,179,401.5,F,SBD,Raw,1997-02-17
3,Makeda Vidal,GL,F-C-U23,59.1,63,132.5,140,145,145,57.5,60,-65,60,150,162.5,170,170,375,F,SBD,Raw,
4,Victoria Hammond #1,NM,F-C-U23,62.3,63,132.5,140,142.5,142.5,65,67.5,,67.5,152.5,162.5,-172.5,162.5,372.5,F,SBD,Raw,
5,Karenjeet Bains,WM,F-C-U23,61.5,63,120,-127.5,127.5,127.5,70,75,-77.5,75,147.5,155,162.5,162.5,365,F,SBD,Raw,
6,Molly Tweedle,SC,F-C-U23,62.6,63,120,125,130,130,67.5,72.5,-75,72.5,140,147.5,152.5,152.5,355,F,SBD,Raw,
7,Amy Viner,NM,F-C-U23,57.8,63,105,112.5,120,120,55,-60,-60,55,125,145,152.5,152.5,327.5,F,SBD,Raw,
8,Lucy Hart,SM,F-C-U23,60.2,63,117.5,-125,-125,117.5,57.5,60,62.5,62.5,130,145,-157.5,145,325,F,SBD,Raw,
9,Eleanor Bouttell,SC,F-C-U23,61.1,63,115,122.5,-130,122.5,57.5,62.5,-65,62.5,122.5,132.5,140,140,325,F,SBD,Raw,
1,Olivia Price,SW,F-C-U23,60.4,63,100,105,-110,105,60,65,-67.5,65,127.5,135,140,140,310,F,SBD,Raw,
1,Anna Davis,WA,F-C-U23,61.4,63,105,112.5,-120,112.5,55,-60,-60,55,130,-137.5,137.5,137.5,305,F,SBD,Raw,
1,Isobel Davis,WM,F-C-U23,61.8,63,-97.5,-102.5,102.5,102.5,60,62.5,-65,62.5,125,132.5,-140,132.5,297.5,F,SBD,Raw,
1,Florence Eastwood,GL,F-C-U23,62.9,63,92.5,100,105,105,50,52.5,-55,52.5,110,117.5,125,125,282.5,F,SBD,Raw,
1,Luisa Vargas,GL,F-C-U23,59.7,63,92.5,97.5,102.5,102.5,50,-55,55,55,122.5,-132.5,-137.5,122.5,280,F,SBD,Raw,
1,Catherine Sweetman,NW,F-C-U23,63,63,75,80,,80,62.5,-65,65,65,110,115,,115,260,F,SBD,Raw,
1,Fern Wilson,NM,F-C-U23,62.2,63,77.5,82.5,90,90,45,50,55,55,92.5,100,105,105,250,F,SBD,Raw,
1,Tiegan Vasey,YNE,F-C-U23,60,63,85,92.5,97.5,97.5,40,45,47.5,47.5,100,-110,-110,100,245,F,SBD,Raw,
1,Lucy Robinson,YNE,F-C-Open,61.8,63,130,137.5,-145,137.5,57.5,62.5,67.5,67.5,150,157.5,162.5,162.5,367.5,F,SBD,Raw,
2,Amelia Maycock,NM,F-C-Open,61,63,92.5,97.5,102.5,102.5,55,60,62.5,62.5,140,152.5,160,160,325,F,SBD,Raw,
3,Alice Dennis,EM,F-C-Open,62.5,63,92.5,95,-100,95,52.5,55,-57.5,55,117.5,122.5,130,130,280,F,SBD,Raw,
4,Molly Beck,YNE,F-C-Open,61.1,63,80,85,90,90,35,37.5,-40,37.5,95,102.5,105,105,232.5,F,SBD,Raw,
5,Chelsea Marshall,NM,F-C-Open,57.9,63,60,65,70,70,32.5,35,37.5,37.5,80,85,-92.5,85,192.5,F,SBD,Raw,
6,Anya Delaney,NM,F-C-Open,60,63,70,75,80,80,27.5,30,32.5,32.5,75,80,-85,80,192.5,F,SBD,Raw,
1,Chrystal Williams,NW,F-C-U23,83.9,84,175,185,187.5,187.5,100,-105,-105,100,200,-210,-210,200,487.5,F,SBD,Raw,
2,Stephanie Carrillo-Chavez,YNE,F-C-U23,78,84,130,140,145,145,107.5,115,-120,115,152.5,165,172.5,172.5,432.5,F,SBD,Raw,
3,Sophie Coombes,SW,F-C-U23,78.3,84,145,-150,-150,145,-80,80,-85,80,145,-155,155,155,380,F,SBD,Raw,
4,Sian Arterton,EM,F-C-U23,75.9,84,140,-147.5,-147.5,140,75,-80,-80,75,132.5,140,145,145,360,F,SBD,Raw,
5,Ruby Hryniszak,NM,F-C-U23,79.7,84,-130,130,140,140,-72.5,72.5,77.5,77.5,135,142.5,-150,142.5,360,F,SBD,Raw,
6,Georgina McDonald,YNE,F-C-U23,80.7,84,107.5,117.5,125,125,62.5,70,72.5,72.5,130,140,150,150,347.5,F,SBD,Raw,
7,Katie Yates,NW,F-C-U23,84,84,-125,125,-135,125,65,-70,-70,65,-150,150,-160,150,340,F,SBD,Raw,
8,Diana Eleuterio,GL,F-C-U23,81.7,84,-120,127.5,-130,127.5,55,60,-62.5,60,130,140,150,150,337.5,F,SBD,Raw,
9,Heidi Johansen,SE,F-C-U23,80.1,84,115,122.5,127.5,127.5,60,65,70,70,125,130,137.5,137.5,335,F,SBD,Raw,
1,Hannah Beard,SW,F-C-U23,77.5,84,115,120,-125,120,52.5,55,-57.5,55,122.5,130,137.5,137.5,312.5,F,SBD,Raw,
1,Charlie Chester,SW,F-C-U23,110.2,84+,172.5,185,-201,185,90,97.5,100,100,-170,170,190,190,475,F,SBD,Raw,
2,Ramandeep Dehal,GL,F-C-U23,102.4,84+,140,150,155,155,62.5,67.5,72.5,72.5,157.5,165,170,170,397.5,F,SBD,Raw,
3,Melissa Bird,SW,F-C-U23,101.2,84+,125,132.5,140,140,75,80,82.5,82.5,142.5,152.5,160,160,382.5,F,SBD,Raw,
1,Danielle Ellington,EM,F-C-Open,81.1,84,130,140,147.5,147.5,77.5,-82.5,-83,77.5,170,180,-187.5,180,405,F,SBD,Raw,
2,Samantha Edgar,Sc,F-C-Open,82,84,127.5,-135,135,135,52.5,-57.5,57.5,57.5,147.5,157.5,-165,157.5,350,F,SBD,Raw,
3,Ellie Swankie,Sc,F-C-Open,83.2,84,110,117.5,-125,117.5,50,-55,-55,50,140,-145,-145,140,307.5,F,SBD,Raw,
4,Chloe Ann Waby,NM,F-C-Open,82.5,84,95,100,105,105,-35,37.5,-40,37.5,102.5,110,115,115,257.5,F,SBD,Raw,
1,Ogheneyoma Toweh,SW,F-C-Open,96.3,84+,122.5,132.5,142.5,142.5,55.5,60,-65,60,125,135,145,145,347.5,F,SBD,Raw,
2,Abi-Louise Lane,SW,F-C-Open,117.3,84+,112.5,120,-130,120,52.5,57.5,62.5,62.5,140,150.5,-167.5,150.5,333,F,SBD,Raw,
3,Amy Enever,NM,F-C-Open,90.2,84+,90,95,100,100,40,42.5,45,45,107.5,115,120,120,265,F,SBD,Raw,
