Place,Name,CyrillicName,BirthDate,Division,BodyweightKg,WeightClassKg,Sex,Bench1Kg,Bench2Kg,Bench3Kg,Best3BenchKg,Bench4Kg,Deadlift1Kg,Deadlift2Kg,Deadlift3Kg,Deadlift4Kg,Best3DeadliftKg,TotalKg,Event,Equipment,Tested
1,Oleksandra Dubinina,Олександра Дубініна,1986-06-09,Open,80.4,60+,F,,,,,,155,170,175,,175,175,D,Raw,No
1,Gennadiy Guz,Геннадій Гуз,1997-08-09,Juniors 20-23,71.7,75,M,,,,,,220,235,-250,,235,235,D,Raw,No
1,Oleksandr Trondyuk,Олександр Трондюк,1995-12-28,Open,75,75,M,,,,,,257.5,270,-277.5,,270,270,D,Raw,No
2,Ivan Kapelyukh,Іван Капелюх,1985-06-26,Open,74.9,75,M,,,,,,220,235,250,,250,250,D,Raw,No
1,Vadim Marinich,Вадим Маринич,1981-08-31,Open,82.5,82.5,M,,,,,,255,265,275,,275,275,D,Raw,No
2,Artur Dubinin,Артур Дубінін,1987-06-22,Open,79.5,82.5,M,,,,,,250,265,-272.5,,265,265,D,Raw,No
1,Mikola Tishuk,Микола Тишук,1992-03-12,Open,88.7,90,M,,,,,,265,277.5,282.5,,282.5,282.5,D,Raw,No
2,Dmitro Pavlenko,Дмитро Павленко,1978-08-20,Open,87.9,90,M,,,,,,-270,270,-285,,270,270,D,Raw,No
3,Taras Ganzha,Тарас Ганжа,1990-01-08,Open,88.9,90,M,,,,,,240,250,-262.5,,250,250,D,Raw,No
1,Dmitro Shapoval,Дмитро Шаповал,1999-02-25,Teen 18-19,91.2,100,M,,,,,,260,,,,260,260,D,Raw,No
1,Oleksiy Miroshnichenko #1,Олексій Мирошниченко,1985-06-11,Open,93.6,100,M,,,,,,220,230,240,,240,240,D,Raw,No
2,Andriy Bidashku,Андрій Бідашку,1992-09-24,Open,93.8,100,M,,,,,,220,240,-250,,240,240,D,Raw,No
3,Andriy Regak,Андрій Регак,1982-08-15,Open,99.3,100,M,,,,,,220,227.5,232.5,,232.5,232.5,D,Raw,No
1,Artem Turyanitsya,Артем Туряниця,1991-09-26,Open,104.4,110,M,,,,,,320,335,-340,,335,335,D,Raw,No
2,Evgeniy Ivanets,Євгеній Іванець,1995-10-02,Open,102.6,110,M,,,,,,315,-327.5,-330,,315,315,D,Raw,No
3,Sergiy Stashenko,Сергій Сташенко,1988-06-20,Open,102.5,110,M,,,,,,280,290,-300,,290,290,D,Raw,No
1,Viktor Kuznetsov #4,Віктор Кузнєцов,1988-12-13,Open,111.4,125,M,,,,,,300,315,330,,330,330,D,Raw,No
2,Sergiy Dyak,Сергій Дяк,,Open,118,125,M,,,,,,290,310,-315,,310,310,D,Raw,No
3,Oleksandr Neshkurenko,Олександр Нешкуренко,1985-07-06,Open,120.7,125,M,,,,,,285,300,310,,310,310,D,Raw,No
4,Viktor Vatagin,Віктор Ватагін,1982-05-29,Open,123.8,125,M,,,,,,240,260,-265,,260,260,D,Raw,No
1,Oleksandr Sharvey,Олександр Шарвей,1986-02-03,Open,75,75,M,150,155,157.5,157.5,,,,,,,157.5,B,Raw,No
2,Maksim Mutskiy,Максим Муцький,1986-04-14,Open,73.7,75,M,130,142.5,155,155,,,,,,,155,B,Raw,No
3,Ivan Kapelyukh,Іван Капелюх,1985-06-26,Open,74.9,75,M,-130,140,150,150,,,,,,,150,B,Raw,No
1,Vadim Marinich,Вадим Маринич,1981-08-31,Open,82.5,82.5,M,175,185,-190,185,,,,,,,185,B,Raw,No
2,Valeriy Grigorev #2,Валерій Григорьєв,1990-08-10,Open,81.6,82.5,M,140,150,-155,150,,,,,,,150,B,Raw,No
3,Oleksandr Golovatskiy,Олександр Головацький,1993-06-12,Open,82.5,82.5,M,135,142.5,147.5,147.5,,,,,,,147.5,B,Raw,No
1,Evgen Bogovik,Євген Боговик,1995-11-26,Juniors 20-23,90,90,M,-170,180,-187.5,180,,,,,,,180,B,Raw,No
1,Viktor Strenada,Віктор Стренада,1969-09-28,Masters,84.9,90,M,130,-135,140,140,,,,,,,140,B,Raw,No
1,Oleksandr Kozachenko,Олександр Козаченко,1985-02-07,Open,89.3,90,M,215,225,-235,225,,,,,,,225,B,Raw,No
2,Aleksandr Scherbakov,,1966-07-28,Open,88.9,90,M,190,200,-210,200,,,,,,,200,B,Raw,No
3,Pavlo Melnichenko,Павло Мельніченко,1989-11-01,Open,85.8,90,M,185,190,-192.5,190,,,,,,,190,B,Raw,No
4,Andriy Novikov,Андрій Новіков,1990-07-05,Open,87.5,90,M,190,-197.5,-197.5,190,,,,,,,190,B,Raw,No
1,Vadim Maystrenko,Вадим Майстренко,2001-06-24,Teen 16-17,99.5,100,M,145,150,-155,150,,,,,,,150,B,Raw,No
1,Roman Antonov,Роман Антонов,1995-11-29,Juniors 20-23,95,100,M,180,190,205,205,,,,,,,205,B,Raw,No
2,Andriy Yavorskiy,Андрій Яворський,1996-06-02,Juniors 20-23,98.3,100,M,175,-185,,175,,,,,,,175,B,Raw,No
1,Viktor Rublyov,Віктор Рубльов,1975-10-26,Masters,98.2,100,M,170,-177.5,177.5,177.5,,,,,,,177.5,B,Raw,No
1,Denis Bunchuk,Денис Бунчук,1989-07-09,Open,98.8,100,M,240,250,-260,250,,,,,,,250,B,Raw,No
2,Maksim Elskiy,Максим Єльський,1985-08-22,Open,93.8,100,M,200,210,220,220,,,,,,,220,B,Raw,No
3,Ruslan Sidorenko,Руслан Сидоренко,1987-07-06,Open,96.5,100,M,200,207,215,215,,,,,,,215,B,Raw,No
4,Roman Antonov,Роман Антонов,1995-11-29,Open,95,100,M,180,190,205,205,,,,,,,205,B,Raw,No
5,Kyamran Lumedze,Кямран Лумедзе,1990-10-28,Open,100,100,M,200,-205,-205,200,,,,,,,200,B,Raw,No
6,Viktor Rublyov,Віктор Рубльов,1975-10-26,Open,98.2,100,M,170,-177.5,177.5,177.5,,,,,,,177.5,B,Raw,No
7,Andriy Yavorskiy,Андрій Яворський,1996-06-02,Open,98.3,100,M,175,-185,,175,,,,,,,175,B,Raw,No
8,Oleksiy Miroshnichenko #1,Олексій Мирошниченко,1985-06-11,Open,93.6,100,M,160,167.5,-170,167.5,,,,,,,167.5,B,Raw,No
9,Andriy Bidashku,Андрій Бідашку,1992-09-24,Open,93.8,100,M,150,-155,-155,150,,,,,,,150,B,Raw,No
1,Oleksandr Tkachuk,Олександр Ткачук,1972-07-10,Masters,107,110,M,180,190,195,195,,,,,,,195,B,Raw,No
1,Oleksiy Parshuk,Олексій Паршук,1992-06-11,Open,109,110,M,200,210,212.5,212.5,,,,,,,212.5,B,Raw,No
2,Oleksandr Tkachuk,Олександр Ткачук,1972-07-10,Open,107,110,M,180,190,195,195,,,,,,,195,B,Raw,No
3,Denis Tikhankov,Денис Тиханков,1988-01-30,Open,110,110,M,150,160,167.5,167.5,,,,,,,167.5,B,Raw,No
1,Dmitro Brinzov,Дмитро Бринзов,1975-10-16,Masters,122.3,125,M,200,210,215,215,,,,,,,215,B,Raw,No
1,Viktor Kuznetsov #4,Віктор Кузнєцов,1988-12-13,Open,111.4,125,M,-210,220,230,230,,,,,,,230,B,Raw,No
2,Sergiy Dyak,Сергій Дяк,,Open,118,125,M,202.5,212.5,215,215,,,,,,,215,B,Raw,No
3,Dmitro Brinzov,Дмитро Бринзов,1975-10-16,Open,122.3,125,M,200,210,215,215,,,,,,,215,B,Raw,No
4,Oleksandr Neshkurenko,Олександр Нешкуренко,1985-07-06,Open,120.7,125,M,170,182.5,-187.5,182.5,,,,,,,182.5,B,Raw,No
5,Viktor Vatagin,Віктор Ватагін,1982-05-29,Open,123.8,125,M,150,160,172.5,172.5,,,,,,,172.5,B,Raw,No
1,Evgen Shuturminskiy,Євген Шутурмінський,1967-02-05,Masters,134.1,125+,M,200,210,-215,210,,,,,,,210,B,Raw,No
1,Evgen Shuturminskiy,Євген Шутурмінський,1967-02-05,Open,134.1,125+,M,200,210,-215,210,,,,,,,210,B,Raw,No
2,Gennadiy Kravchenko,Генадій Кравченко,1991-09-06,Open,125.5,125+,M,200,-205,205,205,,,,,,,205,B,Raw,No
DQ,Dmitro Golovinskiy,Дмитро Головинський,1988-07-29,Open,139.5,125+,M,-270,,,,,,,,,,,B,Raw,No
1,Olga Negodyuk,Ольга Негодюк,1968-01-10,Open,50.9,52,F,,,,,,125,132.5,-135,,132.5,132.5,D,Raw,Yes
1,Vladislava Sova,Владислава Сова,1999-09-03,Teen 18-19,59,60,F,,,,,,100,107.5,115,,115,115,D,Raw,Yes
1,Mariya Savicheva,Марія Савічева,1997-10-14,Juniors 20-23,55.2,60,F,,,,,,70,77.5,80,,80,80,D,Raw,Yes
1,Snizhana Cherechanska,Сніжана Черечанська,1978-05-09,Masters,55.8,60,F,,,,,,85,-95,-95,,85,85,D,Raw,Yes
1,Nataliya Sokurenko,Наталія Сокуренко,1981-08-12,Open,55,60,F,,,,,,150,-155,-155,,150,150,D,Raw,Yes
2,Olga Matyushenko,Ольга Матюшенко,1978-08-17,Open,55,60,F,,,,,,107.5,117.5,-125,,117.5,117.5,D,Raw,Yes
3,Yana Tkachenko,Яна Ткаченко,1984-07-07,Open,59,60,F,,,,,,95,105,110,,110,110,D,Raw,Yes
1,Oksana Ostroushko,Оксана Остроушко,1982-06-26,Open,60.2,60+,F,,,,,,125,135,140,,140,140,D,Raw,Yes
2,Anna Chertkova,Анна Черткова,1985-02-02,Open,65.7,60+,F,,,,,,97.5,105,110,,110,110,D,Raw,Yes
3,Irina Krizhanovska,Ірина Крижановська,1980-10-27,Open,65.7,60+,F,,,,,,70,75,80,,80,80,D,Raw,Yes
1,Maksim Chinenniy,Максим Чиненний,2003-10-10,Teen 13-15,59,60,M,,,,,,125,130,-140,,130,130,D,Raw,Yes
2,Artem Druzhina,Артем Дружина,1999-12-21,Teen 18-19,55.8,60,M,,,,,,100,110,-120,,110,110,D,Raw,Yes
1,Volodimir Malik,Володимир Малик,1987-08-21,Open,61.9,67.5,M,,,,,,140,155,-165,,155,155,D,Raw,Yes
2,Evgen Mofa,Євген Мофа,1993-06-01,Open,62,67.5,M,,,,,,130,140,150,,150,150,D,Raw,Yes
1,Oleksandr Fedorenko,Олександр Федоренко,1999-03-10,Teen 18-19,70.8,75,M,,,,,,160,175,185,,185,185,D,Raw,Yes
2,Andriy Deryabin,Андрій Дерябін,2002-03-06,Teen 16-17,74,75,M,,,,,,170,182.5,,,182.5,182.5,D,Raw,Yes
1,Anton Shchebetovskiy,Антон Щебетовський,1997-06-10,Juniors 20-23,72.3,75,M,,,,,,215,235,-242.5,,235,235,D,Raw,Yes
2,Andriy Somov,Андрій Сомов,1998-04-15,Juniors 20-23,75,75,M,,,,,,210,215,217.5,,217.5,217.5,D,Raw,Yes
1,Gennadiy Ivanchenko,Геннадій Іванченко,1966-01-23,Masters,73.3,75,M,,,,,,110,115,125,,125,125,D,Raw,Yes
1,Oleg Zhuchkov,Олег Жучков,1994-03-18,Open,73.7,75,M,,,,,,255,262.5,-265,,262.5,262.5,D,Raw,Yes
2,Anton Shchebetovskiy,Антон Щебетовський,1997-06-10,Open,72.3,75,M,,,,,,215,235,-242.5,,235,235,D,Raw,Yes
3,Eduard Karaush,Едуард Карауш,1993-03-16,Open,73.2,75,M,,,,,,190,-195,-195,,190,190,D,Raw,Yes
4,Dmitro Mangul,Дмитро Мангул,1993-04-22,Open,75,75,M,,,,,,190,-207.5,-207.5,,190,190,D,Raw,Yes
5,Evgen Buynovskiy,Євген Буйновський,1992-06-26,Open,74.6,75,M,,,,,,165,-187.5,,,165,165,D,Raw,Yes
1,Mikhaylo Yurchenko,Михайло Юрченко,1999-01-02,Teen 18-19,75.4,82.5,M,,,,,,247.5,-267.5,-267.5,,247.5,247.5,D,Raw,Yes
1,Mark Korotun,Марк Коротун,1998-10-20,Juniors 20-23,77.2,82.5,M,,,,,,230,245,255,-271.5,255,255,D,Raw,Yes
2,Denis Smagliy,Денис Смаглій,1997-08-05,Juniors 20-23,75.9,82.5,M,,,,,,220,225,-227.5,,225,225,D,Raw,Yes
1,Vyacheslav Bulgakov,Вячеслав Булгаков,1966-12-23,Masters,76.5,82.5,M,,,,,,162.5,180,187.5,,187.5,187.5,D,Raw,Yes
1,Volodimir Kovalenko,Володимир Коваленко,1985-08-28,Open,78.1,82.5,M,,,,,,200,220,230,,230,230,D,Raw,Yes
2,Andriy Yurchenko,Андрій Юрченко,1989-09-12,Open,80.5,82.5,M,,,,,,-170,-170,182.5,,182.5,182.5,D,Raw,Yes
1,Oleg Litvinenko,Олег Литвиненко,1995-03-25,Juniors 20-23,85,90,M,,,,,,220,230,,,230,230,D,Raw,Yes
1,Rinat Zaripov,Рінат Заріпов,1970-08-10,Masters,90,90,M,,,,,,245,262.5,267.5,270,267.5,267.5,D,Raw,Yes
2,Oleksandr Drobilko,Олександр Дробілко,1972-11-13,Masters,88.6,90,M,,,,,,225,235,,,235,235,D,Raw,Yes
1,Leonid Andrievskiy,Леонід Андрієвський,1989-02-04,Open,88.2,90,M,,,,,,260,270,275,-281,275,275,D,Raw,Yes
2,Boris Stashuk,Борис Сташук,1985-10-29,Open,86,90,M,,,,,,260,-280,-280,,260,260,D,Raw,Yes
3,Sergiy Todosenko,Сергій Тодосенко,1997-07-11,Open,83.3,90,M,,,,,,210,230,-242.5,,230,230,D,Raw,Yes
1,Dmitro Nikolaev,Дмитро Ніколаєв,1996-09-11,Juniors 20-23,95,100,M,,,,,,270,-290,302.5,,302.5,302.5,D,Raw,Yes
2,Roman Kuzmenko,Роман Кузьменко,1997-04-10,Juniors 20-23,94.3,100,M,,,,,,200,-210,210,,210,210,D,Raw,Yes
1,Maksim Mosinov,Максим Мосінов,1991-02-06,Open,92.3,100,M,,,,,,270,300,310,,310,310,D,Raw,Yes
2,Dmitro Garasim,Дмитро Гарасим,1985-10-28,Open,94.2,100,M,,,,,,250,,,,250,250,D,Raw,Yes
3,Valeriy Koev,Валерій Коєв,1987-01-30,Open,99.4,100,M,,,,,,240,245,-252.5,,245,245,D,Raw,Yes
4,Stanislav Shubin,Станіслав Шубін,1992-06-30,Open,96.1,100,M,,,,,,210,225,240,,240,240,D,Raw,Yes
5,Evgeniy Istomin,Євгеній Істомін,1983-05-10,Open,99.2,100,M,,,,,,190,200,205,,205,205,D,Raw,Yes
1,Oleksandr Zloba,Олександр Злоба,1970-11-11,Masters,104.8,110,M,,,,,,140,155,170,,170,170,D,Raw,Yes
1,Volodimir Ogloblin,Володимир Оглоблін,1965-08-15,Open,106.7,110,M,,,,,,260,,,,260,260,D,Raw,Yes
2,Artem Kirienko,Артем Кірієнко,1994-07-11,Open,106.6,110,M,,,,,,-240,-240,255,260,255,255,D,Raw,Yes
3,Evgen Kovalchuk,Євген Ковальчук,1987-04-13,Open,109,110,M,,,,,,200,207.5,215,,215,215,D,Raw,Yes
DQ,Andriy Goncharuk,Андрій Гончарук,1988-03-19,Open,107.4,110,M,,,,,,-285,-285,-285,,,,D,Raw,Yes
1,Olga Negodyuk,Ольга Негодюк,1968-01-10,Open,50.9,52,F,55,57.5,60,60,,,,,,,60,B,Raw,Yes
1,Vladislava Sova,Владислава Сова,1999-09-03,Teen 18-19,59,60,F,50,-55,-57.5,50,,,,,,,50,B,Raw,Yes
2,Katerina Zhersh,Катерина Жерш,1999-07-10,Teen 18-19,59.2,60,F,45,47.5,-50,47.5,,,,,,,47.5,B,Raw,Yes
3,Anastasiya Telyatnikova,Анастасія Телятнікова,2000-07-20,Teen 18-19,56,60,F,42.5,47.5,-50,47.5,,,,,,,47.5,B,Raw,Yes
1,Nataliya Sokurenko,Наталія Сокуренко,1981-08-12,Open,55,60,F,70,-75,-75,70,,,,,,,70,B,Raw,Yes
2,Oleksandra Astakhova,Олександра Астахова,1990-12-16,Open,57.6,60,F,60,65,70,70,,,,,,,70,B,Raw,Yes
1,Nadiya Tishchenko,Надія Тищенко,1993-09-30,Open,71.1,60+,F,105,110,-115,110,,,,,,,110,B,Raw,Yes
2,Oksana Ostroushko,Оксана Остроушко,1982-06-26,Open,60.2,60+,F,60,65,-67.5,65,,,,,,,65,B,Raw,Yes
3,Nataliya Sidorenko,Наталія Сидоренко,1988-09-14,Open,73.8,60+,F,65,-67.5,67.5,67.5,,,,,,,67.5,B,Raw,Yes
4,Diana Korobova,Діана Коробова,1994-11-22,Open,69.2,60+,F,60,65,-70,65,,,,,,,65,B,Raw,Yes
5,Irina Krizhanovska,Ірина Крижановська,1980-10-27,Open,65.7,60+,F,35,42.5,-45,42.5,,,,,,,42.5,B,Raw,Yes
1,Artem Druzhina,Артем Дружина,1999-12-21,Teen 18-19,55.8,60,M,65,70,75,75,,,,,,,75,B,Raw,Yes
DQ,Maksim Chinenniy,Максим Чиненний,2003-10-10,Teen 13-15,59,60,M,-70,-70,-70,,,,,,,,,B,Raw,Yes
1,Igor Pak #1,Ігор Пак,1989-02-23,Open,59.6,60,M,110,-115,115,115,,,,,,,115,B,Raw,Yes
2,Rostislav Borovskiy,Ростислав Боровський,1986-05-15,Open,58.9,60,M,100,110,-115,110,,,,,,,110,B,Raw,Yes
3,Andriy Zhelyazko,Андрій Желязко,1987-12-10,Open,59.8,60,M,87.5,-97.5,-97.5,87.5,,,,,,,87.5,B,Raw,Yes
1,Aleksandr Semerenco,,1996-05-02,Juniors 20-23,62.1,67.5,M,130,137.5,142.5,142.5,,,,,,,142.5,B,Raw,Yes
1,Igor Trofimchuk,Ігор Трофимчук,1978-03-18,Open,61.2,67.5,M,115,120,122.5,122.5,,,,,,,122.5,B,Raw,Yes
1,Kostyantin Sekker,Костянтин Секкер,2003-06-15,Teen 13-15,68.4,75,M,115,125,130,130,,,,,,,130,B,Raw,Yes
2,Oleksandr Fedorenko,Олександр Федоренко,1999-03-10,Teen 18-19,70.8,75,M,120,130,-135,130,,,,,,,130,B,Raw,Yes
3,Albert Minasyan,Альберт Мінасян,2001-04-27,Teen 16-17,73.2,75,M,75,-80,-80,75,,,,,,,75,B,Raw,Yes
1,Anton Shchebetovskiy,Антон Щебетовський,1997-06-10,Juniors 20-23,72.3,75,M,-127.5,-127.5,130,130,,,,,,,130,B,Raw,Yes
2,Denis Manilenko,Денис Маніленко,1996-04-01,Juniors 20-23,74,75,M,105,115,-120,115,,,,,,,115,B,Raw,Yes
1,Sergiy Goncharuk,Сергій Гончарук,1978-05-09,Masters,74.2,75,M,130,135,-137.5,135,,,,,,,135,B,Raw,Yes
2,Gennadiy Ivanchenko,Геннадій Іванченко,1966-01-23,Masters,73.3,75,M,-90,95,-100,95,,,,,,,95,B,Raw,Yes
1,Vadim Zolotoy,Вадим Золотой,1993-09-27,Open,75,75,M,135,140,-145,140,,,,,,,140,B,Raw,Yes
2,Sergiy Goncharuk,Сергій Гончарук,1978-05-09,Open,74.2,75,M,130,135,-137.5,135,,,,,,,135,B,Raw,Yes
3,Georgiy Dimchenko,Георгій Димченко,1981-10-10,Open,74.5,75,M,115,120,-125,120,,,,,,,120,B,Raw,Yes
1,Roman Nikolin,Роман Ніколін,1994-12-05,Juniors 20-23,82.5,82.5,M,160,170,-175,170,,,,,,,170,B,Raw,Yes
2,Mark Korotun,Марк Коротун,1998-10-20,Juniors 20-23,77.2,82.5,M,150,160,-165,160,,,,,,,160,B,Raw,Yes
1,Vyacheslav Bulgakov,Вячеслав Булгаков,1966-12-23,Masters,76.5,82.5,M,122,132,140,140,,,,,,,140,B,Raw,Yes
1,Evgeniy Boloban,Євгеній Болобан,1996-08-28,Open,76.3,82.5,M,180,185,190,190,,,,,,,190,B,Raw,Yes
2,Roman Nikolin,Роман Ніколін,1994-12-05,Open,82.5,82.5,M,160,170,-175,170,,,,,,,170,B,Raw,Yes
3,Valeriy Spatar,Валерій Спатарь,1992-10-10,Open,82,82.5,M,-130,135,-140,135,,,,,,,135,B,Raw,Yes
4,Oleksandr Vernigora,Олександр Вернигора,1991-03-29,Open,81.1,82.5,M,110,-115,115,115,,,,,,,115,B,Raw,Yes
5,Ruslan Bobrik,Руслан Бобрик,1992-06-15,Open,77.7,82.5,M,-110,110,-120,110,,,,,,,110,B,Raw,Yes
DQ,Artem Alekseenko,Артем Алексеєнко,1990-06-20,Open,81.7,82.5,M,-160,-160,-160,,,,,,,,,B,Raw,Yes
1,Vadim Pisartsov,Вадим Пісарцов,1997-02-22,Juniors 20-23,85,90,M,125,130,135,135,,,,,,,135,B,Raw,Yes
1,Rinat Zaripov,Рінат Заріпов,1970-08-10,Masters,90,90,M,150,160,162.5,162.5,,,,,,,162.5,B,Raw,Yes
2,Mikhaylo Kondratev,Михайло Кондратєв,1953-10-07,Masters,87.6,90,M,125,130,-132.5,130,,,,,,,130,B,Raw,Yes
1,Andrey Senkiv,,1989-04-01,Open,87.4,90,M,175,182.5,-190,182.5,,,,,,,182.5,B,Raw,Yes
2,Leonid Andrievskiy,Леонід Андрієвський,1989-02-04,Open,88.2,90,M,170,180,-190,180,,,,,,,180,B,Raw,Yes
3,Yaroslav Telker,Ярослав Телькер,1988-02-22,Open,87.4,90,M,162.5,167.5,172.5,172.5,,,,,,,172.5,B,Raw,Yes
4,Boris Stashuk,Борис Сташук,1985-10-29,Open,86,90,M,160,-170,-170,160,,,,,,,160,B,Raw,Yes
5,Dmitro Lomeyko,Дмитро Ломейко,1983-09-14,Open,85.6,90,M,140,150,-155,150,,,,,,,150,B,Raw,Yes
DD,Ivan Krivoshey,Іван Кривошей,1983-08-04,Open,85,90,M,170,175,-180,175,,,,,,,,B,Raw,Yes
1,Roman Kuzmenko,Роман Кузьменко,1997-04-10,Juniors 20-23,94.3,100,M,150,155,-162.5,155,,,,,,,155,B,Raw,Yes
2,Oleksiy Tishchenko,Олексій Тіщенко,1997-09-17,Juniors 20-23,99,100,M,155,-162.5,,155,,,,,,,155,B,Raw,Yes
1,Sergiy Yakovenko,Сергій Яковенко,1966-06-12,Masters,91.6,100,M,140,145,150,150,,,,,,,150,B,Raw,Yes
2,Ruslan Petrenko,Руслан Петренко,1974-07-14,Masters,92.1,100,M,135,145,-152.5,145,,,,,,,145,B,Raw,Yes
1,Egor Pirogov,Єгор Пирогов,1987-09-30,Open,99.4,100,M,190,202.5,207.5,207.5,208,,,,,,207.5,B,Raw,Yes
2,Valeriy Koev,Валерій Коєв,1987-01-30,Open,99.4,100,M,155,165,172.5,172.5,,,,,,,172.5,B,Raw,Yes
3,Oleksandr Podshivalov,Олександр Подшивалов,1988-04-13,Open,98.4,100,M,157.5,165,170,170,,,,,,,170,B,Raw,Yes
4,Maksim Platonov,Максим Платонов,1989-04-03,Open,98.9,100,M,-170,170,-185,170,,,,,,,170,B,Raw,Yes
5,Dmitro Garasim,Дмитро Гарасим,1985-10-28,Open,94.2,100,M,150,160,162.5,162.5,,,,,,,162.5,B,Raw,Yes
6,Roman Sidenko,Роман Сиденко,1988-08-22,Open,98.3,100,M,140,155,162.5,162.5,,,,,,,162.5,B,Raw,Yes
7,Dmitro Teslyuk,Дмитро Теслюк,1990-02-15,Open,99.4,100,M,-160,160,-165,160,,,,,,,160,B,Raw,Yes
8,Stanislav Shubin,Станіслав Шубін,1992-06-30,Open,96.1,100,M,140,147.5,155,155,,,,,,,155,B,Raw,Yes
9,Oleksiy Tishchenko,Олексій Тіщенко,1997-09-17,Open,99,100,M,155,-162.5,,155,,,,,,,155,B,Raw,Yes
10,Evgeniy Istomin,Євгеній Істомін,1983-05-10,Open,99.2,100,M,140,-150,-165,140,,,,,,,140,B,Raw,Yes
1,Yuriy Sisoev,Юрій Сисоєв,1975-10-15,Masters,109.8,110,M,170,180,195,195,,,,,,,195,B,Raw,Yes
2,Oleksandr Zloba,Олександр Злоба,1970-11-11,Masters,104.8,110,M,100,110,-120,110,,,,,,,110,B,Raw,Yes
1,Artem Kirienko,Артем Кірієнко,1994-07-11,Open,106.6,110,M,150,160,165,165,,,,,,,165,B,Raw,Yes
2,Evgen Kovalchuk,Євген Ковальчук,1987-04-13,Open,109,110,M,147.5,150,155.5,155.5,,,,,,,155.5,B,Raw,Yes
3,Denis Afanasev #5,Денис Афанасьєв,1991-02-12,Open,104,110,M,122.5,130,-135,130,,,,,,,130,B,Raw,Yes
1,Dmitro Pokrass,Дмитро Покрасс,1970-10-30,Masters,114,110+,M,155,165,-170,165,,,,,,,165,B,Raw,Yes
1,Andriy Parasochka,Андрій Парасочка,1989-03-26,Open,112.7,110+,M,-200,200,-210,200,,,,,,,200,B,Raw,Yes
2,Andriy Gedz,Андрій Гедзь,1981-09-13,Open,117.5,110+,M,170,-177.5,-177.5,170,,,,,,,170,B,Raw,Yes
3,Vitaliy Fedoriychuk,Віталій Федорийчук,1980-04-29,Open,119,110+,M,162.5,-170,170,170,,,,,,,170,B,Raw,Yes
