Place,Name,CyrillicName,BirthYear,BodyweightKg,Best3SquatKg,Best3BenchKg,Best3DeadliftKg,TotalKg,WeightClassKg,Event,Equipment,Division,Sex,BirthDate
1,Elena Barteneva,Елена Бартенева,1981,50.95,80,52.5,80,212.5,52,SBD,Single-ply,Open,F,
1,Anna Koleganova,Анна Колеганова,1990,55.6,135,85,122.5,342.5,57,SBD,Single-ply,Open,F,
2,Anastasiya Kartel,Анастасия Картель,1997,56.35,120,82.5,127.5,330,57,SBD,Single-ply,Open,F,
3,Ekaterina Ovechkina,Екатерина Овечкина,1996,56.65,80,35,85,200,57,SBD,Single-ply,Open,F,
4,Mariya Dokuchaeva,Мария Докучаева,1987,53.9,70,47.5,75,192.5,57,SBD,Single-ply,Open,F,
DQ,Ekaterina Okun,Екатерина Окунь,1994,56.9,130,,,,57,SBD,Single-ply,Open,F,
DQ,Alina Aminova,Алина Аминова,1995,57,90,,,,57,SBD,Single-ply,Open,F,
DQ,Elena Polozova,Елена Полозова,1995,52.1,60,,,,57,SBD,Single-ply,Open,F,
DQ,Alena Volkova,Алена Волкова,1988,57,60,,,,57,SBD,Single-ply,Open,F,
1,Tatyana Efimova,Татьяна Ефимова,1977,60.1,135,100,140,375,63,SBD,Single-ply,Open,F,
2,Tatyana Kuzmina,Татьяна Кузьмина,1991,62.5,110,72.5,100,282.5,63,SBD,Single-ply,Open,F,
1,Antonina Tolasova,Антонина Толасова,1970,70.25,172.5,110,150,432.5,72,SBD,Single-ply,Open,F,
2,Margarita Zhogina,Маргарита Жогина,1997,69.05,175,85,152.5,412.5,72,SBD,Single-ply,Open,F,
3,Ulyana Guseva,Ульяна Гусева,1987,67.4,140,75,152.5,367.5,72,SBD,Single-ply,Open,F,
4,Natalya Shevchuk #1,Наталья Шевчук,1993,70.3,105,95,130,330,72,SBD,Single-ply,Open,F,
5,Valeriya Volobueva,Валерия Волобуева,1988,65.45,125,70,130,325,72,SBD,Single-ply,Open,F,
1,Aleksandra Akhmetyanova,Александра Ахметьянова,1987,81.5,160,120,160,440,84,SBD,Single-ply,Open,F,
2,Mariya Shcherbakova,Мария Щербакова,1993,74.95,177.5,90,145,412.5,84,SBD,Single-ply,Open,F,
3,Svetlana Belyaeva,Светлана Беляева,1988,77.35,130,95,132.5,357.5,84,SBD,Single-ply,Open,F,
4,Yuliya Ivanova,Юлия Иванова,1986,79.55,110,95,152.5,357.5,84,SBD,Single-ply,Open,F,
DQ,Nadezhda Zhirnova,Надежда Жирнова,1983,81.95,170,,,,84,SBD,Single-ply,Open,F,
1,Svetlana Kadun,Светлана Кадун,1986,93.55,125,72.5,110,307.5,84+,SBD,Single-ply,Open,F,
1,Karen Muradyan,Карен Мурадян,1984,73.85,270,207.5,260,737.5,74,SBD,Single-ply,Open,M,
2,Dmitriy Voronov,Дмитрий Воронов,1987,74,255,160,245,660,74,SBD,Single-ply,Open,M,
3,Grigoriy Shneerov,Григорий Шнееров,1983,73.3,227.5,157.5,222.5,607.5,74,SBD,Single-ply,Open,M,
4,Oleg Zabrodin,Олег Забродин,1990,69.5,240,147.5,212.5,600,74,SBD,Single-ply,Open,M,
DQ,Danil Alekseev,Данил Алексеев,1988,73.75,275,,,,74,SBD,Single-ply,Open,M,
1,Aleksey Sidorov,Алексей Сидоров,1990,82.95,310,215,267.5,792.5,83,SBD,Single-ply,Open,M,
2,Mikhail Nikolaev,Михаил Николаев,1977,83,290,225,272.5,787.5,83,SBD,Single-ply,Open,M,
3,Denis Tyulkov,Денис Тюльков,1986,82.25,295,192.5,252.5,740,83,SBD,Single-ply,Open,M,
4,Mikhail Gachechiladze,Михаил Гачечиладзе,1974,81.85,265,195,260,720,83,SBD,Single-ply,Open,M,
5,Pavel Bondarenko,Павел Бондаренко,1991,80.5,265,182.5,245,692.5,83,SBD,Single-ply,Open,M,
6,Vladimir Yakovlev,Владимир Яковлев,1986,79.55,240,200,250,690,83,SBD,Single-ply,Open,M,
7,Stanislav Fateev,Станислав Фатеев,1984,82.5,245,185,237.5,667.5,83,SBD,Single-ply,Open,M,
8,Vyacheslav Chirik,Вячеслав Чирик,1989,82.1,240,190,215,645,83,SBD,Single-ply,Open,M,
9,Stas Stepanov,Стас Степанов,1985,82.5,210,127.5,250,587.5,83,SBD,Single-ply,Open,M,
10,Denis Perevertaylo,Денис Перевертайло,1991,80.6,210,135,237.5,582.5,83,SBD,Single-ply,Open,M,
11,Sergey Kuznetsov,Сергей Кузнецов,1988,77.5,200,140,210,550,83,SBD,Single-ply,Open,M,
12,Sergey Shakhov,Сергей Шахов,1981,82.45,160,112.5,200,472.5,83,SBD,Single-ply,Open,M,
13,Kirill Maslov,Кирилл Маслов,1987,81.15,145,120,190,455,83,SBD,Single-ply,Open,M,
DQ,Roman Beresnev,Роман Береснев,1985,80.9,240,,,,83,SBD,Single-ply,Open,M,
DD,Yuriy Simutin,Юрий Симутин,1998,81.65,185,110,200,,83,SBD,Single-ply,Open,M,
1,Anvar Bagmanov,Анвар Багманов,1988,89.75,315,222.5,290,827.5,93,SBD,Single-ply,Open,M,
2,Aleksey Lupulenko,Алексей Лупуленко,1987,91.85,325,210,270,805,93,SBD,Single-ply,Open,M,
3,Konstantin Ekgardt,Константин Экгардт,1989,87.3,310,205,285,800,93,SBD,Single-ply,Open,M,
4,Oleg Rostovskiy,Олег Ростовский,1973,90.3,265,200,250,715,93,SBD,Single-ply,Open,M,
5,Eduard Pushkarev,Эдуард Пушкарев,1968,92.7,250,185,275,710,93,SBD,Single-ply,Open,M,
6,Denis Kallonen,Денис Каллонен,1979,91.5,260,190,255,705,93,SBD,Single-ply,Open,M,
7,Dmitriy Burundukov,Дмитрий Бурундуков,1997,90.9,265,170,265,700,93,SBD,Single-ply,Open,M,
8,Sergey Savin,Сергей Савин,1981,91.75,265,155,262.5,682.5,93,SBD,Single-ply,Open,M,
9,Evgeniy Pakhomov,Евгений Пахомов,1990,92,230,145,225,600,93,SBD,Single-ply,Open,M,
DQ,Ivan Poptsov,Иван Попцов,1985,89.15,230,190,,,93,SBD,Single-ply,Open,M,
DD,Oleg Lupa,Олег Лупа,1991,89.75,310,205,255,,93,SBD,Single-ply,Open,M,
DQ,Aleksey Suranov,Алексей Суранов,1980,90.55,215,,,,93,SBD,Single-ply,Open,M,
DQ,Aleksandr Zaporozhko,Александр Запорожко,1982,91.3,250,,,,93,SBD,Single-ply,Open,M,
DQ,Igor Lavrov,Игорь Лавров,1990,91.75,267.5,,,,93,SBD,Single-ply,Open,M,
DQ,Maksim Ivanov #3,Максим Иванов,1979,92.45,315,225,,,93,SBD,Single-ply,Open,M,
DQ,Roman Kornev,Роман Корнев,1971,92.9,280,,,,93,SBD,Single-ply,Open,M,
1,Sergey Gordeev,Сергей Гордеев,1992,104.55,285,250,290,825,105,SBD,Single-ply,Open,M,
2,Andrey Myagkov,Андрей Мягков,1990,98.5,312.5,257.5,247.5,817.5,105,SBD,Single-ply,Open,M,
3,Igor Klochek,Игорь Клочек,1990,100.65,300,212.5,302.5,815,105,SBD,Single-ply,Open,M,
4,Nikita Nikitin,Никита Никитин,1995,102.8,320,212.5,282.5,815,105,SBD,Single-ply,Open,M,
5,Nikolay Samarin,Николай Самарин,1980,103.65,310,225,280,815,105,SBD,Single-ply,Open,M,
6,Timofey Suprun,Тимофей Супрун,1978,100.35,290,200,300,790,105,SBD,Single-ply,Open,M,
7,Nikolay Brichikov,Николай Бричиков,1988,103.25,260,290,230,780,105,SBD,Single-ply,Open,M,
8,Artem Samatov,Артем Саматов,1985,103.35,260,212.5,277.5,750,105,SBD,Single-ply,Open,M,
9,Andrey Chernyshov,Андрей Чернышов,1975,104.25,270,195,280,745,105,SBD,Single-ply,Open,M,
10,Dmitriy Saburov,Дмитрий Сабуров,1990,102.6,275,200,240,715,105,SBD,Single-ply,Open,M,
11,Kirill Zheleznyy,Кирилл Железный,1984,103.65,220,225,250,695,105,SBD,Single-ply,Open,M,
12,Roman Lyutikov,Роман Лютиков,1978,96.4,252.5,180,260,692.5,105,SBD,Single-ply,Open,M,
13,Artur Bayron,Артур Байрон,1989,103.8,255,175,250,680,105,SBD,Single-ply,Open,M,
14,Denis Starshov,Денис Старшов,1990,101.6,255,190,225,670,105,SBD,Single-ply,Open,M,
15,Saveliy Ulanov,Савелий Уланов,1982,101.55,245,177.5,242.5,665,105,SBD,Single-ply,Open,M,
16,Stanislav Polyakov,Станислав Поляков,1979,101.45,260,160,240,660,105,SBD,Single-ply,Open,M,
17,Ilya Sokolov,Илья Соколов,1991,101.8,230,210,215,655,105,SBD,Single-ply,Open,M,
18,Dmitriy Osipov,Дмитрий Осипов,1990,102.4,230,185,235,650,105,SBD,Single-ply,Open,M,
19,Mikhail Yakovlev,Михаил Яковлев,1971,103.25,220,200,215,635,105,SBD,Single-ply,Open,M,
20,Igor Frolov,Игорь Фролов,1986,100.65,230,175,210,615,105,SBD,Single-ply,Open,M,
DQ,Igor Milin,Игорь Милин,1990,103.65,230,,,,105,SBD,Single-ply,Open,M,
DQ,Pavel Bulygin,Павел Булыгин,1983,104.9,295,190,,,105,SBD,Single-ply,Open,M,
1,Vladimir Bogdanovskiy,Владимир Богдановский,1985,116.65,315,250,312.5,877.5,120,SBD,Single-ply,Open,M,
2,Aleksandr Brodovyy,Александр Бродовый,1980,116,305,225,320,850,120,SBD,Single-ply,Open,M,
3,Andrey Trambovetskiy,Андрей Трамбовецкий,1985,110.8,312.5,217.5,280,810,120,SBD,Single-ply,Open,M,
4,Andrey Polyakov,Андрей Поляков,1989,115.55,340,210,255,805,120,SBD,Single-ply,Open,M,
5,Roman Gritsaenko,Роман Грицаенко,1978,107.75,265,205,275,745,120,SBD,Single-ply,Open,M,
6,Dmitriy Glushkov,Дмитрий Глушков,1997,118.1,270,180,220,670,120,SBD,Single-ply,Open,M,
DQ,Nikita Tokvel,Никита Токвель,1988,118.8,315,,,,120,SBD,Single-ply,Open,M,
DQ,Timur Sagatov,Тимур Сагатов,1979,111.3,375,270,,,120,SBD,Single-ply,Open,M,
1,Viktor Kurnikov,Виктор Курников,1983,124.3,352.5,260,327.5,940,120+,SBD,Single-ply,Open,M,
2,Dmitriy Kozlov,Дмитрий Козлов,1981,156.5,347.5,270,300,917.5,120+,SBD,Single-ply,Open,M,
3,Vladislav Smirnov,Владислав Смирнов,1990,163.6,345,212.5,300,857.5,120+,SBD,Single-ply,Open,M,
4,Ivan Ryabenkov,Иван Рябенков,1996,125.1,342.5,200,300,842.5,120+,SBD,Single-ply,Open,M,
5,Aleksandr Teplov,Александр Теплов,1973,122.75,305,215,300,820,120+,SBD,Single-ply,Open,M,
6,Aleksandr Telyatnikov,Александр Телятников,1979,131.75,285,217.5,265,767.5,120+,SBD,Single-ply,Open,M,
DQ,Sergey Petrov,Сергей Петров,1987,125.9,285,230,,,120+,SBD,Single-ply,Open,M,
DQ,Aleksandr Mokeev,Александр Мокеев,1981,130.45,342.5,260,,,120+,SBD,Single-ply,Open,M,
DQ,Roman Lebedev,Роман Лебедев,1981,139,375,310,,,120+,SBD,Single-ply,Open,M,
