Division,WeightClassKg,Place,Name,Team,BodyweightKg,Best3SquatKg,Best3BenchKg,Best3DeadliftKg,TotalKg,Equipment,Event,Sex
Boys,51.71,1,Pedro Saldivar,Kyle Lehman,51.71,140.61,83.91,167.83,392.36,Single-ply,SBD,M
Boys,51.71,2,Istvan Castilleja,Buda Hays,51.44,147.42,77.11,158.76,383.29,Single-ply,SBD,M
Boys,51.71,3,Mauricio Rangel Cruz,Buda Hays,50.98,120.2,81.65,140.61,342.46,Single-ply,SBD,M
Boys,51.71,4,Augustine Vasquez,San Marcos,43.73,70.31,43.09,90.72,204.12,Single-ply,SBD,M
Boys,55.79,1,Jeremiah Thompson,Manor,55.34,158.76,102.06,158.76,419.57,Single-ply,SBD,M
Boys,55.79,2,Colt Baranowski,Smithville,53.98,133.81,77.11,133.81,344.73,Single-ply,SBD,M
Boys,55.79,3,Sterling Dukett,Kyle Lehman,52.62,102.06,63.5,122.47,288.03,Single-ply,SBD,M
Boys,59.87,1,Jacob Vasquez #1,Kyle Lehman,58.42,183.7,95.25,197.31,476.27,Single-ply,SBD,M
Boys,59.87,2,Marc Anthony Govea-Gonzales,Del Valle,58.06,147.42,88.45,154.22,390.09,Single-ply,SBD,M
Boys,59.87,3,Rudy Pina,Del Valle,57.15,106.59,74.84,136.08,317.51,Single-ply,SBD,M
Boys,59.87,4,William Cauble,Buda Hays,58.97,83.91,61.23,136.08,281.23,Single-ply,SBD,M
Boys,67.13,1,Chris Velazquez,Geronimo Navarro,65.86,219.99,124.74,190.51,535.24,Single-ply,SBD,M
Boys,67.13,2,Therrance Soto,San Marcos,64.05,158.76,97.52,204.12,460.4,Single-ply,SBD,M
Boys,67.13,3,Declan Trevethan,Buda Hays,67.13,165.56,99.79,195.04,460.4,Single-ply,SBD,M
Boys,67.13,4,Kaleb Thomas,Buda Hays,66.9,154.22,99.79,170.1,424.11,Single-ply,SBD,M
Boys,67.13,5,Josiah Salinas,Geronimo Navarro,65.77,142.88,95.25,147.42,385.55,Single-ply,SBD,M
Boys,67.13,6,Alejandro Calderon,San Marcos,62.6,145.15,72.57,145.15,362.87,Single-ply,SBD,M
Boys,67.13,7,Apolo Ramos,Smithville,65.32,120.2,68.04,129.27,317.51,Single-ply,SBD,M
Boys,67.13,8,Gabe Driscoll,Del Valle,62.32,117.93,65.77,129.27,312.98,Single-ply,SBD,M
Boys,67.13,9,David Leonard,San Marcos,67.13,102.06,61.23,131.54,294.84,Single-ply,SBD,M
Boys,67.13,DQ,Daniel Santana,San Marcos,67.13,165.56,,,,Single-ply,SBD,M
Boys,67.13,DQ,Ray Heiser,Kyle Lehman,66.68,,,,,Single-ply,SBD,M
Boys,67.13,DQ,Adrian Sepulveda,Smithville,65.32,136.08,77.11,,,Single-ply,SBD,M
Boys,74.84,1,Jason Leal,Buda Hays,73.98,197.31,124.74,208.65,530.7,Single-ply,SBD,M
Boys,74.84,2,Christan Caballero,San Marcos,72.57,181.44,113.4,224.53,519.36,Single-ply,SBD,M
Boys,74.84,3,Marcus Oliva,Lockhart,74.48,161.03,138.35,190.51,489.88,Single-ply,SBD,M
Boys,74.84,4,Carlos Esquivel,Manor,68.49,174.63,102.06,188.24,464.93,Single-ply,SBD,M
Boys,74.84,5,Christian Alvarez #1,San Marcos,72.12,181.44,99.79,183.7,464.93,Single-ply,SBD,M
Boys,74.84,6,LaVonte Benford,Manor,70.31,170.1,102.06,188.24,460.4,Single-ply,SBD,M
Boys,74.84,7,Kiran Peyton,Kyle Lehman,68.4,161.03,108.86,172.37,442.25,Single-ply,SBD,M
Boys,74.84,8,Dylan Basham,San Marcos,74.84,154.22,113.4,174.63,442.25,Single-ply,SBD,M
Boys,74.84,9,Clay Padgett,Smithville,73.03,170.1,102.06,158.76,430.91,Single-ply,SBD,M
Boys,74.84,10,Jake Lopez,Buda Hays,72.57,151.95,102.06,170.1,424.11,Single-ply,SBD,M
Boys,74.84,11,Trevon Moore,Universal City Randolph,71.21,163.29,108.86,145.15,417.3,Single-ply,SBD,M
Boys,74.84,12,Kevin Pham,Manor,72.12,147.42,79.38,156.49,383.29,Single-ply,SBD,M
Boys,74.84,13,Jesau Batres,Lockhart,72.12,154.22,83.91,136.08,374.21,Single-ply,SBD,M
Boys,74.84,14,Jaden Cannaday,Buda Hays,73.94,124.74,79.38,140.61,344.73,Single-ply,SBD,M
Boys,74.84,15,Chance Hall,Del Valle,68.49,83.91,52.16,108.86,244.94,Single-ply,SBD,M
Boys,74.84,DQ,Daniel Cobia,Smithville,73.66,,,,,Single-ply,SBD,M
Boys,74.84,DQ,Niko Leza,Smithville,73.57,176.9,,,,Single-ply,SBD,M
Boys,74.84,DQ,Daniel J Wyrwich,San Antonio East Central,71.49,113.4,,,,Single-ply,SBD,M
Boys,82.1,1,Jacob Bandera,Smithville,82.1,206.38,124.74,199.58,530.7,Single-ply,SBD,M
Boys,82.1,2,Andrew Rodriguez,Kyle Lehman,80.92,204.12,124.74,199.58,528.44,Single-ply,SBD,M
Boys,82.1,3,Ruben Jarmillo,Manor,75.3,185.97,104.33,213.19,503.49,Single-ply,SBD,M
Boys,82.1,4,Nicolas Williams,Buda Hays,77.25,183.7,102.06,192.78,478.54,Single-ply,SBD,M
Boys,82.1,5,Jason Iwabuchi,Buda Hays,80.74,174.63,111.13,188.24,474,Single-ply,SBD,M
Boys,82.1,6,Tristan Breitenkamp,Geronimo Navarro,79.83,158.76,92.99,170.1,421.84,Single-ply,SBD,M
Boys,82.1,7,Dustin Armstrong,Smithville,77.66,147.42,90.72,174.63,412.77,Single-ply,SBD,M
Boys,82.1,8,Noah V Ruiz,San Antonio East Central,82.1,145.15,90.72,167.83,403.7,Single-ply,SBD,M
Boys,82.1,9,Samuel Heidler,Buda Hays,76.2,133.81,88.45,179.17,401.43,Single-ply,SBD,M
Boys,82.1,10,Cole Mouser,Geronimo Navarro,75.75,133.81,88.45,158.76,381.02,Single-ply,SBD,M
Boys,82.1,11,Andrew Vargas,Del Valle,80.74,136.08,90.72,142.88,369.68,Single-ply,SBD,M
Boys,82.1,12,Jose Hernandez #19,Lockhart,76.66,102.06,65.77,117.93,285.76,Single-ply,SBD,M
Boys,82.1,DQ,Gary Alonzo,Buda Hays,78.93,,,,,Single-ply,SBD,M
Boys,89.81,1,Euler de Leon,Geronimo Navarro,87.09,226.8,151.95,242.67,621.42,Single-ply,SBD,M
Boys,89.81,2,Christopher Aguirre,Buda Hays,87.82,224.53,136.08,229.06,589.67,Single-ply,SBD,M
Boys,89.81,3,Jacob Trujillo,Universal City Randolph,87.82,226.8,140.61,213.19,580.6,Single-ply,SBD,M
Boys,89.81,4,Courtney Lee #1,Manor,87.54,199.58,120.2,251.74,571.53,Single-ply,SBD,M
Boys,89.81,5,Daniel Kiyuna,Kyle Lehman,84.01,185.97,124.74,206.38,517.1,Single-ply,SBD,M
Boys,89.81,6,Cirillo Gonzales,Manor,89.45,183.7,115.67,204.12,503.49,Single-ply,SBD,M
Boys,89.81,7,James McDonald,Manor,84.55,174.63,106.59,215.46,496.68,Single-ply,SBD,M
Boys,89.81,8,Ricky Rodriguez,San Antonio East Central,89.45,192.78,102.06,190.51,485.34,Single-ply,SBD,M
Boys,89.81,9,Roberto Torres,San Antonio East Central,84.37,172.37,111.13,174.63,458.13,Single-ply,SBD,M
Boys,89.81,10,Steven Juarez,San Antonio East Central,89.54,172.37,92.99,183.7,449.06,Single-ply,SBD,M
Boys,89.81,11,Camren Willwerth,Del Valle,82.37,158.76,90.72,163.29,412.77,Single-ply,SBD,M
Boys,89.81,12,Preston Hawthworne,Lockhart,85.28,115.67,102.06,142.88,360.61,Single-ply,SBD,M
Boys,89.81,13,Stephen Titus,Smithville,87.54,124.74,81.65,133.81,340.19,Single-ply,SBD,M
Boys,99.79,1,Nathan Bryson,Kyle Lehman,94.17,233.6,183.7,213.19,630.49,Single-ply,SBD,M
Boys,99.79,2,Tajha Brooks,Manor,94.8,235.87,106.59,238.14,580.6,Single-ply,SBD,M
Boys,99.79,3,Adam Palomares,Buda Hays,99.79,240.4,131.54,201.85,573.79,Single-ply,SBD,M
Boys,99.79,4,Darien Borel,Manor,98.88,192.78,124.74,204.12,521.63,Single-ply,SBD,M
Boys,99.79,5,Brandon Rangel,San Marcos,98.43,192.78,122.47,204.12,519.36,Single-ply,SBD,M
Boys,99.79,6,Cole Booker,Geronimo Navarro,98.43,188.24,124.74,199.58,512.56,Single-ply,SBD,M
Boys,99.79,7,Michael Cespedes,Universal City Randolph,97.52,208.65,108.86,181.44,498.95,Single-ply,SBD,M
Boys,99.79,8,Travis Phel,San Antonio East Central,99.79,183.7,113.4,192.78,489.88,Single-ply,SBD,M
Boys,99.79,DQ,Garrett Garcia,Universal City Randolph,92.99,176.9,,,,Single-ply,SBD,M
Boys,99.79,DQ,Nicolas Bueno,Lockhart,93.89,,,,,Single-ply,SBD,M
Boys,99.79,DQ,Seth Sanchez,Kyle Lehman,99.79,240.4,,,,Single-ply,SBD,M
Boys,109.77,1,Jordan Hammonds,Kyle Lehman,107.59,265.35,142.88,240.4,648.64,Single-ply,SBD,M
Boys,109.77,2,David Sillero,Lockhart,106.59,226.8,151.95,204.12,582.87,Single-ply,SBD,M
Boys,109.77,3,John Sanchez #5,San Marcos,108.41,192.78,133.81,199.58,526.17,Single-ply,SBD,M
Boys,109.77,4,Jaime Guerra,Lockhart,107.77,204.12,129.27,190.51,523.9,Single-ply,SBD,M
Boys,109.77,5,Robbie Gregg,Smithville,109.23,197.31,111.13,163.29,471.74,Single-ply,SBD,M
Boys,109.77,6,Ty Thorton,Manor,107.95,170.1,106.59,192.78,469.47,Single-ply,SBD,M
Boys,109.77,7,Gabe Vasquez,Del Valle,109.32,145.15,113.4,161.03,419.57,Single-ply,SBD,M
Boys,109.77,8,David Villanueva,Buda Hays,108.86,122.47,102.06,113.4,337.93,Single-ply,SBD,M
Boys,109.77,DQ,David Reyna,Geronimo Navarro,101.15,233.6,,,,Single-ply,SBD,M
Boys,124.74,1,Ty Roaches,Kyle Lehman,122.02,288.03,183.7,247.21,718.94,Single-ply,SBD,M
Boys,124.74,2,Dylan Hatfield,Geronimo Navarro,124.28,281.23,190.51,226.8,698.53,Single-ply,SBD,M
Boys,124.74,3,Princely Umanmielen,Manor,117.93,235.87,124.74,238.14,598.74,Single-ply,SBD,M
Boys,124.74,4,Aiden A Marin,San Antonio East Central,124.74,192.78,88.45,192.78,474,Single-ply,SBD,M
Boys,124.74,5,Cody Beran,Del Valle,115.67,167.83,115.67,181.44,464.93,Single-ply,SBD,M
Boys,124.74,6,Raul Saucedo,Del Valle,123.83,165.56,106.59,149.69,421.84,Single-ply,SBD,M
Boys,124.74,7,Armando Barron,Del Valle,124.28,142.88,95.25,172.37,410.5,Single-ply,SBD,M
Boys,124.74+,1,Sergio Hernandez,Geronimo Navarro,151.5,233.6,201.85,235.87,671.32,Single-ply,SBD,M
Boys,124.74+,2,Brandon Garcia,Buda Hays,125.65,272.16,170.1,204.12,646.37,Single-ply,SBD,M
Boys,124.74+,3,Carter Holtkamp,Geronimo Navarro,135.17,215.46,163.29,190.51,569.26,Single-ply,SBD,M
Boys,124.74+,4,Mark Velasquez,San Marcos,153.31,183.7,120.2,188.24,492.15,Single-ply,SBD,M
Boys,124.74+,5,Daniel Urquiza,Del Valle,129.73,170.1,111.13,204.12,485.34,Single-ply,SBD,M
Boys,124.74+,6,Justin Pierson,Manor,140.16,163.29,120.2,199.58,483.08,Single-ply,SBD,M
Boys,124.74+,7,Andrew Sinor,Buda Hays,124.83,117.93,79.38,142.88,340.19,Single-ply,SBD,M
