Place,Name,Country,BodyweightKg,Squat1Kg,Squat2Kg,Squat3Kg,Squat4Kg,Bench1Kg,Bench2Kg,Bench3Kg,Bench4Kg,Deadlift1Kg,Deadlift2Kg,Deadlift3Kg,Deadlift4Kg,TotalKg,WeightClassKg,Division,Sex,Event,Equipment,Best3SquatKg,Best3BenchKg,Best3DeadliftKg,BirthYear
1,Dmitro Zaets,Ukraine,43.6,85,92.5,100,,42.5,-47.5,-47.5,,105,115,-125,,257.5,44,Amateur Sub-Teen 11-12,M,SBD,Wraps,100,42.5,115,2002
1,Oleksandr Ovcharenko,Ukraine,66,85,92.5,97.5,,55,60,-62.5,,95,-102.5,,,252.5,67.5,Amateur Teen 13-15,M,SBD,Wraps,97.5,60,95,2001
1,Mykyta Grechko,Ukraine,72.5,122.5,-130,130,,65,70,75,,120,130,-142.5,,335,75,Amateur Teen 13-15,M,SBD,Wraps,130,75,130,2002
1,Vladyslav Volosyuk,Ukraine,71.3,-180,190,-200,,-105,115,117.5,,185,200,-207.5,,507.5,75,Amateur Teen 16-17,M,SBD,Wraps,190,117.5,200,1998
2,Vladislav Sklyarov,Ukraine,72.1,170,185,190,,102.5,110,-115,,180,-195,-195,,480,75,Amateur Teen 16-17,M,SBD,Wraps,190,110,180,1998
1,Levan Balakhadze,Georgia,75.8,130,160,170,,100,110,-115,,160,-200,,,440,82.5,Amateur Teen 16-17,M,SBD,Wraps,170,110,160,1998
1,Dmitro Grigorev #1,Ukraine,104.1,230,250,-270,,132.5,142.5,147.5,,230,240,250,,647.5,110,Amateur Open,M,SBD,Wraps,250,147.5,250,
1,Eugene Boloban,Ukraine,72.2,230,-245,245,,-147.5,-147.5,155,,185,195,205,,605,75,Amateur Teen 18-19,M,SBD,Wraps,245,155,205,1996
2,Valentyn Smirnov,Ukraine,73.3,-155,165,-175,,70,77.5,82.5,,145,155,-165,,402.5,75,Amateur Teen 18-19,M,SBD,Wraps,165,82.5,155,1995
1,Eugene Golub,Ukraine,79.3,180,190,200,,100,110,-115,,170,185,195,,505,82.5,Amateur Teen 18-19,M,SBD,Wraps,200,110,195,1996
1,Eugene Lytvynenko,Ukraine,81.7,210,220,-225,,135,145,150,,225,235,-250,,605,82.5,Amateur Juniors 20-23,M,SBD,Wraps,220,150,235,1992
2,Oleg Derlyuk,Ukraine,79.2,220,240,-250,,-112.5,115,-125,,230,245,-255,,600,82.5,Amateur Juniors 20-23,M,SBD,Wraps,240,115,245,1992
3,Oleg Palyarush,Ukraine,79.8,190,210,-220,,130,140,-147.5,,220,232.5,237.5,,587.5,82.5,Amateur Juniors 20-23,M,SBD,Wraps,210,140,237.5,1995
1,Sviatoslav Boichuk,Ukraine,99.2,160,170,185,,170,180,185,,180,195,205,,575,100,Amateur Juniors 20-23,M,SBD,Wraps,185,185,205,1992
1,Sergiy Gaydrykh,Ukraine,102.6,-270,270,280,,155,160,165,,260,270,275,,720,110,Amateur Juniors 20-23,M,SBD,Wraps,280,165,275,1993
2,Danylo Udovyk,Ukraine,103.8,160,175,190,,107.5,112.5,117.5,,170,190,200,,507.5,110,Amateur Juniors 20-23,M,SBD,Wraps,190,117.5,200,1992
1,Mateusz Skrzat,Poland,118.8,-200,200,210,,160,165,170,,210,220,225,,605,125,Amateur Juniors 20-23,M,SBD,Wraps,210,170,225,1992
1,Sergiy Koblytskyy,Ukraine,74,220,235,-245,,147.5,155,-157.5,,235,255,265,,655,75,Amateur Open,M,SBD,Wraps,235,155,265,1987
2,Rostyslav Kudybyn,Ukraine,72.9,-180,-200,200,,140,-150,157.5,,170,190,195,,552.5,75,Amateur Open,M,SBD,Wraps,200,157.5,195,1991
1,Oleg Derlyuk,Ukraine,79.2,220,240,-250,,-112.5,115,-125,,230,245,-255,,600,82.5,Amateur Open,M,SBD,Wraps,240,115,245,1992
2,Sergiy Bogajchuk,Ukraine,80,200,212.5,-220,,130,140,145,,200,215,220,,577.5,82.5,Amateur Open,M,SBD,Wraps,212.5,145,220,1985
3,Zurab Chkhetiani,Georgia,76.3,-180,180,215,,130,140,-150,,180,-217.5,-217.5,,535,82.5,Amateur Open,M,SBD,Wraps,215,140,180,1984
1,George Popov,Ukraine,87.8,200,-212.5,212.5,,150,157.5,-162.5,,200,215.5,220,,590,90,Amateur Open,M,SBD,Wraps,212.5,157.5,220,1976
2,Nazariy Perkhulin,Ukraine,87.9,200,-215,-215,,145,150,155,,200,210,-215,,565,90,Amateur Open,M,SBD,Wraps,200,155,210,1988
1,Mariusz Snarski,Poland,93,240,255,262.5,,160,170,177.5,,250,270,285,,725,100,Amateur Open,M,SBD,Wraps,262.5,177.5,285,1984
2,Oleksandr Dmytriev,Ukraine,95.2,230,240,-250,,145,155,162.5,,235,-245,-245,,637.5,100,Amateur Open,M,SBD,Wraps,240,162.5,235,1987
3,Maryan Deyneka,Ukraine,91,190,210,-220,,135,140,-145,,-220,242.5,247.5,,597.5,100,Amateur Open,M,SBD,Wraps,210,140,247.5,1991
4,Pavlo Semkovich,Ukraine,99.8,-195,205,215,,150,155,157.5,,210,220,225,,597.5,100,Amateur Open,M,SBD,Wraps,215,157.5,225,1980
5,Anton Mazur,Ukraine,99.6,200,210,-215,,130,135,-140,,200,222.5,-247.5,,567.5,100,Amateur Open,M,SBD,Wraps,210,135,222.5,1987
1,Sergiy Gaydrykh,Ukraine,102.6,-270,270,280,,155,160,165,,260,270,275,,720,110,Amateur Open,M,SBD,Wraps,280,165,275,1993
2,Sergiy Bessel,Ukraine,107.4,235,255,-265,,170,180,185,,255,270,277.5,,717.5,110,Amateur Open,M,SBD,Wraps,255,185,277.5,1984
3,Illya Kapustin,Ukraine,106,215,230,-240,,-140,140,150,,255,270,281,,661,110,Amateur Open,M,SBD,Wraps,230,150,281,1991
4,Pavlo Mischuk,Ukraine,104.9,-205,212.5,-220,,-170,175,180,,237.5,255,260,,652.5,110,Amateur Open,M,SBD,Wraps,212.5,180,260,1998
1,Artem Prysyazhnyy,Ukraine,112.8,215,230,242.5,,150,157.5,162.5,,255,275,285,,690,125,Amateur Open,M,SBD,Wraps,242.5,162.5,285,1981
1,Oleksandr Shvab,Ukraine,126,150,,,,140,,,,170,,,,460,140,Amateur Open,M,SBD,Wraps,150,140,170,1976
1,George Popov,Ukraine,87.8,200,-212.5,212.5,,150,157.5,-162.5,,200,215.5,220,,590,90,Amateur Submasters 33-39,M,SBD,Wraps,212.5,157.5,220,1976
1,Jimsher Chelidze,Georgia,99.2,-230,230,,,160,170,,,220,225,,,625,100,Amateur Submasters 33-39,M,SBD,Wraps,230,170,225,1978
2,Pavlo Semkovich,Ukraine,99.8,-195,205,215,,150,155,157.5,,210,220,225,,597.5,100,Amateur Submasters 33-39,M,SBD,Wraps,215,157.5,225,1980
1,Artem Prysyazhnyy,Ukraine,112.8,215,230,242.5,,150,157.5,162.5,,255,275,285,,690,125,Amateur Submasters 33-39,M,SBD,Wraps,242.5,162.5,285,1981
1,Oleksandr Shvab,Ukraine,126,150,,,,140,,,,170,,,,460,140,Amateur Submasters 33-39,M,SBD,Wraps,150,140,170,1976
1,Volodymyr Andreev,Ukraine,102.4,170,180,,,110,120,,,180,210,230,,530,110,Amateur Masters 40-44,M,SBD,Wraps,180,120,230,1973
1,Borys Khoroshyy,Ukraine,97.9,160,180,190,,100,110,115,,170,180,190,,495,100,Amateur Masters 45-49,M,SBD,Wraps,190,115,190,1966
1,Stefan Sochaňski,Poland,90.1,175,185,195,,97.5,105,110,,185,210,-225,,515,100,Amateur Masters 65-69,M,SBD,Wraps,195,110,210,1948
DQ,Mariya Soltysyak,Ukraine,53.4,-90,-100,-100,,-40,,,,-90,,,,,56,Amateur Teen 16-17,F,SBD,Wraps,,,,1998
1,Yana Khlanta,Ukraine,44.6,100,105,-110,,40,45,-50,,110,120,-125,,270,48,Amateur Open,F,SBD,Wraps,105,45,120,1987
1,Olga Podustova,Ukraine,52,-85,85,92.5,,62.5,67.5,-70,,92.5,100,105,,265,52,Amateur Open,F,SBD,Wraps,92.5,67.5,105,1990
2,Olga Skorokhodova,Ukraine,51.7,-70,-70,70,,45,50,-55,,80,90,-100,,210,52,Amateur Open,F,SBD,Wraps,70,50,90,1980
DQ,Daryna Prysyazhna,Ukraine,50.4,90,95,-100,,-55,-57.5,-57.5,,-92.5,,,,,52,Amateur Open,F,SBD,Wraps,95,,,1989
1,Anna Tkachuk,Ukraine,57.6,-90,90,-110,,52.5,55,-57.5,,110,115,-120,,260,60,Amateur Open,F,SBD,Wraps,90,55,115,1989
1,Nataliya Mavdrik,Ukraine,62.3,100,110,117.5,,72.5,77.5,80,,130,140,-150,,337.5,67.5,Amateur Open,F,SBD,Wraps,117.5,80,140,1984
2,Ewa Owsiany,Poland,65.3,105,107.5,-115,,72.5,75,-80,,110,120,-125,,302.5,67.5,Amateur Open,F,SBD,Wraps,107.5,75,120,1987
1,Tetyana Khomyak,Ukraine,76.8,90,100,110,,60,-67.5,67.5,,95,107.5,115,,292.5,82.5,Amateur Open,F,SBD,Wraps,110,67.5,115,1979
1,Oksana Muzyka,Ukraine,65.3,75,85,92.5,,62.5,-67.5,67.5,,85,95,105,,265,67.5,Amateur Masters 45-49,F,SBD,Wraps,92.5,67.5,105,1969
1,Ion Ciobanu,Moldova,95.6,150,160,170,,90,100,-110,,180,190,200,,470,100,Pro Teen 13-15,M,SBD,Wraps,170,100,200,1999
1,Dariusz Wybraniak,Poland,74.5,130,142.5,-150,,95,100,-105,,170,180,-190,,422.5,75,Pro Teen 16-17,M,SBD,Wraps,142.5,100,180,1997
1,Maksym Samoylenko,Ukraine,88.8,-205,210,-220,,135,142.5,147.5,,250,265,-273,,622.5,90,Pro Teen 16-17,M,SBD,Wraps,210,147.5,265,1998
1,Yaroslav Galibarenko,Ukraine,66.8,-180,-180,180,,100,110,117.5,,180,195,-202.5,,492.5,67.5,Pro Teen 18-19,M,SBD,Wraps,180,117.5,195,1996
1,Artem Gaidai,Ukraine,74.9,-200,200,-217.5,,135,140,-145,,200,-210,210,,550,75,Pro Teen 18-19,M,SBD,Wraps,200,140,210,1996
1,Maksym Boyko,Ukraine,87.8,250,-270,-270,,150,155,160,,210,-220,-220,,620,90,Pro Teen 18-19,M,SBD,Wraps,250,160,210,1996
2,Wojciech Wybraniak,Poland,84.3,120,135,-145,,120,-135,-135,,160,180,200,,455,90,Pro Teen 18-19,M,SBD,Wraps,135,120,200,1995
1,Andriy Sarazhynskyy,Ukraine,90.6,220,240,-260,,115,125,132.5,,170,190,207.5,,580,100,Pro Teen 18-19,M,SBD,Wraps,240,132.5,207.5,1996
1,Mateusz Kaczmarek,Poland,67.5,-110,110,125,,115,120,122.5,,150,170,180,,427.5,67.5,Pro Juniors 20-23,M,SBD,Wraps,125,122.5,180,1993
2,Yuriy Tsaryk,Ukraine,60.4,-140,140,-150,,95,-100,-102.5,,-150,150,160,,395,67.5,Pro Juniors 20-23,M,SBD,Wraps,140,95,160,1992
1,Ivan Tymchak,Ukraine,82.4,220,227.5,-232.5,,-132.5,135,-137.5,,235,-247.5,-247.5,,597.5,82.5,Pro Juniors 20-23,M,SBD,Wraps,227.5,135,235,1993
2,Viktor Petrenko,Ukraine,76,-205,-205,205,,125,135,140,,205,230,-250,,575,82.5,Pro Juniors 20-23,M,SBD,Wraps,205,140,230,1992
1,Eugene Nastenko,Ukraine,95.5,-270,270,292.5,,165,-180,-180,,260,287.5,-292.5,,745,100,Pro Juniors 20-23,M,SBD,Wraps,292.5,165,287.5,1991
1,Maciej Stępniak,Poland,108.3,220,240,250,,175,-190,190,,250,280,-300.5,,720,110,Pro Juniors 20-23,M,SBD,Wraps,250,190,280,1991
1,Tchabluka Chigladze,Georgia,117.5,-250,250,-290,,180,200,215,,260,290,300,,765,125,Pro Juniors 20-23,M,SBD,Wraps,250,215,300,1993
1,Givi Margvelashvili,Georgia,67.2,140,180,-200,,110,130,-150,,100,180,210,,520,67.5,Pro Open,M,SBD,Wraps,180,130,210,1989
1,Tomasz Miloch,Poland,74.9,180,190,210,,120,130,135,,220,240,-255,,585,75,Pro Open,M,SBD,Wraps,210,135,240,1983
2,Oleksiy Borovskyy,Ukraine,75,-210,215,-225,,120,130,-135,,200,-222.5,-222.5,,545,75,Pro Open,M,SBD,Wraps,215,130,200,1986
1,Arkadiy Shalokha,Ukraine,80.5,305,320,-336,,185,195,-197.5,,280,295,-300,,810,82.5,Pro Open,M,SBD,Wraps,320,195,295,1983
2,Bogdan Vorobey,Ukraine,82.4,240,-260,-280,,130,140,150,,240,255,265,,655,82.5,Pro Open,M,SBD,Wraps,240,150,265,1983
3,Viktor Pankevych,Ukraine,77.7,-220,220,230,,115,120,,,230,-240,-240,,580,82.5,Pro Open,M,SBD,Wraps,230,120,230,1958
1,Oleksii Melnyk,Ukraine,88.8,300,-320,-320,,180,-187.5,187.5,,280,300,-312.5,,787.5,90,Pro Open,M,SBD,Wraps,300,187.5,300,1990
2,Yaroslav Lytvynenko,Ukraine,89.4,230,240,250,,140,150,-157.5,,260,272.5,-280,,672.5,90,Pro Open,M,SBD,Wraps,250,150,272.5,1976
3,Vasyl' Mykhalskyy,Ukraine,88.8,220,-235,-240,,135,145,-152.5,,240,255,-270,,620,90,Pro Open,M,SBD,Wraps,220,145,255,1980
1,Kyrylo Potapov,Ukraine,104.6,-240,240,250,,135,-145,-150,,255,280,-290,,665,110,Pro Open,M,SBD,Wraps,250,135,280,1982
2,Vasil Aslanishvili,Georgia,107.5,-200,200,-230,,140,-155,-155,,-150,-150,150,,490,110,Pro Open,M,SBD,Wraps,200,140,150,1988
1,Aleksandr Kurak,Belarus,125,360,380,,,230,240,250,,320,-330,-330,,950,125,Pro Open,M,SBD,Wraps,380,250,320,1987
2,Łukasz Toczylowski,Poland,120,290,310,330,,-210,210,220,,270,300,310,,860,125,Pro Open,M,SBD,Wraps,330,220,310,1985
3,Levan Gorgodze,Georgia,121.3,280,300,-320,,180,190,200,,290,-310,-322.5,,790,125,Pro Open,M,SBD,Wraps,300,200,290,1987
1,Giorgi Gogolidze,Georgia,125.3,300,-320,-335,,170,180,190,,300,325,335,,825,140,Pro Open,M,SBD,Wraps,300,190,335,1988
1,Oleksandr Gensitskyy,Ukraine,146.2,260,270,280,,210,220,230,,240,-260,260,,770,155,Pro Submasters 33-39,M,SBD,Wraps,280,230,260,1975
1,Oleksandr Popovych,Ukraine,67.3,140,160,180,,122.5,130,137.5,-140,150,175,182.5,,500,67.5,Pro Masters 40-44,M,SBD,Wraps,180,137.5,182.5,1972
1,Oleg Fistikan,Moldova,86.8,160,170,180,,110,-117.5,117.5,,200,215,220,,517.5,90,Pro Masters 40-44,M,SBD,Wraps,180,117.5,220,1973
1,Aleksey Tarasenko,Russia,119.2,300,-325,,,222.5,230,-235,,240,-260,-260,,770,125,Pro Masters 40-44,M,SBD,Wraps,300,230,240,1971
1,Akif Ragimov,Belarus,92.5,200,210,-215,,150,160,-165,,210,220,230,,600,100,Pro Masters 45-49,M,SBD,Wraps,210,160,230,1966
1,Gasan Garumov,Ukraine,72.5,105,115,-120,,90,-95,-97.5,,145,155,165,,370,75,Pro Masters 50-54,M,SBD,Wraps,115,90,165,1963
1,Zbigniew Turowski,Poland,89.3,200,222.5,242.5,,120,130,140,,200,220,-240,,602.5,90,Pro Masters 50-54,M,SBD,Wraps,242.5,140,220,1964
1,Viktor Pankevych,Ukraine,77.7,-220,220,230,,115,120,,,230,-240,-240,,580,82.5,Pro Masters 55-59,M,SBD,Wraps,230,120,230,1958
1,Igor Zubarev,Ukraine,73,-50,50,62.5,,30,-35,37.5,,70,85,95,,195,75,Pro Masters 70-74,M,SBD,Wraps,62.5,37.5,95,1941
1,Oleksandr Popovych,Ukraine,67.3,140,160,180,,122.5,130,137.5,-140,150,175,182.5,,500,67.5,Pro Military/Fire/Police,M,SBD,Wraps,180,137.5,182.5,1972
1,Mariya Dovgay,Ukraine,59.9,-85,85,95,,65,70,75,,120,130,140,,310,60,Pro Masters 50-54,F,SBD,Wraps,95,75,140,1963
1,Anton Popov,Ukraine,72.1,180,-200,200,,147.5,-155,155,,190,205,-210,,560,75,Amateur Open,M,SBD,Multi-ply,200,155,205,1989
1,Andriy Dyatlov,Ukraine,82.2,280,300,,,-190,200,-210,,250,265,,,765,82.5,Amateur Open,M,SBD,Multi-ply,300,200,265,1985
2,Michał Rożnowski,Poland,81.7,210,225,235,,130,140,-145,,205,225,,,600,82.5,Amateur Open,M,SBD,Multi-ply,235,140,225,1979
1,Edward Rożnowski,Poland,89.4,200,220,-230,,35,45,70,,205,235,-240,,525,90,Amateur Open,M,SBD,Multi-ply,220,70,235,1951
1,Mariusz Snarski,Poland,93,240,255,262.5,,160,170,177.5,,250,270,285,,725,100,Amateur Open,M,SBD,Multi-ply,262.5,177.5,285,1984
1,Pavlo Mischuk,Ukraine,104.9,180,,,,150,,,,205,,,,535,110,Amateur Open,M,SBD,Multi-ply,180,150,205,1998
1,Michał Rożnowski,Poland,81.7,210,225,235,,130,140,-145,,205,225,,,600,82.5,Amateur Submasters 33-39,M,SBD,Multi-ply,235,140,225,1979
1,Edward Rożnowski,Poland,89.4,200,220,-230,,35,45,70,,205,235,-240,,525,90,Amateur Masters 60-64,M,SBD,Multi-ply,220,70,235,1951
1,Stefan Sochaňski,Poland,90.1,225,240,-250,,120,130,137.5,,212.5,232.5,242.5,,620,100,Amateur Masters 65-69,M,SBD,Multi-ply,240,137.5,242.5,1948
1,Andriy Dyatlov,Ukraine,82.2,280,300,,,-190,200,-210,,250,265,,,765,82.5,Amateur Military/Fire/Police,M,SBD,Multi-ply,300,200,265,1985
1,Pavlo Ischenko,Ukraine,96.8,290,305,-315,,200,-210,210,,260,275,-285,,790,100,Pro Open,M,SBD,Multi-ply,305,210,275,1991
2,Andriy Voronovskyy,Ukraine,99.7,200,215,,,120,160,170,,-200,200,230,,615,100,Pro Open,M,SBD,Multi-ply,215,170,230,1986
1,Łukasz Toczylowski,Poland,120,290,310,330,,-210,210,220,,270,300,310,,860,125,Pro Open,M,SBD,Multi-ply,330,220,310,1985
1,Yuriy Malygin,Ukraine,106.3,120,170,-215,,110,160,-170,,120,170,200,,530,110,Pro Masters 45-49,M,SBD,Multi-ply,170,160,200,1967
1,Yuriy Malygin,Ukraine,106.3,120,170,-215,,110,160,-170,,120,170,200,,530,110,Pro Military/Fire/Police,M,SBD,Multi-ply,170,160,200,1967
1,Dmitro Zaets,Ukraine,43.6,,,,,,,,,105,115,-125,,115,44,Amateur Sub-Teen 11-12,M,D,Raw,,,115,2002
1,Valentyn Podbereznyy,Ukraine,66,,,,,,,,,155,175,-185,,175,67.5,Amateur Teen 13-15,M,D,Raw,,,175,1999
1,Kakha Chachanidze,Georgia,52.8,,,,,,,,,130,150,-155,,150,56,Amateur Teen 16-17,M,D,Raw,,,150,1998
1,Nazar Sokol,Ukraine,66.9,,,,,,,,,155,165,-170,,165,67.5,Amateur Teen 16-17,M,D,Raw,,,165,1998
1,Vladislav Sklyarov,Ukraine,72.1,,,,,,,,,180,-195,-195,,180,75,Amateur Teen 16-17,M,D,Raw,,,180,1998
1,Eugene Tsybulko,Ukraine,77.4,,,,,,,,,160,170,177.5,,177.5,82.5,Amateur Teen 16-17,M,D,Raw,,,177.5,1997
1,Akaki Chkhviminai,Georgia,57.2,,,,,,,,,140,160,172.5,,172.5,60,Amateur Teen 18-19,M,D,Raw,,,172.5,1997
1,Shota Kavlelashvili,Georgia,69.1,,,,,,,,,170,210,-222.5,,210,75,Amateur Teen 18-19,M,D,Raw,,,210,1997
1,Bogdan Lytvyn,Ukraine,82.4,,,,,,,,,210,220,-232.5,,220,82.5,Amateur Teen 18-19,M,D,Raw,,,220,1995
DQ,Andriy Abramovych,Ukraine,66.3,,,,,,,,,-175,-175,-175,,,67.5,Amateur Juniors 20-23,M,D,Raw,,,,1994
1,Oleg Derlyuk,Ukraine,79.2,,,,,,,,,230,245,255,,255,82.5,Amateur Juniors 20-23,M,D,Raw,,,255,1992
2,Oleg Palyarush,Ukraine,79.8,,,,,,,,,220,232.5,237.5,,237.5,82.5,Amateur Juniors 20-23,M,D,Raw,,,237.5,1995
1,Yaroslav Nikitin,Ukraine,86.9,,,,,,,,,220,240,250,,250,90,Amateur Juniors 20-23,M,D,Raw,,,250,1993
2,Sergiy Kyrychuk,Ukraine,83,,,,,,,,,220,230,-240,,230,90,Amateur Juniors 20-23,M,D,Raw,,,230,1991
1,Sergiy Gaydrykh,Ukraine,102.6,,,,,,,,,260,270,275,,275,110,Amateur Juniors 20-23,M,D,Raw,,,275,1993
2,Nazar Miroshnichenko,Ukraine,104.3,,,,,,,,,220,230,-240,,230,110,Amateur Juniors 20-23,M,D,Raw,,,230,1994
1,Sergiy Duka,Ukraine,68.4,,,,,,,,,160,175,-190,,175,75,Amateur Open,M,D,Raw,,,175,1991
1,Oleg Derlyuk,Ukraine,79.2,,,,,,,,,230,245,255,,255,82.5,Amateur Open,M,D,Raw,,,255,1992
2,Andriy Sokolov,Ukraine,80.6,,,,,,,,,202.5,-215,-232.5,,202.5,82.5,Amateur Open,M,D,Raw,,,202.5,1987
1,George Popov,Ukraine,87.8,,,,,,,,,205,215.5,220,,220,90,Amateur Open,M,D,Raw,,,220,1976
2,Oleksandr Pischanskyy,Ukraine,87.8,,,,,,,,,185,200,210,,210,90,Amateur Open,M,D,Raw,,,210,1984
3,Vadym Kotsaga,Ukraine,87,,,,,,,,,190,205,,,205,90,Amateur Open,M,D,Raw,,,205,1977
1,Vadim Omelchuk,Ukraine,98.7,,,,,,,,,230,240,255,,255,100,Amateur Open,M,D,Raw,,,255,1989
2,Eugene Goncharenko,Ukraine,96.2,,,,,,,,,230,250,-260,,250,100,Amateur Open,M,D,Raw,,,250,1990
3,Oleksandr Dmytriev,Ukraine,95.2,,,,,,,,,235,-245,-245,,235,100,Amateur Open,M,D,Raw,,,235,1987
4,Vitaliy Kascheev,Ukraine,97,,,,,,,,,200,220,-230,,220,100,Amateur Open,M,D,Raw,,,220,1980
1,Mykhaylo Anisimov,Ukraine,104.6,,,,,,,,,270,285,290,,290,110,Amateur Open,M,D,Raw,,,290,1985
2,Illya Kapustin,Ukraine,106,,,,,,,,,255,270,281,,281,110,Amateur Open,M,D,Raw,,,281,1991
3,Sergiy Gaydrykh,Ukraine,102.6,,,,,,,,,260,270,275,,275,110,Amateur Open,M,D,Raw,,,275,1993
4,Anatoliy Shostatskyy,Ukraine,103.4,,,,,,,,,260,270,-285,,270,110,Amateur Open,M,D,Raw,,,270,1981
5,Amirani Doghonadze,Georgia,106.8,,,,,,,,,250,262.5,-272.5,,262.5,110,Amateur Open,M,D,Raw,,,262.5,1981
1,Artem Prysyazhnyy,Ukraine,112.8,,,,,,,,,255,275,285,,285,125,Amateur Open,M,D,Raw,,,285,1981
1,Oleksandr Shvab,Ukraine,126,,,,,,,,,170,,,,170,140,Amateur Open,M,D,Raw,,,170,1976
1,Irakli Chanturia,Georgia,148.6,,,,,,,,,290,312.5,325,,325,155,Amateur Open,M,D,Raw,,,325,1984
1,Oleksiy Kudrin,Ukraine,64.3,,,,,,,,,-150,155,-175,,155,67.5,Amateur Submasters 33-39,M,D,Raw,,,155,1981
1,Francesco LoPorto,Italy,81,,,,,,,,,230,240,252.5,,252.5,82.5,Amateur Submasters 33-39,M,D,Raw,,,252.5,1980
1,George Popov,Ukraine,87.8,,,,,,,,,205,215.5,220,,220,90,Amateur Submasters 33-39,M,D,Raw,,,220,1976
2,Vadym Kotsaga,Ukraine,87,,,,,,,,,190,205,,,205,90,Amateur Submasters 33-39,M,D,Raw,,,205,1977
3,Ivan Tymokhin,Ukraine,87.4,,,,,,,,,140,170,175,,175,90,Amateur Submasters 33-39,M,D,Raw,,,175,1980
1,Vitaliy Kascheev,Ukraine,97,,,,,,,,,200,220,-230,,220,100,Amateur Submasters 33-39,M,D,Raw,,,220,1980
1,Anatoliy Shostatskyy,Ukraine,103.4,,,,,,,,,260,270,-285,,270,110,Amateur Submasters 33-39,M,D,Raw,,,270,1981
1,Artem Prysyazhnyy,Ukraine,112.8,,,,,,,,,255,275,285,,285,125,Amateur Submasters 33-39,M,D,Raw,,,285,1981
1,Oleksandr Shvab,Ukraine,126,,,,,,,,,170,,,,170,140,Amateur Submasters 33-39,M,D,Raw,,,170,1976
1,Dmytro Mazur,Ukraine,66,,,,,,,,,150,165,-175,,165,67.5,Amateur Masters 40-44,M,D,Raw,,,165,1972
1,Volodymyr Andreev,Ukraine,102.4,,,,,,,,,180,210,230,,230,110,Amateur Masters 40-44,M,D,Raw,,,230,1973
1,Borys Khoroshyy,Ukraine,97.9,,,,,,,,,170,180,190,,190,100,Amateur Masters 45-49,M,D,Raw,,,190,1966
1,Vladislav Marchenko,Ukraine,125,,,,,,,,,235,245,,,245,125,Amateur Masters 45-49,M,D,Raw,,,245,1967
1,Salvatore DiModica,Italy,85.8,,,,,,,,,150,157.5,165,,165,90,Amateur Masters 50-54,M,D,Raw,,,165,1963
1,Oleksandr Artemiev,Ukraine,86.3,,,,,,,,,110,115,120,,120,90,Amateur Masters 55-59,M,D,Raw,,,120,1958
1,Stefan Sochaňski,Poland,90.1,,,,,,,,,185,210,-225,,210,100,Amateur Masters 65-69,M,D,Raw,,,210,1948
1,Olena Pylypchuk,Ukraine,52,,,,,,,,,100,110,115,,115,52,Amateur Teen 16-17,F,D,Raw,,,115,1997
1,Gabriela Gacek,Poland,61.8,,,,,,,,,97.5,105,107.5,,107.5,67.5,Amateur Teen 16-17,F,D,Raw,,,107.5,1998
1,Magdalena Zapała,Poland,84.7,,,,,,,,,105,110,-120,,110,90,Amateur Teen 18-19,F,D,Raw,,,110,1995
1,Olena Medvedeva,Ukraine,48,,,,,,,,,60,72.5,-85,,72.5,48,Amateur Juniors 20-23,F,D,Raw,,,72.5,1991
1,Eugenia Li,Ukraine,55.5,,,,,,,,,100,-110,-110,,100,56,Amateur Juniors 20-23,F,D,Raw,,,100,1993
1,Renata Zapała,Poland,69.4,,,,,,,,,110,120,-122.5,,120,75,Amateur Juniors 20-23,F,D,Raw,,,120,1994
1,Oleksandra Deda,Ukraine,47.3,,,,,,,,,-95,100,-105,,100,48,Amateur Open,F,D,Raw,,,100,1986
1,Daryna Prysyazhna,Ukraine,50.4,,,,,,,,,85,92.5,100,,100,52,Amateur Open,F,D,Raw,,,100,1989
1,Liana Kapitula,Ukraine,55,,,,,,,,,70,75,-80,,75,56,Amateur Open,F,D,Raw,,,75,1988
1,Nataliya Mavdrik,Ukraine,62.3,,,,,,,,,130,140,-150,,140,67.5,Amateur Open,F,D,Raw,,,140,1984
2,Bernadetta Styrczulam,Poland,61.2,,,,,,,,,115,120,-125,,120,67.5,Amateur Open,F,D,Raw,,,120,1982
1,Oksana Tkach,Ukraine,74.9,,,,,,,,,110,122.5,130,,130,75,Amateur Masters 40-44,F,D,Raw,,,130,1971
1,Nataliya Penkova,Ukraine,59.1,,,,,,,,,80,90,-105,,90,60,Amateur Masters 45-49,F,D,Raw,,,90,1965
1,Dariusz Wybraniak,Poland,74.5,,,,,,,,,170,180,-190,,180,75,Pro Teen 16-17,M,D,Raw,,,180,1997
1,Ion Ciobanu,Moldova,95.6,,,,,,,,,180,190,200,,200,100,Pro Teen 16-17,M,D,Raw,,,200,1999
1,Wojciech Wybraniak,Poland,84.3,,,,,,,,,160,180,200,,200,90,Pro Teen 18-19,M,D,Raw,,,200,1995
DQ,Mikhail Charnusevich,Belarus,89.8,,,,,,,,,-272.5,-272.5,-272.5,,,90,Pro Juniors 20-23,M,D,Raw,,,,1992
1,Elguja Koberidze,Georgia,97.4,,,,,,,,,230,250,-270,,250,100,Pro Juniors 20-23,M,D,Raw,,,250,1995
1,Maciej Stępniak,Poland,108.3,,,,,,,,,250,280,-300.5,,280,110,Pro Juniors 20-23,M,D,Raw,,,280,1991
1,Evgenij Shavchenko,Belarus,113.2,,,,,,,,,257.5,282.5,302.5,,302.5,125,Pro Juniors 20-23,M,D,Raw,,,302.5,1993
1,Yaroslav Apalkov,Ukraine,166.4,,,,,,,,,320,340,-360,,340,155+,Pro Juniors 20-23,M,D,Raw,,,340,1993
1,Givi Margvelashvili,Georgia,67.2,,,,,,,,,100,180,210,,210,67.5,Pro Open,M,D,Raw,,,210,1989
1,Tomasz Miloch,Poland,74.9,,,,,,,,,220,240,-255,,240,75,Pro Open,M,D,Raw,,,240,1983
1,Dmytro Cherkay,Ukraine,75.6,,,,,,,,,260,265,-270,,265,82.5,Pro Open,M,D,Raw,,,265,1985
2,Daviti Gulua,Georgia,81.7,,,,,,,,,230,250,-252.5,,250,82.5,Pro Open,M,D,Raw,,,250,1989
3,Ruslan Dragun,Belarus,81.9,,,,,,,,,230,245,-252.5,,245,82.5,Pro Open,M,D,Raw,,,245,1989
1,Oleksii Melnyk,Ukraine,88.8,,,,,,,,,280,300,-312.5,,300,90,Pro Open,M,D,Raw,,,300,1990
2,Yaroslav Lytvynenko,Ukraine,89.4,,,,,,,,,260,272.5,-280,,272.5,90,Pro Open,M,D,Raw,,,272.5,1976
1,Aris Eyubov,Azerbaijan,99.9,,,,,,,,,290,305,-310,,305,100,Pro Open,M,D,Raw,,,305,1979
2,Mikhail Verbitskii,Belarus,98,,,,,,,,,250,282.5,-292.5,,282.5,100,Pro Open,M,D,Raw,,,282.5,1951
1,Aleksey Gavrilov,Belarus,104.9,,,,,,,,,270,290,-300,,290,110,Pro Open,M,D,Raw,,,290,1982
2,Kyrylo Potapov,Ukraine,104.6,,,,,,,,,255,280,,,280,110,Pro Open,M,D,Raw,,,280,1982
1,Levan Gorgodze,Georgia,121.3,,,,,,,,,280,300,-320,,300,125,Pro Open,M,D,Raw,,,300,1987
2,Rafał Karpiński,Poland,120.4,,,,,,,,,240,260,280,,280,125,Pro Open,M,D,Raw,,,280,1984
1,Robert Nemś,Poland,129.9,,,,,,,,,275,285,300,,300,140,Pro Open,M,D,Raw,,,300,1969
1,Yaroslav Apalkov,Ukraine,166.4,,,,,,,,,320,340,-360,,340,155+,Pro Open,M,D,Raw,,,340,1993
1,Yaroslav Lytvynenko,Ukraine,89.4,,,,,,,,,260,272.5,-280,,272.5,90,Pro Submasters 33-39,M,D,Raw,,,272.5,1976
1,Aris Eyubov,Azerbaijan,99.9,,,,,,,,,290,305,-310,,305,100,Pro Submasters 33-39,M,D,Raw,,,305,1979
1,Oleg Fistikan,Moldova,86.8,,,,,,,,,200,215,220,,220,90,Pro Masters 40-44,M,D,Raw,,,220,1973
1,Mikhaylo Pitinov,Ukraine,126.8,,,,,,,,,180,190,-210,,190,140,Pro Masters 40-44,M,D,Raw,,,190,1971
1,Dmytro Barkov,Ukraine,75,,,,,,,,,180,190,-195,,190,75,Pro Masters 45-49,M,D,Raw,,,190,1969
1,Vitaliy Beloborodov,Transnistria,107.1,,,,,,,,,245,255,-260,,255,110,Pro Masters 45-49,M,D,Raw,,,255,1968
1,Robert Nemś,Poland,129.9,,,,,,,,,275,285,300,,300,140,Pro Masters 45-49,M,D,Raw,,,300,1969
1,Gasan Garumov,Ukraine,72.5,,,,,,,,,145,155,165,,165,75,Pro Masters 50-54,M,D,Raw,,,165,1963
1,Zbigniew Turowski,Poland,89.3,,,,,,,,,200,220,-240,,220,90,Pro Masters 50-54,M,D,Raw,,,220,1964
1,Oleg Pivovarov,Russia,107.5,,,,,,,,,235,-252.5,-252.5,,235,110,Pro Masters 50-54,M,D,Raw,,,235,1963
1,Oleksandr Stepanchenko,Ukraine,89.6,,,,,,,,,200,225,230,,230,90,Pro Masters 55-59,M,D,Raw,,,230,1958
1,Mikhail Verbitskii,Belarus,98,,,,,,,,,250,282.5,-292.5,,282.5,100,Pro Masters 60-64,M,D,Raw,,,282.5,1951
1,Igor Zubarev,Ukraine,73,,,,,,,,,70,85,95,,95,75,Pro Masters 70-74,M,D,Raw,,,95,1941
1,Kyrylo Potapov,Ukraine,104.6,,,,,,,,,255,280,,,280,110,Pro Military/Fire/Police,M,D,Raw,,,280,1982
1,Svetlana Kovalyova,Belarus,55.9,,,,,,,,,107.5,115,120,-127.5,120,56,Pro Teen 16-17,F,D,Raw,,,120,1997
1,Bettina Razzouki-Korkis,Poland,53.4,,,,,,,,,95,105,110,,110,56,Pro Open,F,D,Raw,,,110,1965
1,Yulia Shenkarenko,Ukraine,60,,,,,,,,,175,-185,-195,,175,60,Pro Open,F,D,Raw,,,175,1986
1,Honorata Kaczorowska,Poland,62.3,,,,,,,,,150,160,175,,175,67.5,Pro Open,F,D,Raw,,,175,1985
1,Bettina Razzouki-Korkis,Poland,53.4,,,,,,,,,95,105,110,,110,56,Pro Masters 45-49,F,D,Raw,,,110,1965
1,Mariya Dovgay,Ukraine,59.9,,,,,,,,,120,130,140,,140,60,Pro Masters 50-54,F,D,Raw,,,140,1963
1,Nataliya Nikitchenko,Ukraine,60,,,,,,,,,90,100,-110,,100,60,Pro Military/Fire/Police,F,D,Raw,,,100,1988
1,Andriy Dyatlov,Ukraine,82.2,,,,,,,,,250,265,,,265,82.5,Amateur Open,M,D,Multi-ply,,,265,1985
2,Michał Rożnowski,Poland,81.7,,,,,,,,,205,225,,,225,82.5,Amateur Open,M,D,Multi-ply,,,225,1979
1,Edward Rożnowski,Poland,89.4,,,,,,,,,205,235,-240,,235,90,Amateur Open,M,D,Multi-ply,,,235,1951
2,Irakli Tskhovrebashvili,Georgia,85.7,,,,,,,,,160,,,,160,90,Amateur Open,M,D,Multi-ply,,,160,1981
1,Mariusz Snarski,Poland,93,,,,,,,,,250,270,285,,285,100,Amateur Open,M,D,Multi-ply,,,285,1984
1,Pavlo Mischuk,Ukraine,104.9,,,,,,,,,230,,,,230,110,Amateur Open,M,D,Multi-ply,,,230,1998
1,Michał Rożnowski,Poland,81.7,,,,,,,,,205,225,,,225,82.5,Amateur Submasters 33-39,M,D,Multi-ply,,,225,1979
1,Irakli Tskhovrebashvili,Georgia,85.7,,,,,,,,,160,,,,160,90,Amateur Submasters 33-39,M,D,Multi-ply,,,160,1981
1,Edward Rożnowski,Poland,89.4,,,,,,,,,205,235,-240,,235,90,Amateur Masters 60-64,M,D,Multi-ply,,,235,1951
1,Stefan Sochaňski,Poland,90.1,,,,,,,,,212.5,232.5,242.5,,242.5,100,Amateur Masters 65-69,M,D,Multi-ply,,,242.5,1948
1,Inna Yudina,Ukraine,73.8,,,,,,,,,135,150,-162.5,,150,75,Amateur Open,F,D,Multi-ply,,,150,1978
1,Efym Stepatskyy,Ukraine,89.7,,,,,,,,,260,-275,,,260,90,Pro Open,M,D,Multi-ply,,,260,1987
1,Yuriy Malygin,Ukraine,106.3,,,,,,,,,120,170,200,,200,110,Pro Masters 45-49,M,D,Multi-ply,,,200,1967
1,Dmitro Zaets,Ukraine,43.6,,,,,42.5,-47.5,-47.5,,,,,,42.5,44,Amateur Sub-Teen 11-12,M,B,Raw,,42.5,,2002
1,Pavlo Pidtoptaniy,Ukraine,67.4,,,,,110,115,-120,,,,,,115,67.5,Amateur Teen 16-17,M,B,Raw,,115,,1997
1,Stanislaw Kotsaga,Poland,71.3,,,,,100,105,107.5,,,,,,107.5,75,Amateur Teen 16-17,M,B,Raw,,107.5,,1998
1,Egor Kharchenko,Ukraine,81.9,,,,,132.5,140,-145,,,,,,140,82.5,Amateur Teen 16-17,M,B,Raw,,140,,1997
2,Eugene Tsybulko,Ukraine,77.5,,,,,85,95,100,,,,,,100,82.5,Amateur Teen 16-17,M,B,Raw,,100,,1997
1,Vano Andiashvili,Georgia,56,,,,,65,75,-80,,,,,,75,56,Amateur Teen 18-19,M,B,Raw,,75,,
1,Dmytro Chadov,Ukraine,74.9,,,,,120,127.5,132.5,,,,,,132.5,75,Amateur Teen 18-19,M,B,Raw,,132.5,,1996
DD,Oleksandr Androsovych,Ukraine,82.5,,,,,160,165,-172.5,,,,,,,82.5,Amateur Teen 18-19,M,B,Raw,,165,,1995
1,Oleksandr Chernets,Ukraine,71.3,,,,,-160,165,170,-177.5,,,,,170,75,Amateur Juniors 20-23,M,B,Raw,,170,,1991
2,Sergiy Korennyy,Ukraine,74.4,,,,,-120,120,-125,,,,,,120,75,Amateur Juniors 20-23,M,B,Raw,,120,,1991
1,Bogdan Sidoruk,Ukraine,75.8,,,,,-125,130,132.5,,,,,,132.5,82.5,Amateur Juniors 20-23,M,B,Raw,,132.5,,1992
2,Anton Chyrkov,Ukraine,79.4,,,,,120,127.5,-132.5,,,,,,127.5,82.5,Amateur Juniors 20-23,M,B,Raw,,127.5,,1993
1,Dmytro Tkach,Ukraine,89.9,,,,,140,150,157.5,,,,,,157.5,90,Amateur Juniors 20-23,M,B,Raw,,157.5,,1991
2,Volodymyr Nazarko,Ukraine,87,,,,,130,-140,145,,,,,,145,90,Amateur Juniors 20-23,M,B,Raw,,145,,1993
1,Sviatoslav Boichuk,Ukraine,99.2,,,,,170,180,185,,,,,,185,100,Amateur Juniors 20-23,M,B,Raw,,185,,1992
1,Sergiy Kovalchuk,Ukraine,103.3,,,,,167.5,175,185,,,,,,185,110,Amateur Juniors 20-23,M,B,Raw,,185,,1993
1,Mykhaylo Shpuk,Ukraine,114.3,,,,,155,162.5,170,,,,,,170,125,Amateur Juniors 20-23,M,B,Raw,,170,,1992
1,Dmytro Kotovych,Ukraine,59.6,,,,,95,100,-102.5,,,,,,100,60,Amateur Open,M,B,Raw,,100,,1989
1,Pavlo Pidtoptaniy,Ukraine,67.4,,,,,110,115,-120,,,,,,115,67.5,Amateur Open,M,B,Raw,,115,,1997
2,Andriy Bykov,Ukraine,64.5,,,,,-105,110,-120,,,,,,110,67.5,Amateur Open,M,B,Raw,,110,,1982
1,Oleksandr Chernets,Ukraine,71.3,,,,,-160,165,170,-177.5,,,,,170,75,Amateur Open,M,B,Raw,,170,,1991
2,Rostyslav Kudybyn,Ukraine,72.9,,,,,140,-150,157.5,,,,,,157.5,75,Amateur Open,M,B,Raw,,157.5,,1991
1,Vadym Marynych,Ukraine,81.6,,,,,155,162.5,165,,,,,,165,82.5,Amateur Open,M,B,Raw,,165,,1981
2,Volodymyr Lagoda,Ukraine,81.2,,,,,150,-157.5,-157.5,,,,,,150,82.5,Amateur Open,M,B,Raw,,150,,1968
3,Oleksandr Klymenko,Ukraine,81.8,,,,,145,150,-152.5,,,,,,150,82.5,Amateur Open,M,B,Raw,,150,,1990
4,Oleksandr Romaschenko,Ukraine,77.8,,,,,145,-150,-150,,,,,,145,82.5,Amateur Open,M,B,Raw,,145,,1989
5,Francesco LoPorto,Italy,81,,,,,140,145,-150,,,,,,145,82.5,Amateur Open,M,B,Raw,,145,,1980
6,Vitaliy Chyruk,Ukraine,82,,,,,-145,145,-150,,,,,,145,82.5,Amateur Open,M,B,Raw,,145,,1986
7,Oleksandr Denysyuk,Ukraine,82.4,,,,,125,135,-140,,,,,,135,82.5,Amateur Open,M,B,Raw,,135,,1989
DQ,Oleksandr Bratolyubov,Ukraine,82.4,,,,,-150,-150,-152.5,,,,,,,82.5,Amateur Open,M,B,Raw,,,,1986
1,Volodymyr Pikhota,Ukraine,89.7,,,,,202.5,-207.5,-207.5,,,,,,202.5,90,Amateur Open,M,B,Raw,,202.5,,1984
2,Oleksandr Pavlushonok,Ukraine,85.5,,,,,160,-165,-165,,,,,,160,90,Amateur Open,M,B,Raw,,160,,1985
3,Oleksandr Pischanskyy,Ukraine,87.8,,,,,147.5,157.5,160,,,,,,160,90,Amateur Open,M,B,Raw,,160,,1984
4,George Popov,Ukraine,87.8,,,,,150,157.5,-162.5,,,,,,157.5,90,Amateur Open,M,B,Raw,,157.5,,1976
1,Mykola Tarnavskyy,Ukraine,95.5,,,,,167.5,172.5,175,,,,,,175,100,Amateur Open,M,B,Raw,,175,,1962
2,Pavlo Semkovich,Ukraine,99.8,,,,,150,155,157.5,,,,,,157.5,100,Amateur Open,M,B,Raw,,157.5,,1980
3,Illya Shokotko,Ukraine,98.3,,,,,150,155,-160,,,,,,155,100,Amateur Open,M,B,Raw,,155,,1990
4,Sergiy Zolotarenko,Ukraine,99.4,,,,,135,140,-147.5,,,,,,140,100,Amateur Open,M,B,Raw,,140,,1985
1,Akaki Jguburia,Georgia,103.8,,,,,180,187.5,197.5,,,,,,197.5,110,Amateur Open,M,B,Raw,,197.5,,1988
2,Andriy Mazanovych,Ukraine,105.4,,,,,180,190,-200,,,,,,190,110,Amateur Open,M,B,Raw,,190,,1987
3,Viktor Bozhukha,Ukraine,107,,,,,155,162.5,167.5,,,,,,167.5,110,Amateur Open,M,B,Raw,,167.5,,1978
4,Andriy Tomashevych,Ukraine,105.9,,,,,-160,160,-165,,,,,,160,110,Amateur Open,M,B,Raw,,160,,1978
1,Sergiy Shumskyy,Ukraine,112.2,,,,,150,160,170,,,,,,170,125,Amateur Open,M,B,Raw,,170,,1985
DD,Miroslav Reshetnikov,Ukraine,111.5,,,,,190,200,-210,,,,,,,125,Amateur Open,M,B,Raw,,200,,1988
1,Oleksandr Shvab,Ukraine,126,,,,,140,,,,,,,,140,140,Amateur Open,M,B,Raw,,140,,1976
1,Oleg Brazhnyk,Ukraine,156.3,,,,,115,125,-140,,,,,,125,155+,Amateur Open,M,B,Raw,,125,,1970
1,Francesco LoPorto,Italy,81,,,,,140,145,-150,,,,,,145,82.5,Amateur Submasters 33-39,M,B,Raw,,145,,1980
1,George Popov,Ukraine,87.8,,,,,150,157.5,-162.5,,,,,,157.5,90,Amateur Submasters 33-39,M,B,Raw,,157.5,,1976
2,Ivan Tymokhin,Ukraine,87.4,,,,,110,-112.5,,,,,,,110,90,Amateur Submasters 33-39,M,B,Raw,,110,,1980
1,Akaki Shengelia,Georgia,96.9,,,,,165,175,-182.5,,,,,,175,100,Amateur Submasters 33-39,M,B,Raw,,175,,1977
2,Pavlo Semkovich,Ukraine,99.8,,,,,150,155,157.5,,,,,,157.5,100,Amateur Submasters 33-39,M,B,Raw,,157.5,,1980
1,Viktor Bozhukha,Ukraine,107,,,,,155,162.5,167.5,,,,,,167.5,110,Amateur Submasters 33-39,M,B,Raw,,167.5,,1978
2,Andriy Tomashevych,Ukraine,105.9,,,,,-160,160,-165,,,,,,160,110,Amateur Submasters 33-39,M,B,Raw,,160,,1978
1,Oleksandr Shvab,Ukraine,126,,,,,140,,,,,,,,140,140,Amateur Submasters 33-39,M,B,Raw,,140,,1976
1,Dmytro Mazur,Ukraine,66,,,,,-85,90,-97.5,,,,,,90,67.5,Amateur Masters 40-44,M,B,Raw,,90,,1972
1,Igor Radets,Ukraine,80.7,,,,,120,-125,-125,,,,,,120,82.5,Amateur Masters 40-44,M,B,Raw,,120,,1974
1,Eugene Krashanovskyy,Ukraine,101.2,,,,,180,-185,,,,,,,180,110,Amateur Masters 40-44,M,B,Raw,,180,,1970
1,Volodymyr Lagoda,Ukraine,81.2,,,,,150,-157.5,-157.5,,,,,,150,82.5,Amateur Masters 45-49,M,B,Raw,,150,,1968
1,Ruslan Pylypchuk,Ukraine,105.1,,,,,140,147.5,,,,,,,147.5,110,Amateur Masters 45-49,M,B,Raw,,147.5,,1970
1,Vladislav Marchenko,Ukraine,125,,,,,175,-180,-182.5,,,,,,175,125,Amateur Masters 45-49,M,B,Raw,,175,,1967
1,Oleg Brazhnyk,Ukraine,156.3,,,,,115,125,-140,,,,,,125,155+,Amateur Masters 45-49,M,B,Raw,,125,,1970
1,Mykola Tarnavskyy,Ukraine,95.5,,,,,167.5,172.5,175,,,,,,175,100,Amateur Masters 50-54,M,B,Raw,,175,,1962
1,Igor Kurotchenko,Russia,110,,,,,140,145,150,,,,,,150,110,Amateur Masters 50-54,M,B,Raw,,150,,1962
1,Petro Lonyuk,Ukraine,87.2,,,,,125,130,132.5,,,,,,132.5,90,Amateur Masters 55-59,M,B,Raw,,132.5,,1956
2,Oleksandr Artemiev,Ukraine,86.3,,,,,-85,85,90,,,,,,90,90,Amateur Masters 55-59,M,B,Raw,,90,,1958
1,Vladimir Kozlov,Russia,81.4,,,,,135,142.5,145,,,,,,145,82.5,Amateur Masters 60-64,M,B,Raw,,145,,1954
1,Yuriy Filonenko,Ukraine,89.1,,,,,122.5,127.5,130,,,,,,130,90,Amateur Masters 60-64,M,B,Raw,,130,,1954
1,Oleksiy Yaremenko,Ukraine,116,,,,,112.5,117.5,120,,,,,,120,125,Amateur Masters 60-64,M,B,Raw,,120,,1954
1,Volodymyr Vasylenko,Ukraine,77.9,,,,,62.5,67.5,70,,,,,,70,82.5,Amateur Masters 70-74,M,B,Raw,,70,,1943
1,Dmitrii Nadzha,Russia,96.3,,,,,180,185,-190,,,,,,185,100,Amateur Military/Fire/Police,M,B,Raw,,185,,1975
1,Ruslan Pylypchuk,Ukraine,105.1,,,,,140,147.5,,,,,,,147.5,110,Amateur Military/Fire/Police,M,B,Raw,,147.5,,1970
1,Yana Shyshpanova,Ukraine,57.3,,,,,65,-70,-70,,,,,,65,60,Amateur Teen 13-15,F,B,Raw,,65,,1999
1,Kateryna Samoylenko,Ukraine,47,,,,,45,50,-55,,,,,,50,48,Amateur Juniors 20-23,F,B,Raw,,50,,1994
1,Olga Morozovska,Ukraine,50,,,,,60,-65,-65,,,,,,60,52,Amateur Juniors 20-23,F,B,Raw,,60,,1991
1,Nataliya Melnychuk,Ukraine,51.4,,,,,62.5,67.5,-70,,,,,,67.5,52,Amateur Open,F,B,Raw,,67.5,,1975
2,Daryna Prysyazhna,Ukraine,50.4,,,,,52.5,-55,-55,,,,,,52.5,52,Amateur Open,F,B,Raw,,52.5,,1989
1,Valita Gorelchaniki,Georgia,55.8,,,,,85,87.5,90,,,,,,90,56,Amateur Open,F,B,Raw,,90,,1986
2,Liana Kapitula,Ukraine,55,,,,,42.5,47.5,-52.5,,,,,,47.5,56,Amateur Open,F,B,Raw,,47.5,,1988
DQ,Sofiya Fedorovych,Ukraine,53,,,,,-50,-52.5,-55,,,,,,,56,Amateur Open,F,B,Raw,,,,1982
DQ,Tetyana Panevina,Ukraine,55,,,,,45,,,,,,,,,56,Amateur Open,F,B,Raw,,45,,1980
1,Narina Kocharyan,Ukraine,59.9,,,,,77.5,-82.5,-82.5,,,,,,77.5,60,Amateur Open,F,B,Raw,,77.5,,1985
1,Anna Ignatyuk,Ukraine,66,,,,,55,-60,-60,,,,,,55,67.5,Amateur Open,F,B,Raw,,55,,1990
DD,Irina Ternova,Ukraine,61,,,,,90,95,-97.5,,,,,,,67.5,Amateur Open,F,B,Raw,,95,,1974
1,Tetyana Khomyak,Ukraine,76.8,,,,,60,-67.5,67.5,,,,,,67.5,82.5,Amateur Open,F,B,Raw,,67.5,,1979
1,Tetyana Shavidze,Ukraine,65.1,,,,,75,80,-82.5,,,,,,80,67.5,Amateur Submasters 33-39,F,B,Raw,,80,,1977
1,Oksana Tkach,Ukraine,74.9,,,,,40,50,-52.5,,,,,,50,75,Amateur Masters 40-44,F,B,Raw,,50,,1971
1,Nataliya Penkova,Ukraine,59.1,,,,,35,40,-42.5,,,,,,40,60,Amateur Masters 45-49,F,B,Raw,,40,,1965
1,Oksana Muzyka,Ukraine,65.3,,,,,62.5,-67.5,67.5,,,,,,67.5,67.5,Amateur Masters 45-49,F,B,Raw,,67.5,,1969
1,Oleg Mykhalskyy,Ukraine,30.8,,,,,25,-30,-35,,,,,,25,44,Pro Sub-Teen 11-12,M,B,Raw,,25,,2004
1,Aleksandr Scherbakov,Transnistria,48.4,,,,,35,40,-45,,,,,,40,52,Pro Sub-Teen 11-12,M,B,Raw,,40,,2003
1,Vladyslav Bondarenko,Ukraine,51.2,,,,,75,80,82.5,,,,,,82.5,52,Pro Teen 13-15,M,B,Raw,,82.5,,1999
1,Dmytro Bodrov,Ukraine,61.2,,,,,50,55,-60,,,,,,55,67.5,Pro Teen 13-15,M,B,Raw,,55,,2000
1,Hubert Jakubiuk,Poland,67.5,,,,,127.5,-132.5,132.5,,,,,,132.5,67.5,Pro Teen 16-17,M,B,Raw,,132.5,,1997
1,Michał Stasiak,Poland,72.5,,,,,102.5,107.5,110,,,,,,110,75,Pro Teen 16-17,M,B,Raw,,110,,1998
1,Dmytro Pasichnyk,Ukraine,85,,,,,-90,90,97.5,,,,,,97.5,90,Pro Teen 16-17,M,B,Raw,,97.5,,1998
1,Vladislav Shust,Belarus,98.5,,,,,150,-159,-159,,,,,,150,100,Pro Teen 16-17,M,B,Raw,,150,,1998
1,Bartosz Szaran,Poland,103,,,,,130,135,140,,,,,,140,110,Pro Teen 16-17,M,B,Raw,,140,,1997
1,Adam Kopka,Poland,125,,,,,90,100,-105,,,,,,100,125,Pro Teen 16-17,M,B,Raw,,100,,1998
1,Vitaliy Galyant,Ukraine,72.7,,,,,100,105,-107.5,,,,,,105,75,Pro Teen 18-19,M,B,Raw,,105,,1996
1,Vladyslav Lytvyn,Ukraine,82.7,,,,,140,-150,-150,,,,,,140,90,Pro Teen 18-19,M,B,Raw,,140,,
1,Dawid Ziółkowski,Poland,90.7,,,,,-150,-150,150,,,,,,150,100,Pro Teen 18-19,M,B,Raw,,150,,1996
1,Michał Janusz,Poland,118.1,,,,,155,162.5,167.5,,,,,,167.5,125,Pro Teen 18-19,M,B,Raw,,167.5,,1995
1,Mateusz Powała,Poland,66.9,,,,,127.5,132.5,135,,,,,,135,67.5,Pro Juniors 20-23,M,B,Raw,,135,,1991
DQ,Mateusz Kaczmarek,Poland,67.5,,,,,-120,-125,-125,,,,,,,67.5,Pro Juniors 20-23,M,B,Raw,,,,1993
1,Paweł Nowak,Poland,72.2,,,,,150,160,-165,,,,,,160,75,Pro Juniors 20-23,M,B,Raw,,160,,1993
1,Jarosław Buczko,Poland,81.6,,,,,170,180,190,,,,,,190,82.5,Pro Juniors 20-23,M,B,Raw,,190,,1992
2,Oleksandr Fedoriv,Ukraine,81.4,,,,,130,-135,135,,,,,,135,82.5,Pro Juniors 20-23,M,B,Raw,,135,,1993
1,Andriy Polischuk,Ukraine,86.2,,,,,155,-162.5,-162.5,,,,,,155,90,Pro Juniors 20-23,M,B,Raw,,155,,1993
1,Nikita Nizhnik,Belarus,104.4,,,,,205,-212.5,-212.5,,,,,,205,110,Pro Juniors 20-23,M,B,Raw,,205,,1992
2,Maciej Stępniak,Poland,108.3,,,,,175,-190,190,,,,,,190,110,Pro Juniors 20-23,M,B,Raw,,190,,1991
3,Dariusz Lis,Poland,104.9,,,,,170,177.5,-187.5,,,,,,177.5,110,Pro Juniors 20-23,M,B,Raw,,177.5,,1993
1,Andrey Petruk,Transnistria,132.3,,,,,210,222.5,-232.5,,,,,,222.5,140,Pro Juniors 20-23,M,B,Raw,,222.5,,1993
1,Nándor Tunkel,Hungary,44.9,,,,,127.5,132.5,137.5,140,,,,,137.5,48,Pro Open,M,B,Raw,,137.5,,1988
1,Dominik Skrzyňski,Poland,67.1,,,,,185,-195,-195,,,,,,185,67.5,Pro Open,M,B,Raw,,185,,1975
2,Mateusz Powała,Poland,66.9,,,,,127.5,132.5,135,,,,,,135,67.5,Pro Open,M,B,Raw,,135,,1991
1,Roman Eremashvili,Belarus,70.1,,,,,215,225,227.5,,,,,,227.5,75,Pro Open,M,B,Raw,,227.5,,1981
2,Marcin Garbas,Poland,73.5,,,,,175,180,190,,,,,,190,75,Pro Open,M,B,Raw,,190,,1985
3,Roman Śliż,Poland,75,,,,,135,140,-142.5,,,,,,140,75,Pro Open,M,B,Raw,,140,,1980
1,Vitaliy Porimon,Belarus,82.3,,,,,210,215,-220,,,,,,215,82.5,Pro Open,M,B,Raw,,215,,1986
2,Robert Wrzawiński,Poland,82.2,,,,,205,212.5,-217.5,,,,,,212.5,82.5,Pro Open,M,B,Raw,,212.5,,1982
3,Mateusz Pawelak,Poland,82.3,,,,,180,195,197.5,,,,,,197.5,82.5,Pro Open,M,B,Raw,,197.5,,1990
4,Volodymyr Galyga,Ukraine,82.5,,,,,185,192.5,-197.5,,,,,,192.5,82.5,Pro Open,M,B,Raw,,192.5,,1983
5,Tomasz Miloch,Poland,79.9,,,,,120,130,135,,,,,,135,82.5,Pro Open,M,B,Raw,,135,,1983
1,Aleksandr Scherbakov,Transnistria,89.7,,,,,210,215,217.5,,,,,,217.5,90,Pro Open,M,B,Raw,,217.5,,1966
2,Patryk Szypuła,Poland,89,,,,,205,210,215,,,,,,215,90,Pro Open,M,B,Raw,,215,,1979
3,Roman Tsauk,Ukraine,90,,,,,200,210,-215,,,,,,210,90,Pro Open,M,B,Raw,,210,,1983
4,Kostiantyn Grabovskyi,Ukraine,89,,,,,190,200,-210,,,,,,200,90,Pro Open,M,B,Raw,,200,,1976
5,Dmitriy Yanevich,Belarus,88.8,,,,,192.5,-200,-200,,,,,,192.5,90,Pro Open,M,B,Raw,,192.5,,1974
6,Vyacheslav Perekhrest,Ukraine,89.7,,,,,180,185,-190,,,,,,185,90,Pro Open,M,B,Raw,,185,,1984
7,Siarhei Khamitsevich,Belarus,89.7,,,,,180,-190,-197.5,,,,,,180,90,Pro Open,M,B,Raw,,180,,1987
1,Oleg Bazilevich,Ukraine,99.3,,,,,225,235,247.5,,,,,,247.5,100,Pro Open,M,B,Raw,,247.5,,1982
2,Hovhannes Yazichyan,Armenia,97,,,,,205,210,217.5,-220,,,,,217.5,100,Pro Open,M,B,Raw,,217.5,,1971
3,Eugene Aleksienko,Ukraine,93.9,,,,,-210,215,-220,,,,,,215,100,Pro Open,M,B,Raw,,215,,1976
4,Andrzej Kocyła,Poland,99.6,,,,,212.5,-217.5,-220,,,,,,212.5,100,Pro Open,M,B,Raw,,212.5,,1976
5,Oleksandr Karnaukh,Ukraine,98.9,,,,,190,-200,-200,,,,,,190,100,Pro Open,M,B,Raw,,190,,1980
1,Dmytro Gak,Ukraine,100.4,,,,,215,-220,-220,,,,,,215,110,Pro Open,M,B,Raw,,215,,1983
2,Oleg Palamarchuk,Ukraine,109.8,,,,,210,215,-217.5,,,,,,215,110,Pro Open,M,B,Raw,,215,,1972
3,Andrzej Grzybek,Poland,108.3,,,,,197.5,202.5,212.5,,,,,,212.5,110,Pro Open,M,B,Raw,,212.5,,1983
4,Krzysztof Celiński,Poland,104.9,,,,,197.5,205,-210,,,,,,205,110,Pro Open,M,B,Raw,,205,,1985
5,Igor Vinyarskyy,Ukraine,101.2,,,,,180,-190,-190,,,,,,180,110,Pro Open,M,B,Raw,,180,,1983
6,Mykola Krasovskyy,Ukraine,105.7,,,,,-160,167.5,-170,,,,,,167.5,110,Pro Open,M,B,Raw,,167.5,,1989
1,Georgi Beroshvili,Georgia,118.1,,,,,270,287.5,297.5,,,,,,297.5,125,Pro Open,M,B,Raw,,297.5,,1984
2,Dawid Marian,Poland,120,,,,,220,235,-250,,,,,,235,125,Pro Open,M,B,Raw,,235,,1989
3,Łukasz Kuzioła,Poland,124,,,,,-215,215,225,,,,,,225,125,Pro Open,M,B,Raw,,225,,1983
4,Mykola Prezhyn,Ukraine,116,,,,,195,205,-215,,,,,,205,125,Pro Open,M,B,Raw,,205,,1981
1,Bartosz Chałaj,Poland,133.2,,,,,235,240,-245,,,,,,240,140,Pro Open,M,B,Raw,,240,,1987
2,Konrad Fornalczyk,Poland,126.2,,,,,230,-235,-240,,,,,,230,140,Pro Open,M,B,Raw,,230,,1985
3,Artur Kiczuk,Poland,131.5,,,,,205,212.5,-232.5,,,,,,212.5,140,Pro Open,M,B,Raw,,212.5,,1978
4,Zbigniew Drewniak,Poland,136.8,,,,,190,200,205,,,,,,205,140,Pro Open,M,B,Raw,,205,,1973
5,Oleksandr Krylov,Ukraine,127,,,,,165,172.5,175,,,,,,175,140,Pro Open,M,B,Raw,,175,,1974
1,Tomasz Andrzejczak,Poland,146,,,,,205,212.5,-220,,,,,,212.5,155,Pro Open,M,B,Raw,,212.5,,1978
2,Jerzy Kot,Poland,150.3,,,,,170,180,186,-187,,,,,186,155,Pro Open,M,B,Raw,,186,,1968
3,Tomasz Węgliński,Poland,141.5,,,,,-150,-150,150,,,,,,150,155,Pro Open,M,B,Raw,,150,,1978
1,Dominik Ozdobiński,Poland,168.7,,,,,140,150,160,,,,,,160,155+,Pro Open,M,B,Raw,,160,,1987
1,Dominik Skrzyňski,Poland,67.1,,,,,185,-195,-195,,,,,,185,67.5,Pro Submasters 33-39,M,B,Raw,,185,,1975
1,Roman Śliż,Poland,75,,,,,135,140,-142.5,,,,,,140,75,Pro Submasters 33-39,M,B,Raw,,140,,1980
2,Radosław Rosiak,UK,73.9,,,,,120,125,127.5,,,,,,127.5,75,Pro Submasters 33-39,M,B,Raw,,127.5,,1980
1,Kamil Filipek,Poland,82.3,,,,,170,-195,195,,,,,,195,82.5,Pro Submasters 33-39,M,B,Raw,,195,,1980
1,Patryk Szypuła,Poland,89,,,,,205,210,215,,,,,,215,90,Pro Submasters 33-39,M,B,Raw,,215,,1979
2,Marcin Blaszkow,Poland,90,,,,,200,205,-215,,,,,,205,90,Pro Submasters 33-39,M,B,Raw,,205,,1980
3,Kostiantyn Grabovskyi,Ukraine,89,,,,,190,200,-210,,,,,,200,90,Pro Submasters 33-39,M,B,Raw,,200,,1976
4,Robert Kanclerz,Poland,89.9,,,,,185,-190,-190,,,,,,185,90,Pro Submasters 33-39,M,B,Raw,,185,,1978
1,Paweł Tyborczyk,Poland,92.7,,,,,210,215,220,,,,,,220,100,Pro Submasters 33-39,M,B,Raw,,220,,1979
2,Eugene Aleksienko,Ukraine,93.9,,,,,-210,215,-220,,,,,,215,100,Pro Submasters 33-39,M,B,Raw,,215,,1976
3,Arkadiusz Macudziński,Poland,94.7,,,,,-185,185,195,,,,,,195,100,Pro Submasters 33-39,M,B,Raw,,195,,1980
4,Sergiy Faktulin,Ukraine,95.7,,,,,-185,190,-197.5,,,,,,190,100,Pro Submasters 33-39,M,B,Raw,,190,,1982
1,Artur Jóżwiak,Poland,107.7,,,,,200,-205,205,,,,,,205,110,Pro Submasters 33-39,M,B,Raw,,205,,1978
2,Konstiantyn Mykhaylenko,Ukraine,102.9,,,,,177.5,-185,185,,,,,,185,110,Pro Submasters 33-39,M,B,Raw,,185,,1980
3,Andriy Bodrov,Ukraine,109.3,,,,,137.5,-145,145,,,,,,145,110,Pro Submasters 33-39,M,B,Raw,,145,,1975
1,Mikloš Mihajlović,Serbia,120.6,,,,,210,215,220,,,,,,220,125,Pro Submasters 33-39,M,B,Raw,,220,,1975
2,Mykola Prezhyn,Ukraine,116,,,,,195,205,-215,,,,,,205,125,Pro Submasters 33-39,M,B,Raw,,205,,1981
3,Paweł Krakowiak,Poland,112.2,,,,,185,195,-205,,,,,,195,125,Pro Submasters 33-39,M,B,Raw,,195,,1978
1,Artur Kiczuk,Poland,131.5,,,,,205,212.5,-232.5,,,,,,212.5,140,Pro Submasters 33-39,M,B,Raw,,212.5,,1978
1,Tomasz Andrzejczak,Poland,146,,,,,205,212.5,-220,,,,,,212.5,155,Pro Submasters 33-39,M,B,Raw,,212.5,,1978
2,Tomasz Węgliński,Poland,141.5,,,,,-150,-150,150,,,,,,150,155,Pro Submasters 33-39,M,B,Raw,,150,,1978
1,Oleksandr Zhariy,Ukraine,60.6,,,,,117.5,122.5,125,,,,,,125,67.5,Pro Masters 40-44,M,B,Raw,,125,,1972
1,Bogdan Kropidłowski,Poland,74.4,,,,,165,175,180,185,,,,,180,75,Pro Masters 40-44,M,B,Raw,,180,,1971
1,Rostyslav Bondarenko,Ukraine,82.5,,,,,170,180,185,,,,,,185,82.5,Pro Masters 40-44,M,B,Raw,,185,,1972
2,Daniel Cieplak,Poland,82.4,,,,,155,162.5,167.5,,,,,,167.5,82.5,Pro Masters 40-44,M,B,Raw,,167.5,,1973
1,Dmitriy Yanevich,Belarus,88.8,,,,,192.5,-200,-200,,,,,,192.5,90,Pro Masters 40-44,M,B,Raw,,192.5,,1974
2,Vadym Chekhanyuk,Ukraine,89.8,,,,,160,170,-175,,,,,,170,90,Pro Masters 40-44,M,B,Raw,,170,,1970
1,Hovhannes Yazichyan,Armenia,97,,,,,205,210,217.5,-220,,,,,217.5,100,Pro Masters 40-44,M,B,Raw,,217.5,,1971
2,Oleksandr Ploskyy,Ukraine,93.2,,,,,150,157.5,-162.5,,,,,,157.5,100,Pro Masters 40-44,M,B,Raw,,157.5,,1974
1,Oleg Palamarchuk,Ukraine,109.8,,,,,210,215,-217.5,,,,,,215,110,Pro Masters 40-44,M,B,Raw,,215,,1972
2,Sebastjan Balner,Poland,105.2,,,,,180,190,200,,,,,,200,110,Pro Masters 40-44,M,B,Raw,,200,,1973
3,Eugene Krylov,Ukraine,108.3,,,,,180,200,-210,,,,,,200,110,Pro Masters 40-44,M,B,Raw,,200,,1971
4,Endre Jánkó,Hungary,109.5,,,,,180,-190,-202.5,,,,,,180,110,Pro Masters 40-44,M,B,Raw,,180,,1971
1,Aleksey Tarasenko,Russia,119.2,,,,,222.5,230,-235,,,,,,230,125,Pro Masters 40-44,M,B,Raw,,230,,1971
2,Krzystof Chowaniak,Poland,112.9,,,,,190,200,-205,,,,,,200,125,Pro Masters 40-44,M,B,Raw,,200,,1973
3,Radosław Chmielecki,Poland,111.2,,,,,140,145,-150,,,,,,145,125,Pro Masters 40-44,M,B,Raw,,145,,1973
1,Zbigniew Drewniak,Poland,136.8,,,,,190,200,205,,,,,,205,140,Pro Masters 40-44,M,B,Raw,,205,,1973
2,Oleksandr Krylov,Ukraine,127,,,,,165,172.5,175,,,,,,175,140,Pro Masters 40-44,M,B,Raw,,175,,1974
3,Mikhaylo Pitinov,Ukraine,126.8,,,,,150,160,165,,,,,,165,140,Pro Masters 40-44,M,B,Raw,,165,,1971
1,Viktor Kochmar,Ukraine,143,,,,,200,210,220,,,,,,220,155,Pro Masters 40-44,M,B,Raw,,220,,1970
1,Ozor Szabó,Hungary,170,,,,,185,195,200,,,,,,200,155+,Pro Masters 40-44,M,B,Raw,,200,,1972
1,Igor Chumak,Ukraine,74.7,,,,,110,117.5,-120,,,,,,117.5,75,Pro Masters 45-49,M,B,Raw,,117.5,,1965
1,Aleksandr Scherbakov,Transnistria,89.7,,,,,210,215,217.5,,,,,,217.5,90,Pro Masters 45-49,M,B,Raw,,217.5,,1966
1,Sergiy Pilyaev,Ukraine,96.3,,,,,190,200,-210,,,,,,200,100,Pro Masters 45-49,M,B,Raw,,200,,1969
1,Vitaliy Beloborodov,Transnistria,107.1,,,,,-170,175,-180,,,,,,175,110,Pro Masters 45-49,M,B,Raw,,175,,1968
1,Pavlo Kipnyak,Ukraine,112.7,,,,,160,170,175,,,,,,175,125,Pro Masters 45-49,M,B,Raw,,175,,1969
2,Andriy Gimbarov,Ukraine,110.1,,,,,160,165,170,,,,,,170,125,Pro Masters 45-49,M,B,Raw,,170,,1966
1,Oleksandr Kalkutin,Ukraine,129.6,,,,,-100,-100,100,,,,,,100,140,Pro Masters 45-49,M,B,Raw,,100,,1965
1,Jerzy Kot,Poland,150.3,,,,,170,180,186,-187,,,,,186,155,Pro Masters 45-49,M,B,Raw,,186,,1968
1,Yuriy Osadchenko,Ukraine,86.3,,,,,155,165,-170,,,,,,165,90,Pro Masters 50-54,M,B,Raw,,165,,1961
1,Mykhaylo Geenko,Ukraine,109.8,,,,,165,175,-180,,,,,,175,110,Pro Masters 50-54,M,B,Raw,,175,,1963
1,Eugene Kurudimov,Ukraine,100,,,,,120,130,140,,,,,,140,100,Pro Masters 55-59,M,B,Raw,,140,,1956
1,Ryszard Wilczak,Poland,108.4,,,,,155,160,162,163,,,,,162,110,Pro Masters 55-59,M,B,Raw,,162,,1955
1,Antoni Kaliňski,Poland,67.4,,,,,105,112.5,-115,,,,,,112.5,67.5,Pro Masters 60-64,M,B,Raw,,112.5,,1953
1,Viktor Papushoy,Russia,73.3,,,,,140,150,-152.5,,,,,,150,75,Pro Masters 60-64,M,B,Raw,,150,,1953
1,Valeriy Kolyadyuk,Ukraine,102,,,,,-145,145,150,,,,,,150,110,Pro Masters 65-69,M,B,Raw,,150,,1949
2,Henryk Odelski,Poland,106.3,,,,,130,140,-150,,,,,,140,110,Pro Masters 65-69,M,B,Raw,,140,,1949
1,Igor Zubarev,Ukraine,73,,,,,30,-35,37.5,,,,,,37.5,75,Pro Masters 70-74,M,B,Raw,,37.5,,1941
1,Miroslaw Orłowski,Poland,99.2,,,,,130,-135,-155,,,,,,130,100,Pro Masters 70-74,M,B,Raw,,130,,1943
1,Vyacheslav Tsyganok,Ukraine,100.1,,,,,80,90,-100,,,,,,90,110,Pro Masters 75-79,M,B,Raw,,90,,1938
1,Kostiantyn Grabovskyi,Ukraine,89,,,,,190,200,-210,,,,,,200,90,Pro Military/Fire/Police,M,B,Raw,,200,,1976
1,Oleksandr Ploskyy,Ukraine,93.2,,,,,150,157.5,-162.5,,,,,,157.5,100,Pro Military/Fire/Police,M,B,Raw,,157.5,,1974
1,Iryna Stoetska,Ukraine,50.4,,,,,45,50,-55,,,,,,50,52,Pro Juniors 20-23,F,B,Raw,,50,,1991
1,Anna Andrzejewska,Poland,60.7,,,,,50,-55,-55,,,,,,50,67.5,Pro Juniors 20-23,F,B,Raw,,50,,1992
2,Yuliya Kutsareva,Ukraine,61.2,,,,,40,50,-55,,,,,,50,67.5,Pro Juniors 20-23,F,B,Raw,,50,,1991
1,Alvina Gandziy,Ukraine,73.3,,,,,47.5,50,55,,,,,,55,75,Pro Juniors 20-23,F,B,Raw,,55,,1994
1,Bettina Razzouki-Korkis,Poland,53.4,,,,,57.5,62.5,65,-67.5,,,,,65,56,Pro Open,F,B,Raw,,65,,1965
1,Koralewska Halas,Poland,58.2,,,,,107.5,112.5,117.5,,,,,,117.5,60,Pro Open,F,B,Raw,,117.5,,1987
2,Yulia Shenkarenko,Ukraine,60,,,,,90,100,105,,,,,,105,60,Pro Open,F,B,Raw,,105,,1986
4,Olena Scherbinina,Ukraine,59.4,,,,,55,-60,60,,,,,,60,60,Pro Open,F,B,Raw,,60,,1982
5,Olga Grabovska,Ukraine,58,,,,,45,47.5,,,,,,,47.5,60,Pro Open,F,B,Raw,,47.5,,1976
1,Honorata Kaczorowska,Poland,62.3,,,,,90,97.5,-110,,,,,,97.5,67.5,Pro Open,F,B,Raw,,97.5,,1985
2,Marta Chachuła,Poland,67,,,,,70,75,77.5,,,,,,77.5,67.5,Pro Open,F,B,Raw,,77.5,,1987
3,Anna Paluszik,Poland,64.1,,,,,67.5,-72.5,-72.5,,,,,,67.5,67.5,Pro Open,F,B,Raw,,67.5,,1990
1,Katalin Mezei,Hungary,51.2,,,,,50,-60,60,,,,,,60,52,Pro Submasters 33-39,F,B,Raw,,60,,1979
1,Tetyana Mednyk,Ukraine,59.5,,,,,-40,45,50,,,,,,50,60,Pro Submasters 33-39,F,B,Raw,,50,,1979
2,Olga Grabovska,Ukraine,58,,,,,45,47.5,,,,,,,47.5,60,Pro Submasters 33-39,F,B,Raw,,47.5,,1976
1,Bettina Razzouki-Korkis,Poland,53.4,,,,,57.5,62.5,65,-67.5,,,,,65,56,Pro Masters 45-49,F,B,Raw,,65,,1965
1,Maria Jarczak,Poland,74.6,,,,,70,77.5,80,-82.5,,,,,80,75,Pro Masters 45-49,F,B,Raw,,80,,1966
1,Mariya Dovgay,Ukraine,59.3,,,,,65,70,75,,,,,,75,60,Pro Masters 50-54,F,B,Raw,,75,,1963
1,Olga Grabovska,Ukraine,58,,,,,45,47.5,,,,,,,47.5,60,Pro Military/Fire/Police,F,B,Raw,,47.5,,1976
1,Oleksiy Rubinov,Ukraine,73,,,,,145,-155,-155,,,,,,145,75,Amateur Juniors 20-23,M,B,Multi-ply,,145,,1992
1,Mykyta Kolomyza,Ukraine,88.3,,,,,165,-177.5,-177.5,,,,,,165,90,Amateur Juniors 20-23,M,B,Multi-ply,,165,,1994
1,Volodymyr Tsurko,Ukraine,98.9,,,,,-180,-180,180,,,,,,180,100,Amateur Juniors 20-23,M,B,Multi-ply,,180,,1993
1,Andriy Dyatlov,Ukraine,82.2,,,,,190,200,-210,,,,,,200,82.5,Amateur Open,M,B,Multi-ply,,200,,1985
1,Volodymyr Mygas,Ukraine,89.4,,,,,210,220,-230,,,,,,220,90,Amateur Open,M,B,Multi-ply,,220,,1975
2,Irakli Tskhovrebashvili,Georgia,85.7,,,,,-180,180,-200,,,,,,180,90,Amateur Open,M,B,Multi-ply,,180,,1981
3,Feliks Kolesnichenko,Ukraine,88.4,,,,,-160,-160,160,,,,,,160,90,Amateur Open,M,B,Multi-ply,,160,,1990
1,Sergiy Andrienko,Ukraine,91.4,,,,,140,150,160,,,,,,160,100,Amateur Open,M,B,Multi-ply,,160,,1982
1,Viktor Bozhukha,Ukraine,107,,,,,160,175,185,,,,,,185,110,Amateur Open,M,B,Multi-ply,,185,,1978
2,Pavlo Mischuk,Ukraine,104.9,,,,,150,,,,,,,,150,110,Amateur Open,M,B,Multi-ply,,150,,1998
3,Amirani Doghonadze,Georgia,104,,,,,125,135,,,,,,,135,110,Amateur Open,M,B,Multi-ply,,135,,1981
1,Oleksandr Shvab,Ukraine,126,,,,,180,,,,,,,,180,140,Amateur Open,M,B,Multi-ply,,180,,1976
1,Volodymyr Mygas,Ukraine,89.4,,,,,210,220,-230,,,,,,220,90,Amateur Submasters 33-39,M,B,Multi-ply,,220,,1975
2,Irakli Tskhovrebashvili,Georgia,85.7,,,,,-180,180,-200,,,,,,180,90,Amateur Submasters 33-39,M,B,Multi-ply,,180,,1981
1,Viktor Bozhukha,Ukraine,107,,,,,160,175,185,,,,,,185,110,Amateur Submasters 33-39,M,B,Multi-ply,,185,,1978
1,Oleksandr Shvab,Ukraine,126,,,,,180,,,,,,,,180,140,Amateur Submasters 33-39,M,B,Multi-ply,,180,,1976
1,Sergiy Kolesnyk,Ukraine,99.7,,,,,155,170,185,,,,,,185,100,Amateur Masters 50-54,M,B,Multi-ply,,185,,1963
1,Vladyslav Bondarenko,Ukraine,51.2,,,,,90,95,,,,,,,95,52,Pro Teen 13-15,M,B,Multi-ply,,95,,1999
1,Yuriy Dibrivka,Ukraine,70.4,,,,,95,-105,-105,,,,,,95,75,Pro Teen 16-17,M,B,Multi-ply,,95,,1998
1,Vladyslav Tyschenko,Ukraine,75.5,,,,,110,115,-130,,,,,,115,82.5,Pro Teen 18-19,M,B,Multi-ply,,115,,1995
1,Tomasz Wawrzyczek,Poland,89.3,,,,,190,-200,-210,,,,,,190,90,Pro Teen 18-19,M,B,Multi-ply,,190,,1996
1,Gennadiy Popov,Ukraine,94.6,,,,,200,220,-230,,,,,,220,100,Pro Juniors 20-23,M,B,Multi-ply,,220,,1994
1,Roman Pelukh,Ukraine,74.9,,,,,220,227.5,232.5,,,,,,232.5,75,Pro Open,M,B,Multi-ply,,232.5,,1985
2,Nikolay Bletko,Belarus,73.6,,,,,215,225,230,,,,,,230,75,Pro Open,M,B,Multi-ply,,230,,1990
1,Arkadiy Shalokha,Ukraine,78,,,,,255,-265,-270,,,,,,255,82.5,Pro Open,M,B,Single-ply,,255,,1983
1,Volodymyr Galyga,Ukraine,83,,,,,240,-250,250,,,,,,250,90,Pro Open,M,B,Multi-ply,,250,,1983
2,Efym Stepatskyy,Ukraine,89.7,,,,,210,-225,-225,,,,,,210,90,Pro Open,M,B,Multi-ply,,210,,1987
1,Maksym Kaydan,Ukraine,98,,,,,-250,250,-275,,,,,,250,100,Pro Open,M,B,Multi-ply,,250,,1985
2,Franciszek Szabluk,Poland,94,,,,,225,-235,-235,,,,,,225,100,Pro Open,M,B,Multi-ply,,225,,1956
1,Sergiy Ivanov,Ukraine,108.2,,,,,-320,320,330,,,,,,330,110,Pro Open,M,B,Multi-ply,,330,,1990
2,Aleksandr Makey,Belarus,109.3,,,,,265,-275,275,,,,,,275,110,Pro Open,M,B,Multi-ply,,275,,1964
DQ,Grzegorz Wałga,Poland,114.2,,,,,-330,-330,-330,,,,,,,125,Pro Open,M,B,Single-ply,,,,1987
1,Tomasz Andrzejczak,Poland,146,,,,,240,-260,270,307,,,,,270,155,Pro Open,M,B,Multi-ply,,270,,1978
1,Andriy Bodrov,Ukraine,109.3,,,,,155,-160,160,,,,,,160,110,Pro Submasters 33-39,M,B,Multi-ply,,160,,1975
1,Tomasz Andrzejczak,Poland,146,,,,,240,-260,270,307,,,,,270,155,Pro Submasters 33-39,M,B,Multi-ply,,270,,1978
1,Daniel Cieplak,Poland,82.4,,,,,-215,-215,215,,,,,,215,82.5,Pro Masters 40-44,M,B,Multi-ply,,215,,1973
2,Rostyslav Bondarenko,Ukraine,82.5,,,,,215,-230,-230,,,,,,215,82.5,Pro Masters 40-44,M,B,Multi-ply,,215,,1972
1,Endre Jánkó,Hungary,109.5,,,,,240,-250,255,,,,,,255,110,Pro Masters 40-44,M,B,Multi-ply,,255,,1971
2,Sebastjan Balner,Poland,105.2,,,,,220,240,-250,,,,,,240,110,Pro Masters 40-44,M,B,Multi-ply,,240,,1973
1,Radosław Chmielecki,Poland,111.2,,,,,-160,160,-180,,,,,,160,125,Pro Masters 40-44,M,B,Multi-ply,,160,,1973
1,Valentin Petrovskii,Belarus,97.3,,,,,170,180,-190,,,,,,180,100,Pro Masters 45-49,M,B,Multi-ply,,180,,1967
1,Yuriy Malygin,Ukraine,106.3,,,,,110,160,-170,,,,,,160,110,Pro Masters 45-49,M,B,Multi-ply,,160,,1967
1,Andriy Gimbarov,Ukraine,110.1,,,,,190,200,-210,,,,,,200,125,Pro Masters 45-49,M,B,Multi-ply,,200,,1966
1,Aleksandr Makey,Belarus,109.3,,,,,265,-275,275,,,,,,275,110,Pro Masters 50-54,M,B,Multi-ply,,275,,1964
2,Oleg Pivovarov,Russia,107.5,,,,,210,-220,220,,,,,,220,110,Pro Masters 50-54,M,B,Multi-ply,,220,,1963
1,Franciszek Szabluk,Poland,94,,,,,225,-235,-235,,,,,,225,100,Pro Masters 55-59,M,B,Multi-ply,,225,,1956
1,Genadiy Vasyliev,Ukraine,67.3,,,,,90,95,100,,,,,,100,67.5,Pro Masters 60-64,M,B,Multi-ply,,100,,1952
1,Miroslaw Orłowski,Poland,99.2,,,,,155,160,-170,,,,,,160,100,Pro Masters 70-74,M,B,Multi-ply,,160,,1943
