Place,Name,CyrillicName,BirthYear,Sex,WeightClassKg,BodyweightKg,Bench1Kg,Bench2Kg,Bench3Kg,Best3BenchKg,TotalKg,Event,Equipment,Division
1,Olga Golubeva,Ольга Голубева,1970,F,48,47.9,90,95,97.5,97.5,97.5,B,Single-ply,Open
2,Karina Simonyants,Карина Симонянц,1977,F,48,47.2,85,90,92.5,92.5,92.5,B,Single-ply,Open
3,Oksana Ryzhenko,Оксана Рыженко,1975,F,48,44.75,85,90,-95,90,90,B,Single-ply,Open
4,Anastasya Strufa,Анастасия Струфа,1986,F,48,44.8,75,80,82.5,82.5,82.5,B,Single-ply,Open
5,Anna Eliseeva,Анна Елисеева,1988,F,48,47.1,-52.5,55,65,65,65,B,Single-ply,Open
1,Ekaterina Osipova,Екатерина Осипова,1991,F,52,51.9,90,95,-105,95,95,B,Single-ply,Open
2,Anzhela Rodygina,Анжела Родыгина,1970,F,52,50.2,87.5,92.5,-100,92.5,92.5,B,Single-ply,Open
3,Marina Nikiforova,Марина Никифорова,1983,F,52,50.75,-75,77.5,82.5,82.5,82.5,B,Single-ply,Open
4,Olga Kushnir,Ольга Кушнир,1980,F,52,51.4,-70,70,-80,70,70,B,Single-ply,Open
DQ,Elena Vorobeva,Елена Воробьева,1978,F,52,49.95,-65,-65,-65,,,B,Single-ply,Open
1,Larisa Kotkova,Лариса Коткова,1974,F,56,54.5,125,130,132.5,132.5,132.5,B,Single-ply,Open
2,Evgeniya Petrova,Евгения Петрова,1982,F,56,55.65,87.5,92.5,95,95,95,B,Single-ply,Open
3,Olga Kabanova,Ольга Кабанова,1978,F,56,55.95,-95,-95,95,95,95,B,Single-ply,Open
4,Marina Dubenskaya,Марина Дубенская,1988,F,56,55.75,92.5,-95,-95,92.5,92.5,B,Single-ply,Open
1,Irina Poletaeva,Ирина Полетаева,1982,F,60,59.6,145,150,155,155,155,B,Single-ply,Open
2,Tatyana Eltsova,Татьяна Ельцова,1978,F,60,59.95,125,130,140,140,140,B,Single-ply,Open
3,Anastasia Lorents,Анастасия Лоренц,1985,F,60,59,-122.5,122.5,127.5,127.5,127.5,B,Single-ply,Open
4,Natalya Igosheva,Наталья Игошева,1982,F,60,59.85,122.5,-127.5,127.5,127.5,127.5,B,Single-ply,Open
5,Elena Kruglova,Елена Круглова,1983,F,60,59,-90,-90,90,90,90,B,Single-ply,Open
1,Valentina Nelyubova,Валентина Нелюбова,1966,F,67.5,64.5,130,135,-140,135,135,B,Single-ply,Open
2,Natalya Samarina,Наталья Самарина,1983,F,67.5,65.4,127.5,-132.5,-137.5,127.5,127.5,B,Single-ply,Open
3,Elena Bukina,Елена Букина,1971,F,67.5,66.2,110,115,120,120,120,B,Single-ply,Open
4,Viktoriya Poltoratskaya,Виктория Полторацкая,1981,F,67.5,66.85,92.5,97.5,,97.5,97.5,B,Single-ply,Open
5,Oksana Vlasova,Оксана Власова,1989,F,67.5,64.6,70,75,77.5,77.5,77.5,B,Single-ply,Open
6,Elena Guseva,Елена Гусева,1987,F,67.5,62.6,65,-70,-72.5,65,65,B,Single-ply,Open
DQ,Kseniya Petrova,Ксения Петрова,1981,F,67.5,66.55,-125,-125,-125,,,B,Single-ply,Open
1,Galina Potselueva,Галина Поцелуева,1980,F,75,69.05,150,157.5,168.5,168.5,168.5,B,Single-ply,Open
2,Elena Sheverdina,Елена Шевердина,1968,F,75,71.55,-135,135,137.5,137.5,137.5,B,Single-ply,Open
3,Yuliya Erogova,Юлия Ерогова,1982,F,75,73.55,125,130,-137.5,130,130,B,Single-ply,Open
4,Svetlana Tsvetkova,Светлана Цветкова,1980,F,75,72.6,125,-127.5,127.5,127.5,127.5,B,Single-ply,Open
5,Lyudmila Chechulina,Людмила Чечулина,1984,F,75,71.2,92.5,100,-105,100,100,B,Single-ply,Open
6,Evgeniya Boldakova,Евгения Болдакова,1988,F,75,73.85,85,92.5,-102.5,92.5,92.5,B,Single-ply,Open
1,Svetlana Dedyulya,Светлана Дедюля,1975,F,82.5,82.1,160,-170,180,180,180,B,Single-ply,Open
2,Evgeniya Shabanova,Евгения Шабанова,1977,F,82.5,81.6,130,142.5,-147.5,142.5,142.5,B,Single-ply,Open
3,Olga Pantina,Ольга Пантина,1979,F,82.5,75.1,-140,140,-145,140,140,B,Single-ply,Open
4,Nataliya Savinykh,Наталия Савиных,1985,F,82.5,81.8,100,-110,-110,100,100,B,Single-ply,Open
5,Galina Tsukanova,Галина Цуканова,1964,F,82.5,75.05,85,90,-92.5,90,90,B,Single-ply,Open
1,Valeria Shcheglova,Валерия Щеглова,1983,F,90,89.55,170,-177.5,177.5,177.5,177.5,B,Single-ply,Open
2,Irina Naskripnyak,Ирина Наскрипняк,1969,F,90,89.5,-150,150,-170,150,150,B,Single-ply,Open
3,Tamara Nekoshnova,Тамара Некошнова,1982,F,90,88.7,115,-125,-125,115,115,B,Single-ply,Open
4,Irina Zakharova,Ирина Захарова,1989,F,90,88.05,80,85,90,90,90,B,Single-ply,Open
1,Irina Lugovaya,Ирина Луговая,1974,F,90+,113,180,190,200,200,200,B,Single-ply,Open
2,Mariya Zyryanova,Мария Зырянова,1983,F,90+,123.3,120,130,142.5,142.5,142.5,B,Single-ply,Open
3,Elena Tareecheva,Елена Тареечева,1993,F,90+,110.65,57.5,60,62.5,62.5,62.5,B,Single-ply,Open
DQ,Svetlana Kholodova,Светлана Холодова,1978,F,90+,91.15,-127.5,-135,-140,,,B,Single-ply,Open
1,Konstantin Pavlov,Константин Павлов,1973,M,56,55.45,170,180,-188.5,180,180,B,Single-ply,Open
2,Viktor Kurbatov #1,Виктор Курбатов,1978,M,56,55.9,-150,150,-155,150,150,B,Single-ply,Open
3,Vladimir Druzhinin,Владимир Дружинин,1985,M,56,56,135,-142.5,145,145,145,B,Single-ply,Open
4,Igor Kuchin,Игорь Кучин,1967,M,56,55.65,140,-150,-150,140,140,B,Single-ply,Open
5,Igor Sadovin,Игорь Садовин,1967,M,56,55.9,130,140,-145,140,140,B,Single-ply,Open
1,Sergey Krylov,Сергей Крылов,1984,M,60,59.45,170,175,-180,175,175,B,Single-ply,Open
2,Artyom Tavastsherna,Артём Тавастшерна,1985,M,60,59.9,-145,150,162.5,162.5,162.5,B,Single-ply,Open
3,Alexey Romanov,Алексей Романов,1981,M,60,59.05,150,-160,-165,150,150,B,Single-ply,Open
4,Maksim Korolyov,Максим Королёв,1987,M,60,59.55,135,-145,145,145,145,B,Single-ply,Open
DQ,Pavel Dolgov,Павел Долгов,1993,M,67.5,60.5,,,,,,B,Single-ply,Open
1,Ravil Kazakov,Равиль Казаков,1982,M,67.5,66.95,205,212.5,215,215,215,B,Single-ply,Open
2,Artyom Rubtsov,Артём Рубцов,1984,M,67.5,67.4,200,-205,205,205,205,B,Single-ply,Open
3,Nikolay Sokolov,Николай Соколов,1978,M,67.5,67.05,190,200,-207.5,200,200,B,Single-ply,Open
4,Mikhail Speranskiy,Михаил Сперанский,1976,M,67.5,66.9,-195,195,-205,195,195,B,Single-ply,Open
5,Arthur Mashinskiy,Артур Машинский,1986,M,67.5,66.7,180,190,-195,190,190,B,Single-ply,Open
6,Roman Morozov,Роман Морозов,1987,M,67.5,66.25,115,122.5,,122.5,122.5,B,Single-ply,Open
1,Sergey Knyazev,Сергей Князев,1976,M,75,74.05,220,232.5,242.5,242.5,242.5,B,Single-ply,Open
2,Aleksandr Zolov,Александр Золов,1980,M,75,74.8,220,230,235,235,235,B,Single-ply,Open
3,Valeriy Bogdanov,Валерий Богданов,1970,M,75,73.9,217.5,220,232.5,232.5,232.5,B,Single-ply,Open
4,Aleksandr Gromov,Александр Громов,1981,M,75,74.7,232.5,-240,-242.5,232.5,232.5,B,Single-ply,Open
5,Konstantin Girin,Константин Гирин,1981,M,75,74.4,200,212.5,-222.5,212.5,212.5,B,Single-ply,Open
6,Alexey Bakhirev,Алексей Бахирев,1981,M,75,74.5,-200,200,-205,200,200,B,Single-ply,Open
7,Sergey Tkachyov,Сергей Ткачёв,1981,M,75,74.4,-185,-190,190,190,190,B,Single-ply,Open
8,Dmitriy Mayorov,Дмитрий Майоров,1988,M,75,74.3,185,-190,-190,185,185,B,Single-ply,Open
9,Eduard Tebenkov,Эдуард Тебеньков,1990,M,75,73.6,170,-180,-180,170,170,B,Single-ply,Open
DQ,Evgeniy Nosach,Евгений Носач,1976,M,75,74.85,-200,-200,-200,,,B,Single-ply,Open
DQ,Mikhail Melyokhin,Михаил Мелёхин,1978,M,75,74.25,-190,-200,-200,,,B,Single-ply,Open
1,Aleksey Osokin,Алексей Осокин,1979,M,82.5,82.2,245,-257.5,257.5,257.5,257.5,B,Single-ply,Open
2,Sergey Bogdanov,Сергей Богданов,1985,M,82.5,82,-230,230,-245,230,230,B,Single-ply,Open
3,Andrey Laykhinen,Андрей Лайхинен,1983,M,82.5,82.2,215,225,230,230,230,B,Single-ply,Open
4,Aleksandr Peus,Александр Пеус,1984,M,82.5,81.05,-210,-215,215,215,215,B,Single-ply,Open
5,Denis Stolboushkin,Денис Столбоушкин,1986,M,82.5,81.85,212.5,-220,-220,212.5,212.5,B,Single-ply,Open
DQ,Artyom Korotygin,Артём Коротыгин,1980,M,82.5,81.35,-235,-235,-245,,,B,Single-ply,Open
6,Aleksandr Ryashchikov,Александр Рящиков,1983,M,82.5,81.85,200,205,-215,205,205,B,Single-ply,Open
1,Vladimir Grishaev,Владимир Гришаев,1981,M,90,88.8,245,257.5,268.5,268.5,268.5,B,Single-ply,Open
2,Sergey Shekurov,Сергей Шекуров,1981,M,90,83.5,215,-225,-225,215,215,B,Single-ply,Open
3,Artyom Zaytsev #1,Артём Зайцев,1985,M,90,84.2,-180,185,192.5,192.5,192.5,B,Single-ply,Open
DQ,Oleg Timofeev,Олег Тимофеев,1976,M,90,89.55,-240,-240,-240,,,B,Single-ply,Open
1,Vladimir Volkov #1,Владимир Волков,1959,M,100,99.05,280,290,-305,290,290,B,Single-ply,Open
2,Aleksey Pavlovskiy,Алексей Павловский,1974,M,100,98.25,-270,270,-290,270,270,B,Single-ply,Open
3,Sergey Popov,Сергей Попов,1977,M,100,99.4,245,-257.5,257.5,257.5,257.5,B,Single-ply,Open
4,Sergey Noishevskiy,Сергей Ноишевский,1974,M,100,95.4,242.5,250,-260,250,250,B,Single-ply,Open
5,Pavel Berlin,Павел Берлин,1986,M,100,95.05,-240,247.5,-257.5,247.5,247.5,B,Single-ply,Open
6,Maksim Pestryakov,Максим Пестряков,1987,M,100,98.75,230,237.5,247.5,247.5,247.5,B,Single-ply,Open
7,Ivan Solovyov,Иван Соловьёв,1984,M,100,97.35,-240,-240,245,245,245,B,Single-ply,Open
8,Vladislav Kobelev,Владислав Кобелев,1968,M,100,98.95,225,235,-245,235,235,B,Single-ply,Open
9,Andrey Shchennikov,Андрей Щенников,1974,M,100,95.65,215,225,-232.5,225,225,B,Single-ply,Open
10,Aleksey Fokin,Алексей Фокин,1979,M,100,98.25,210,220,-225,220,220,B,Single-ply,Open
11,Mikhail Kuminov,Михаил Куминов,1971,M,100,98.5,-215,215,-222.5,215,215,B,Single-ply,Open
12,Sergey Vakhrushin,Сергей Вахрушин,1978,M,100,94.65,205,215,-220,215,215,B,Single-ply,Open
13,Andrey Gornostaev,Андрей Горностаев,1977,M,100,98.05,195,-205,205,205,205,B,Single-ply,Open
DQ,Andrey Belyaev #1,Андрей Беляев,1983,M,100,98.1,-260,-265,-275,,,B,Single-ply,Open
DQ,Maksim Zolotaryov,Максим Золотарёв,1976,M,100,,,,,,,B,Single-ply,Open
1,Aleksey Malunin,Алексей Малунин,1978,M,110,105.4,262.5,272.5,-280,272.5,272.5,B,Single-ply,Open
2,Ivan Danilenko,Иван Даниленко,1981,M,110,104.3,270,-280,-285,270,270,B,Single-ply,Open
3,Sergey Selezen,Сергей Селезень,1980,M,110,108.05,250,255,260,260,260,B,Single-ply,Open
4,Konstantin Lesukov,Константин Лесуков,1979,M,110,108.8,240,250,260,260,260,B,Single-ply,Open
5,Andrey Shurbenkov,Андрей Шурбенков,1979,M,110,109.15,-260,-260,260,260,260,B,Single-ply,Open
6,Ruslan Pavlikov,Руслан Павликов,1978,M,110,105.35,,-255,255,255,255,B,Single-ply,Open
7,Dmitriy Reshetov,Дмитрий Решетов,1974,M,110,109.8,-245,-245,245,245,245,B,Single-ply,Open
8,Igor Saykov,Игорь Сайков,1985,M,110,108.65,-240,240,-260,240,240,B,Single-ply,Open
9,Aleksey Selyavin,Алексей Селявин,1988,M,110,102.4,230,-237.5,237.5,237.5,237.5,B,Single-ply,Open
10,Konstantin Kuznetsov,Константин Кузнецов,1972,M,110,109.45,-235,235,-245,235,235,B,Single-ply,Open
11,Mikhail Igoshev,Михаил Игошев,1983,M,110,100.85,230,-235,-235,230,230,B,Single-ply,Open
12,Igor Finogin,Игорь Финогин,1977,M,110,101.25,220,230,-235,230,230,B,Single-ply,Open
13,Ilya Tsvetkov,Илья Цветков,1975,M,110,105.85,215,222.5,-230,222.5,222.5,B,Single-ply,Open
14,Andrey Komissarov,Андрей Комиссаров,1984,M,110,106.65,210,217.5,-225,217.5,217.5,B,Single-ply,Open
DQ,Dmitriy Zaklyakov,Дмитрий Закляков,1980,M,110,101.75,-255,-255,-270,,,B,Single-ply,Open
DQ,Evgeniy Kurtsev,Евгений Курцев,1971,M,110,109.15,-252.5,-255,-255,,,B,Single-ply,Open
7,Vladimir Kondratovich,Владимир Кондратович,1983,M,110,100.2,240,250,-257.5,250,250,B,Single-ply,Open
1,Pavel Yakovlev,Павел Яковлев,1974,M,125,115.1,280,-290,290,290,290,B,Single-ply,Open
2,Yuriy Drachyov,Юрий Драчёв,1982,M,125,119.9,250,-257.5,-257.5,250,250,B,Single-ply,Open
3,Sergey Ovsyannikov,Сергей Овсянников,1979,M,125,124.45,-250,250,-257.5,250,250,B,Single-ply,Open
4,Aleksandr Luchnikov,Александр Лучников,1985,M,125,110.5,230,235,240,240,240,B,Single-ply,Open
5,Aleksey Bezrukov,Алексей Безруков,1973,M,125,115.05,220,230,237.5,237.5,237.5,B,Single-ply,Open
6,Vladimir Gavrin,Владимир Гаврин,1974,M,125,112,-235,235,-242.5,235,235,B,Single-ply,Open
7,Aleksandr Zakharov,Александр Захаров,1985,M,125,111.1,175,185,-190,185,185,B,Single-ply,Open
DQ,Sergey Stepanenko,Сергей Степаненко,1974,M,125,119.65,-250,-250,-250,,,B,Single-ply,Open
1,Sergey Surov,Сергей Суров,1974,M,125+,137.7,287.5,-302.5,305,305,305,B,Single-ply,Open
2,Oleg Livshits,Олег Лившиц,1973,M,125+,132.4,270,-285,-287.5,270,270,B,Single-ply,Open
3,Dmitriy Chechurin,Дмитрий Чечурин,1977,M,125+,131.65,265,-277.5,-282.5,265,265,B,Single-ply,Open
4,Aleksey Mikhalyov,Алексей Михалёв,1983,M,125+,142.65,250,255,-260,255,255,B,Single-ply,Open
DQ,Sergey Shubitidze,Сергей Шубитидзе,1980,M,125+,132.5,-285,-300,-300,,,B,Single-ply,Open
DQ,Aleksandr Berezin #1,Александр Березин,1974,M,125+,145.3,-300,-300,-305,,,B,Single-ply,Open
