Tested,Equipment,Place,Name,Division,BirthYear,Country,BodyweightKg,Squat1Kg,Squat2Kg,Squat3Kg,Best3SquatKg,Bench1Kg,Bench2Kg,Bench3Kg,Best3BenchKg,Bench4Kg,Deadlift1Kg,Deadlift2Kg,Deadlift3Kg,Best3DeadliftKg,TotalKg,WeightClassKg,Sex,CyrillicName,Event
Yes,Wraps,1,Anastasiya Gavrichenko,Amateur Juniors 20-23,1993,Russia,47.8,50,60,,60,42.5,47.5,-50,47.5,,75,92.5,102.5,102.5,210,48,F,Анастасия Гавриченко,SBD
Yes,Wraps,1,Anna Batkova,Amateur Open,1973,Russia,47.8,70,80,-85,80,50,60,-65,60,,80,90,95,95,235,48,F,Анна Баткова,SBD
Yes,Wraps,1,Anzhelika Sheremet,Amateur Teen 13-15,2000,Russia,52,70,-90,-90,70,35,40,-42.5,40,,100,105,-110,105,215,52,F,Анжелика Шеремет,SBD
Yes,Wraps,2,Olga Evdokimova,Amateur Teen 13-15,2002,Russia,52,65,-70,70,70,35,-37.5,37.5,37.5,,85,92.5,-100,92.5,200,52,F,Ольга Евдокимова,SBD
Yes,Wraps,1,Alena Litvin,Amateur Teen 18-19,1998,Russia,49.2,60,-62.5,62.5,62.5,40,-45,-45,40,,90,95,100,100,202.5,52,F,Алена Литвин,SBD
Yes,Wraps,1,Yuliya Semenyakina,Amateur Juniors 20-23,1995,Russia,51.7,65,75,-80,75,30,35,-37.5,35,,75,80,85,85,195,52,F,Юлия Семенякина,SBD
Yes,Wraps,1,Kseniya Oskina,Amateur Juniors 20-23,1995,Russia,54.8,60,70,75,75,35,-40,40,40,,85,95,100,100,215,56,F,Ксения Оськина,SBD
Yes,Wraps,1,Lyubov Denisenko,Amateur Open,1991,Russia,55.8,-90,92.5,100,100,60,65,70,70,,132.5,140,147.5,147.5,317.5,56,F,Любовь Денисенко,SBD
Yes,Wraps,2,Alfiya Tsulukidze,Amateur Open,1980,Russia,54.8,90,95,102.5,102.5,62.5,65,-70,65,,95,105,115,115,282.5,56,F,Альфия Цулукидзе,SBD
Yes,Wraps,1,Mariya Cherkasova,Amateur Open,1986,Russia,58.7,80,90,95,95,45,50,-55,50,,110,120,130,130,275,60,F,Мария Черкасова,SBD
Yes,Wraps,2,Yuliya Shichkina,Amateur Open,1985,Russia,57.7,80,-85,85,85,45,-47.5,47.5,47.5,,-85,-85,85,85,217.5,60,F,Юлия Шичкина,SBD
Yes,Wraps,1,Alena Maslennikova,Amateur Open,1991,,66.2,110,115,120,120,75,80,-82.5,80,,120,132.5,,132.5,332.5,67.5,F,Алена Масленникова,SBD
Yes,Wraps,1,Ruslan Setmerov,Amateur Teen 16-17,1998,,66.6,100,120,135,135,110,-115,-115,110,,190,200,,200,445,67.5,M,Руслан Сетмеров,SBD
Yes,Wraps,1,Grigoriy Sheremet,Amateur Teen 13-15,2001,Russia,73.7,100,-110,110,110,-70,70,72.5,72.5,,130,150,160,160,342.5,75,M,Григорий Шеремет,SBD
Yes,Wraps,1,Daniil Melnik,Amateur Teen 18-19,1998,Russia,75,-130,135,145,145,100,-110,-110,100,,140,150,165,165,410,75,M,Даниил Мельник,SBD
Yes,Wraps,1,Ernest Arakelyan,Amateur Open,1983,Russia,74.1,145,150,,150,-115,115,120,120,,-150,150,,150,420,75,M,Эрнест Аракелян,SBD
Yes,Wraps,1,Eduard Titulenko,Amateur Teen 18-19,1996,Russia,82.2,200,-210,-210,200,170,-175,-175,170,,220,230,240,240,610,82.5,M,Эдуард Титуленко,SBD
Yes,Wraps,1,Dmitriy Selunskiy,Amateur Juniors 20-23,1993,Russia,77.7,150,155,160,160,100,105,-107.5,105,,200,207.5,-210,207.5,472.5,82.5,M,Дмитрий Селунский,SBD
Yes,Wraps,1,Vadim Romanenko,Amateur Open,1989,Russia,81,160,170,-172.5,170,122.5,127.5,132.5,132.5,,192.5,207.5,217.5,217.5,520,82.5,M,Вадим Романенко,SBD
Yes,Wraps,2,Gevorg Gabrielyan,Amateur Open,1991,,82.5,140,-150,-160,140,130,135,-145,135,,150,160,-175,160,435,82.5,M,Геворг Габриелян,SBD
Yes,Wraps,DQ,Sergey Petrosyan,Amateur Teen 18-19,1996,Russia,88.4,185,-205,-205,185,-140,-145,-145,,,,,,,,90,M,Сергей Петросян,SBD
Yes,Wraps,1,Maksim Astanin,Amateur Juniors 20-23,1994,Russia,84.8,-150,150,-160,150,120,-130,-130,120,,170,190,-210,190,460,90,M,Максим Астанин,SBD
Yes,Wraps,1,Eduard Dolgov,Amateur Open,1987,Ukraine,90,-240,240,250,250,175,185,192.5,192.5,,300,-310,315,315,757.5,90,M,Едуард Долгов,SBD
Yes,Wraps,2,Konstantin Vlasenko,Amateur Open,1987,Russia,89.1,165,180,-200,180,125,-130,130,130,,190,200,215,215,525,90,M,Константин Власенко,SBD
Yes,Wraps,3,Ayub Daguzhiev,Amateur Open,1987,Russia,88.1,185,197.5,-202.5,197.5,107.5,115,-120,115,,200,-210,,200,512.5,90,M,Аюб Дагужиев,SBD
Yes,Wraps,1,Vladislav Karpenko,Amateur Open,1987,Russia,97.7,-205,210,215,215,160,165,-170,165,,240,250,-255,250,630,100,M,Владислав Карпенко,SBD
Yes,Wraps,2,Aleksandr Korobov,Amateur Open,1991,Russia,97.4,187.5,200,-215,200,122.5,130,-137.5,130,,255,-280,280,280,610,100,M,Александр Коробов,SBD
Yes,Wraps,3,Maksim Arestov,Amateur Open,1991,Russia,99,200,212.5,222.5,222.5,142.5,150,152.5,152.5,,235,-255,-255,235,610,100,M,Максим Арестов,SBD
Yes,Wraps,1,Nikolay Novikov,Amateur Masters 65-69,1947,Russia,93.8,-140,140,150,150,70,75,,75,,180,190,195,195,420,100,M,Николай Новиков,SBD
Yes,Wraps,1,Viktor Atayan,Amateur Open,1991,,110,210,-220,-230,210,140,150,-160,150,,230,245,255,255,615,110,M,Виктор Атаян,SBD
Yes,Wraps,2,Aleksey Lazukin,Amateur Open,1990,Russia,104.1,190,-200,-200,190,140,147.5,-152.5,147.5,,200,210,220,220,557.5,110,M,Алексей Лазукин,SBD
Yes,Single-ply,1,Nadezhda Kuznetsova,Amateur Open,1979,Russia,82.5,150,160,175,175,70,77.5,-80,77.5,,152.5,-170,170,170,422.5,82.5,F,Надежда Кузнецова,SBD
Yes,Single-ply,1,Aleksandr Polfuntikov,Amateur Open,1982,Russia,82.4,275,-287.5,-287.5,275,160,-167.5,-167.5,160,,215,-230,-235,215,650,82.5,M,Александр Полфунтиков,SBD
Yes,Single-ply,1,Vladimir Vinnikov,Amateur Open,1986,Russia,87.2,200,220,-240,220,140,150,-160,150,,-240,240,260,260,630,90,M,Владимир Винников,SBD
Yes,Single-ply,1,Viktor Zhavoronkov,Amateur Open,1988,,99.8,-200,210,-220,210,165,172.5,175,175,,225,-245,245,245,630,100,M,Виктор Жаворонков,SBD
Yes,Multi-ply,1,Sergey Igoshin,Amateur Open,1986,Russia,100,230,240,250,250,-130,-130,130,130,,200,215,225,225,605,100,M,Сергей Игошин,SBD
No,Wraps,1,Marina Salamatina,Pro Open,1981,Russia,51.6,65,75,80,80,35,37.5,40,40,,70,80,-100,80,200,52,F,Марина Саламатина,SBD
No,Wraps,1,Svetlana Morozova #1,Pro Teen 16-17,1999,Russia,64.2,110,120,125,125,82.5,-87.5,87.5,87.5,,-110,110,132.5,132.5,345,67.5,F,Светлана Морозова,SBD
No,Wraps,DD,Marina Morozova,Pro Open,1978,Russia,72.5,-120,130,-140,130,85,90,92.5,92.5,,160,180,190,190,,75,F,Марина Морозова,SBD
No,Wraps,1,Igor Kuznetsov #1,Pro Open,1989,Russia,67.4,207.5,215,-220,215,150,160,162.5,162.5,,255,262.5,-267.5,262.5,640,67.5,M,Игорь Кузнецов,SBD
No,Wraps,2,Aleksey Timerkhanov,Pro Open,1981,Russia,67.5,145,150,-157.5,150,127.5,132.5,-137.5,132.5,,170,180,-190,180,462.5,67.5,M,Алексей Тимерханов,SBD
No,Wraps,1,Ivan Agamaliev,Pro Open,1988,Russia,73.4,155,165,172.5,172.5,125,-135,-135,125,,180,212.5,-225,212.5,510,75,M,Иван Агамалиев,SBD
No,Wraps,1,Andrey Scherban,Pro Open,1987,Russia,82.5,195,207.5,-210,207.5,140,-150,-150,140,,240,267.5,,267.5,615,82.5,M,Андрей Щербань,SBD
No,Wraps,2,Sergey Ayvazov,Pro Open,1977,Russia,81.1,170,185,-195,185,120,130,135,135,,205,225,-245,225,545,82.5,M,Сергей Айвазов,SBD
No,Wraps,1,Kasim Kasimov,Pro Juniors 20-23,1993,Russia,90,210,220,-230,220,160,165,170,170,,240,-257.5,-257.5,240,630,90,M,Касим Касимов,SBD
No,Wraps,1,Sergiy Mustafin,Pro Open,1989,Ukraine,87.3,200,220,230,230,180,-190,-190,180,,240,-250,-250,240,650,90,M,Сергій Мустафін,SBD
No,Wraps,2,Evgeniy Radionov,Pro Open,1983,Russia,83.1,175,185,195,195,145,-155,-155,145,,190,200,210,210,550,90,M,Евгений Радионов,SBD
No,Wraps,3,Aleksandr Overin,Pro Open,1982,Russia,90,-160,175,,175,110,120,-130,120,,180,-190,195,195,490,90,M,Александр Оверин,SBD
No,Wraps,4,Nikolay Khristov,Pro Open,1988,Russia,88.6,130,140,-145,140,115,120,-125,120,,150,160,170,170,430,90,M,Николай Христов,SBD
No,Wraps,1,Daniil Kotenko,Pro Teen 18-19,1996,Russia,99.4,215,225,235,235,145,155,165,165,,220,240,-250,240,640,100,M,Даниил Котенко,SBD
No,Wraps,1,Aleksandr Kuznetsov #25,Pro Juniors 20-23,1994,Russia,98.7,155,170,-185,170,105,115,120,120,,180,195,210,210,500,100,M,Александр Кузнецов,SBD
No,Wraps,1,Anzor Sikhadzhok,Pro Open,1989,Russia,96.5,260,285,,285,190,200,205,205,,250,-295,-295,250,740,100,M,Анзор Сихаджок,SBD
No,Wraps,2,Dmitriy Vagin,Pro Open,1989,Russia,97.7,240,-255,-255,240,170,180,-185,180,,230,245,262.5,262.5,682.5,100,M,Дмитрий Вагин,SBD
No,Wraps,3,Valeriy Simagin,Pro Open,1972,Russia,98.5,200,215,225,225,160,170,-180,170,,-220,220,235,235,630,100,M,Валерий Симагин,SBD
No,Wraps,4,Vladimir Urban #2,Pro Open,1981,Russia,99.5,-220,-220,220,220,-140,140,,140,,220,240,,240,600,100,M,Владимир Урбан,SBD
No,Wraps,1,Valeriy Simagin,Pro Masters 40-44,1972,Russia,98.5,200,215,225,225,160,170,-180,170,,-220,220,235,235,630,100,M,Валерий Симагин,SBD
No,Wraps,1,Andrey Chernenko,Pro Juniors 20-23,1993,Russia,109.4,285,-300,-300,285,200,-210,-210,200,,310,332.5,-342.5,332.5,817.5,110,M,Андрей Черненко,SBD
No,Wraps,1,Egor Mizhevskiy,Pro Open,1990,Russia,109.9,260,270,280,280,160,170,180,180,,270,280,290,290,750,110,M,Егор Мижевский,SBD
No,Wraps,2,Levon Ayrapetyan,Pro Open,1982,Russia,106.9,-240,250,260,260,165,175,-180,175,,270,280,-290,280,715,110,M,Левон Айрапетян,SBD
No,Wraps,3,Evgeniy Zub,Pro Open,1987,Russia,106.4,190,200,-205,200,-160,160,-170,160,,220,230,-250,230,590,110,M,Евгений Зуб,SBD
No,Wraps,1,Anatoliy Prodan,Pro Masters 50-54,1961,Russia,109.7,200,215,230,230,-160,160,-165,160,,200,215,230,230,620,110,M,Анатолий Продан,SBD
No,Wraps,1,Timofey Potalov,Pro Teen 18-19,1997,Russia,111.5,210,-220,-220,210,130,140,-145,140,,210,-220,,210,560,125,M,Тимофей Поталов,SBD
No,Wraps,1,Aleksandr Zaytsev,Pro Open,1977,Russia,123.6,280,300,320,320,220,-230,230,230,,280,310,-330,310,860,125,M,Александр Зайцев,SBD
No,Wraps,1,Dmitriy Pys,Pro Open,1986,Russia,130,280,300,-320,300,190,205,220,220,,280,310,-330,310,830,140,M,Дмитрий Пысь,SBD
No,Single-ply,1,Oleg Avramenko,Pro Open,1976,Russia,81.8,240,-250,255,255,150,155,160,160,,235,247.5,255,255,670,82.5,M,Олег Авраменко,SBD
No,Single-ply,1,Kirill Tarasov,Pro Juniors 20-23,1993,Russia,89,250,-270,280,280,180,192.5,200,200,,220,235,242.5,242.5,722.5,90,M,Кирилл Тарасов,SBD
No,Single-ply,1,Nikolay Korshunov,Pro Juniors 20-23,1995,Russia,96.6,265,-290,-300,265,160,175,180,180,,230,250,-257.5,250,695,100,M,Николай Коршунов,SBD
No,Single-ply,1,Evgeniy Naumov,Pro Open,1985,Russia,96.9,250,-260,260,260,175,-190,-200,175,,240,260,-280,260,695,100,M,Евгений Наумов,SBD
No,Single-ply,1,Ilya Pokhodov,Pro Juniors 20-23,1994,Russia,105.7,220,240,-250,240,180,195,210,210,,220,240,-260,240,690,110,M,Илья Походов,SBD
No,Single-ply,1,Yaroslav Shutyaev,Pro Open,1990,Russia,109.4,270,290,300,300,200,210,220,220,,-265,265,280,280,800,110,M,Ярослав Шутяев,SBD
No,Single-ply,1,Artem Burim,Pro Open,1980,Russia,122,-260,260,275,275,180,190,195,195,,260,275,-285,275,745,125,M,Артем Бурим,SBD
No,Multi-ply,1,Artem Krylov,Pro Open,1990,Russia,88.9,-385,385,-395,385,237.5,245,250,250,,310,-325,-325,310,945,90,M,Артем Крылов,SBD
No,Multi-ply,2,Vladimir Zhabin,Pro Open,1980,Russia,90,-335,335,350,350,220,235,-240,235,,335,-365,-365,335,920,90,M,Владимир Жабин,SBD
No,Multi-ply,3,Dmitriy Sheremet,Pro Open,1978,Russia,86.4,230,250,260,260,130,140,150,150,,240,250,260,260,670,90,M,Дмитрий Шеремет,SBD
No,Multi-ply,1,Pavel Mitrofanov,Pro Open,1983,Russia,99.4,375,-405,-405,375,-260,275,285,285,,270,300,,300,960,100,M,Павел Митрофанов,SBD
Yes,Raw,1,Anastasiya Gavrichenko,Amateur Juniors 20-23,1993,Russia,47.8,,,,,45,-52.5,-52.5,45,,,,,,45,48,F,Анастасия Гавриченко,B
Yes,Raw,1,Marina Zharova,Amateur Open,1984,Russia,47.7,,,,,55,60,-62.5,60,,,,,,60,48,F,Марина Жарова,B
Yes,Raw,2,Roksana Khmelnitskaya,Amateur Open,1979,Russia,47.3,,,,,-50,-50,55,55,,,,,,55,48,F,Роксана Хмельницкая,B
Yes,Raw,1,Darya Lukina,Amateur Open,1983,Russia,53.8,,,,,62.5,67.5,-70,67.5,,,,,,67.5,56,F,Дарья Лукина,B
Yes,Raw,1,Elena Shevyreva,Amateur Masters 40-44,1974,Russia,55.3,,,,,50,-52.5,-55,50,,,,,,50,56,F,Елена Шевырева,B
Yes,Raw,2,Elena Tarasenko,Amateur Masters 40-44,1971,Russia,54.9,,,,,45,-50,-55,45,,,,,,45,56,F,Елена Тарасенко,B
Yes,Raw,1,Oleksandra Khmelnitskaya,Amateur Teen 13-15,2000,Russia,59.9,,,,,-45,47.5,50,50,,,,,,50,60,F,Олександра Хмельницкая,B
Yes,Raw,1,Mariya Pedan,Amateur Open,1984,Russia,57.8,,,,,57.5,65,-67.5,65,,,,,,65,60,F,Мария Педан,B
Yes,Raw,1,Valeriya Mastryukova,Amateur Masters 40-44,1975,Russia,57.2,,,,,62.5,-65,-65,62.5,,,,,,62.5,60,F,Валерия Мастрюкова,B
Yes,Raw,1,Liliya Akimenko,Amateur Masters 45-49,1970,Russia,60,,,,,-47.5,-47.5,47.5,47.5,,,,,,47.5,60,F,Лилия Акименко,B
Yes,Raw,1,Polina Turygina,Amateur Open,1985,Russia,62.1,,,,,75,80,-82.5,80,,,,,,80,67.5,F,Полина Турыгина,B
Yes,Raw,2,Yuliya Tolstova,Amateur Open,1988,Russia,63.9,,,,,-52.5,-55,55,55,,,,,,55,67.5,F,,B
Yes,Raw,3,Ruzanna Sonayan,Amateur Open,1985,Russia,66.1,,,,,42.5,47.5,50,50,,,,,,50,67.5,F,Рузанна Сонаян,B
Yes,Raw,1,Elizaveta Kharich,Amateur Teen 18-19,1997,Russia,73.6,,,,,55,-60,-60,55,,,,,,55,75,F,Елизавета Харич,B
Yes,Raw,1,Kirill Zernov,Amateur Youth,2004,Russia,40,,,,,-25,25,27.5,27.5,,,,,,27.5,52,M,Кирилл Зернов,B
Yes,Raw,1,Vladimir Yakuba,Amateur Teen 13-15,2003,Russia,58.2,,,,,25,32.5,35,35,,,,,,35,60,M,Владимир Якуба,B
Yes,Raw,1,Andrey Govorov,Amateur Juniors 20-23,1992,Russia,67.5,,,,,115,-125,-125,115,,,,,,115,67.5,M,Андрей Говоров,B
Yes,Raw,1,Vladimir Timerkhanov,Amateur Open,1981,Russia,67.5,,,,,115,-120,120,120,,,,,,120,67.5,M,Владимир Тимерханов,B
Yes,Raw,2,Evgeniy Duvanskiy,Amateur Open,1987,Russia,66.6,,,,,102.5,-107.5,-107.5,102.5,,,,,,102.5,67.5,M,Евгений Дуванский,B
Yes,Raw,DQ,Evgeniy Apenin,Amateur Teen 18-19,1998,Russia,70,,,,,-110,-117.5,-117.5,,,,,,,,75,M,Евгений Апенин,B
Yes,Raw,1,Ivan Lysenko,Amateur Juniors 20-23,1993,Russia,74.5,,,,,117.5,125,-127.5,125,,,,,,125,75,M,Иван Лысенко,B
Yes,Raw,1,Aleksey Abramov,Amateur Open,1984,Russia,73.2,,,,,140,145,-150,145,,,,,,145,75,M,Алексей Абрамов,B
Yes,Raw,2,Aleksandr Pochinskiy,Amateur Open,1970,Russia,72.2,,,,,125,135,-140,135,,,,,,135,75,M,Александр Починский,B
Yes,Raw,3,Sergey Khmelevskiy,Amateur Open,1990,Russia,72.5,,,,,135,-140,-140,135,,,,,,135,75,M,Сергей Хмелевский,B
Yes,Raw,4,Timofey Konstantinov,Amateur Open,1985,Russia,74.2,,,,,127.5,135,-140,135,,,,,,135,75,M,Тимофей Константинов,B
Yes,Raw,DQ,Igor Chernyaev #2,Amateur Open,1984,Russia,74.5,,,,,-130,-135,-135,,,,,,,,75,M,Игорь Черняев,B
Yes,Raw,1,Aleksandr Pochinskiy,Amateur Masters 45-49,1970,Russia,72.2,,,,,125,135,-140,135,,,,,,135,75,M,Александр Починский,B
Yes,Raw,1,Arif Mekhtiev,Amateur Teen 16-17,1998,Russia,78.2,,,,,100,-107.5,,100,,,,,,100,82.5,M,Ариф Мехтиев,B
Yes,Raw,DQ,Vitaliy Kolyasnikov,Amateur Teen 16-17,1998,Russia,78.1,,,,,-120,-120,-120,,,,,,,,82.5,M,Виталий Колясников,B
Yes,Raw,1,Shamil Apazaov,Amateur Juniors 20-23,1994,Russia,80.8,,,,,-150,-160,160,160,,,,,,160,82.5,M,Шамиль Апазаов,B
Yes,Raw,2,Georgiy Lavrentyev,Amateur Juniors 20-23,1996,Russia,81.2,,,,,-145,150,-157.5,150,,,,,,150,82.5,M,Георгий Лаврентьев,B
Yes,Raw,3,Mikhail Lebedev,Amateur Juniors 20-23,1993,Russia,82,,,,,140,145,-147.5,145,,,,,,145,82.5,M,Михаил Лебедев,B
Yes,Raw,DQ,Aleksandr Novitskiy,Amateur Juniors 20-23,1992,Russia,79,,,,,-115,-127.5,-127.5,,,,,,,,82.5,M,Александр Новицкий,B
Yes,Raw,1,Vladimir Rybalko,Amateur Open,1987,Russia,82.5,,,,,165,170,-175,170,,,,,,170,82.5,M,Владимир Рыбалко,B
Yes,Raw,2,Maksim Kazdoba,Amateur Open,1987,Russia,79.4,,,,,-155,162.5,167.5,167.5,,,,,,167.5,82.5,M,Максим Каздоба,B
Yes,Raw,3,Aleksandr Kolesnikov,Amateur Open,1985,Russia,81,,,,,150,162.5,-167.5,162.5,,,,,,162.5,82.5,M,Александр Колесников,B
Yes,Raw,4,Andrey Lapkin,Amateur Open,1983,Russia,80.1,,,,,140,147.5,-152.5,147.5,,,,,,147.5,82.5,M,Андрей Лапкин,B
Yes,Raw,5,Yusup Mutaev,Amateur Open,1982,Russia,79.9,,,,,-125,-130,142.5,142.5,,,,,,142.5,82.5,M,Юсуп Мутаев,B
Yes,Raw,6,Boris Samoylik,Amateur Open,1984,Russia,80.2,,,,,127.5,130,135,135,,,,,,135,82.5,M,Борис Самойлик,B
Yes,Raw,7,Andrey Zvyagintsev,Amateur Open,1987,Russia,82.1,,,,,130,135,-145,135,,,,,,135,82.5,M,Андрей Звягинцев,B
Yes,Raw,1,Kristian Durmanov,Amateur Teen 18-19,1996,Russia,87.6,,,,,122.5,-132.5,-132.5,122.5,,,,,,122.5,90,M,Кристиан Дурманов,B
Yes,Raw,1,Igor Shelyag,Amateur Juniors 20-23,1994,Russia,90,,,,,147.5,152.5,-155,152.5,,,,,,152.5,90,M,Игорь Шеляг,B
Yes,Raw,2,Maksim Katunin,Amateur Juniors 20-23,1994,Russia,86.3,,,,,132.5,140,-152.5,140,,,,,,140,90,M,Максим Катунин,B
Yes,Raw,1,Oleg Filimonov,Amateur Open,1987,Russia,89,,,,,205,215.5,217.5,217.5,220,,,,,217.5,90,M,Олег Филимонов,B
Yes,Raw,2,Andrei Svidin,Amateur Open,1980,Russia,87.9,,,,,175,-185,-202.5,175,,,,,,175,90,M,Андрей Свидин,B
Yes,Raw,3,Evgeniy Belov,Amateur Open,1985,Russia,89.6,,,,,145,-152.5,-152.5,145,,,,,,145,90,M,Евгений Белов,B
Yes,Raw,4,Roman Skrylnikov,Amateur Open,1981,Russia,88.7,,,,,127.5,132.5,-140,132.5,,,,,,132.5,90,M,Роман Скрыльников,B
Yes,Raw,1,Aleksandr Yagolnik,Amateur Masters 40-44,1976,Russia,88.4,,,,,110,115,-120,115,,,,,,115,90,M,Александр Ягольник,B
Yes,Raw,1,Nikolay Reshetov,Amateur Masters 55-59,1959,Russia,89.3,,,,,135,145,,145,,,,,,145,90,M,Николай Решетов,B
Yes,Raw,1,Artem Nikolaev,Amateur Teen 16-17,1999,Russia,93.6,,,,,95,-105,-105,95,,,,,,95,100,M,Артем Николаев,B
Yes,Raw,1,Elchan Mamedov,Amateur Juniors 20-23,1992,Russia,96.8,,,,,155,-162.5,-162.5,155,,,,,,155,100,M,Эльчан Мамедов,B
Yes,Raw,1,Kirill Pechka,Amateur Open,1983,Russia,98.5,,,,,165,170,172.5,172.5,,,,,,172.5,100,M,Кирилл Печка,B
Yes,Raw,2,Vsevolod Prudnikov,Amateur Open,1990,Russia,97.5,,,,,150,162.5,-170,162.5,,,,,,162.5,100,M,Всеволод Прудников,B
Yes,Raw,3,Stanislav Nikiforov,Amateur Open,1989,Russia,98.8,,,,,150,162.5,-170,162.5,,,,,,162.5,100,M,Станислав Никифоров,B
Yes,Raw,4,Kirill Pirogov,Amateur Open,1979,Russia,98.2,,,,,150,-155,-155,150,,,,,,150,100,M,Кирилл Пирогов,B
Yes,Raw,5,Aleksey Yazykov,Amateur Open,1986,Russia,94.2,,,,,-142.5,-147.5,147.5,147.5,,,,,,147.5,100,M,Алексей Языков,B
Yes,Raw,6,Aleksandr Zhelnovach,Amateur Open,1985,Russia,96.2,,,,,127.5,132.5,-140,132.5,,,,,,132.5,100,M,Александр Желновач,B
Yes,Raw,DQ,Aleksandr Lamzin,Amateur Open,1990,Russia,97.6,,,,,-180,-185,,,,,,,,,100,M,Александр Ламзин,B
Yes,Raw,1,Roman Karpushin,Amateur Open,1973,Russia,103.2,,,,,175,185,190,190,,,,,,190,110,M,Роман Карпушин,B
Yes,Raw,2,Alim Kagazezhev,Amateur Open,1989,Russia,110,,,,,180,187.5,-195,187.5,,,,,,187.5,110,M,Алим Кагазежев,B
Yes,Raw,3,Denis Petlevannyy,Amateur Open,1987,Russia,109,,,,,-147.5,-147.5,147.5,147.5,,,,,,147.5,110,M,Денис Петлеванный,B
Yes,Raw,DQ,Aleksandr Filipenko,Amateur Open,1982,Russia,105.5,,,,,-150,-150,-150,,,,,,,,110,M,Александр Филипенко,B
Yes,Raw,1,Roman Karpushin,Amateur Masters 40-44,1973,Russia,103.2,,,,,175,185,190,190,,,,,,190,110,M,Роман Карпушин,B
Yes,Raw,2,Andrey Olifir,Amateur Masters 40-44,1975,Russia,107.4,,,,,160,-167.5,-167.5,160,,,,,,160,110,M,Андрей Олифир,B
Yes,Raw,1,Artur Gulyan,Amateur Open,1982,Russia,124.4,,,,,252.5,-263,-263,252.5,,,,,,252.5,125,M,Артур Гулян,B
Yes,Raw,1,Dmitriy Sviridov,Amateur Masters 40-44,1976,Russia,120.9,,,,,160,-165,165,165,,,,,,165,125,M,Дмитрий Свиридов,B
Yes,Raw,2,Sergey Sergeev,Amateur Masters 40-44,1974,Russia,115.6,,,,,160,,,160,,,,,,160,125,M,Сергей Сергеев,B
Yes,Raw,1,Dmitriy Rezaykin,Amateur Open,1984,Russia,130,,,,,210,-220,-220,210,,,,,,210,140,M,Дмитрий Резайкин,B
Yes,Raw,1,Artem Nechushkin,Amateur Teen 16-17,1999,Russia,145,,,,,135,-142.5,143,143,,,,,,143,140+,M,Артем Нечушкин,B
Yes,Raw,1,Denis Zverev,Amateur Open,1987,Russia,159,,,,,-180,180,-225,180,,,,,,180,140+,M,Денис Зверев,B
Yes,Raw,DQ,Ashot Khazaryan,Amateur Open,1980,Russia,143.7,,,,,-160,-160,-160,,,,,,,,140+,M,Ашот Хазарьян,B
Yes,Single-ply,1,Kirill Fedotov,Amateur Teen 13-15,2001,Russia,73.6,,,,,100,110,117.5,117.5,,,,,,117.5,75,M,Кирилл Федотов,B
Yes,Single-ply,1,Nikolay Reshetov,Amateur Open,1959,Russia,89.3,,,,,185,195,-205,195,,,,,,195,90,M,Николай Решетов,B
Yes,Single-ply,1,Nikolay Reshetov,Amateur Masters 55-59,1959,Russia,89.3,,,,,185,195,-205,195,,,,,,195,90,M,Николай Решетов,B
Yes,Single-ply,1,Vladimir Vanyan,Amateur Open,1989,Russia,96.3,,,,,-240,240,-247.5,240,,,,,,240,100,M,Владимир Ванян,B
Yes,Single-ply,2,Aleksey Kurochkin,Amateur Open,1973,Russia,98.5,,,,,200,215,-230,215,,,,,,215,100,M,Алексей Курочкин,B
Yes,Single-ply,1,Aleksey Kurochkin,Amateur Masters 40-44,1973,Russia,98.5,,,,,200,215,-230,215,,,,,,215,100,M,Алексей Курочкин,B
Yes,Single-ply,1,Aleksandr Onischuk,Amateur Open,1983,Russia,109,,,,,210,227.5,-235,227.5,,,,,,227.5,110,M,Александр Онищук,B
Yes,Single-ply,1,Sergey Sergeev,Amateur Open,1974,Russia,115.6,,,,,200,-215,215,215,,,,,,215,125,M,Сергей Сергеев,B
Yes,Single-ply,2,Vyacheslav Shadrin,Amateur Open,1968,Russia,124.9,,,,,200,210,,210,,,,,,210,125,M,Вячеслав Шадрин,B
Yes,Single-ply,1,Sergey Sergeev,Amateur Masters 40-44,1974,Russia,115.6,,,,,200,-215,215,215,,,,,,215,125,M,Сергей Сергеев,B
Yes,Multi-ply,1,Nikolay Reshetov,Amateur Open,1959,Russia,89.3,,,,,185,195,-205,195,,,,,,195,90,M,Николай Решетов,B
Yes,Multi-ply,1,Nikolay Reshetov,Amateur Masters 55-59,1959,Russia,89.3,,,,,185,195,-205,195,,,,,,195,90,M,Николай Решетов,B
Yes,Multi-ply,1,Artem Sedov,Amateur Open,1979,Russia,121.9,,,,,-260,-260,260,260,,,,,,260,125,M,Артем Седов,B
Yes,Multi-ply,DQ,Vitaliy Mordvinov,Amateur Open,1987,Russia,123,,,,,-302.5,-302.5,-302.5,,,,,,,,125,M,Виталий Мордвинов,B
Yes,Raw,1,Diana Khakhulina,Amateur Open,1988,Russia,43.5,,,,,,,,,,110,-115,115,115,115,44,F,Диана Хахулина,D
Yes,Raw,1,Violetta Filimonova,Amateur Open,1991,Russia,49.7,,,,,,,,,,125,-132.5,-132.5,125,125,52,F,Виолетта Филимонова,D
Yes,Raw,1,Svetlana Startseva,Amateur Masters 45-49,1969,Russia,51.5,,,,,,,,,,80,87.5,90,90,90,52,F,Светлана Старцева,D
Yes,Raw,1,Kristina Zhurakhova,Amateur Teen 16-17,1998,Russia,59,,,,,,,,,,110,-115,115,115,115,60,F,Кристина Журахова,D
Yes,Raw,1,Natalya Zhurikhina,Amateur Open,1987,Russia,58.6,,,,,,,,,,120,-130,-130,120,120,60,F,Наталья Журихина,D
Yes,Raw,1,Veronika Medergan,Amateur Masters 45-49,1966,Russia,57.9,,,,,,,,,,90,95,100,100,100,60,F,Вероника Медерган,D
Yes,Raw,1,Ekaterina Zhilina,Amateur Teen 16-17,1999,Russia,66.8,,,,,,,,,,-90,-100,100,100,100,67.5,F,Екатерина Жилина,D
Yes,Raw,2,Anna Petrova,Amateur Teen 16-17,2000,Russia,67.5,,,,,,,,,,80,90,-92.5,90,90,67.5,F,Анна Петрова,D
Yes,Raw,1,Olga Teryasova,Amateur Teen 18-19,1996,Russia,66.1,,,,,,,,,,-135,135,,135,135,67.5,F,Ольга Терясова,D
Yes,Raw,2,Anastasiya Dudinova,Amateur Teen 18-19,1998,Russia,62,,,,,,,,,,80,90,-105,90,90,67.5,F,Анастасия Дудинова,D
Yes,Raw,1,Nadezhda Dimova,Amateur Open,1982,Russia,66.9,,,,,,,,,,115,125,-135,125,125,67.5,F,Надежда Димова,D
Yes,Raw,2,Lyudmila Smekhnova,Amateur Open,1981,Russia,67,,,,,,,,,,117.5,-122.5,122.5,122.5,122.5,67.5,F,Людмила Смехнова,D
Yes,Raw,1,Marina Titkova,Amateur Masters 45-49,1968,Russia,61.7,,,,,,,,,,100,-112.5,-112.5,100,100,67.5,F,Марина Титкова,D
Yes,Raw,1,Irina Kupreeva,Amateur Open,1990,Russia,72.6,,,,,,,,,,100,115,125,125,125,75,F,Ирина Купреева,D
Yes,Raw,1,Elena Rudenko,Amateur Masters 45-49,1970,Russia,74.3,,,,,,,,,,112.5,117.5,-125,117.5,117.5,75,F,Елена Руденко,D
Yes,Raw,1,Anton Titkov,Amateur Youth,2006,Russia,40,,,,,,,,,,40,45,50,50,50,52,M,Антон Титков,D
Yes,Raw,1,Kirill Korsakov,Amateur Teen 16-17,1998,Russia,67.2,,,,,,,,,,132.5,145,-165,145,145,67.5,M,Кирилл Корсаков,D
Yes,Raw,2,Dmitriy Koroteev,Amateur Teen 16-17,1998,Russia,64.2,,,,,,,,,,125,132.5,137.5,137.5,137.5,67.5,M,Дмитрий Коротеев,D
Yes,Raw,1,Evgeniy Kovalev,Amateur Open,1992,Russia,65.2,,,,,,,,,,205,-217.5,-217.5,205,205,67.5,M,Евгений Ковалев,D
Yes,Raw,1,Dmitriy Volkov,Amateur Teen 16-17,1998,Russia,73.2,,,,,,,,,,170,180,190,190,190,75,M,Дмитрий Волков,D
Yes,Raw,2,Dmitriy Belyanskiy,Amateur Teen 16-17,1999,Russia,75,,,,,,,,,,150,160,-165,160,160,75,M,Дмитрий Белянский,D
Yes,Raw,1,Albert Lastovichenko,Amateur Teen 18-19,1996,Russia,73.8,,,,,,,,,,202.5,210,-220,210,210,75,M,Альберт Ластовиченко,D
Yes,Raw,1,Ruslan Semenov,Amateur Open,1991,Russia,75,,,,,,,,,,180,-200,-200,180,180,75,M,Руслан Семенов,D
Yes,Raw,2,Ernest Arakelyan,Amateur Open,1983,Russia,74.1,,,,,,,,,,150,,,150,150,75,M,Эрнест Аракелян,D
Yes,Raw,1,Vyacheslav Tolstoukhov,Amateur Teen 18-19,1998,Russia,80.7,,,,,,,,,,-180,180,200,200,200,82.5,M,Вячеслав Толстоухов,D
Yes,Raw,DQ,Sergey Belyakov,Amateur Teen 18-19,1998,Russia,78.8,,,,,,,,,,-200,-215,-215,,,82.5,M,Сергей Беляков,D
Yes,Raw,1,Pavel Persiyanov,Amateur Juniors 20-23,1995,Russia,78.5,,,,,,,,,,-170,185,200,200,200,82.5,M,Павел Персиянов,D
Yes,Raw,1,Anton Solovyev,Amateur Open,1988,Russia,80.6,,,,,,,,,,215,222.5,227.5,227.5,227.5,82.5,M,Антон Соловьев,D
Yes,Raw,2,Timofey Zhidkov,Amateur Open,1981,Russia,81.1,,,,,,,,,,225,-245,-245,225,225,82.5,M,Тимофей Жидков,D
Yes,Raw,3,Yuriy Lukiev,Amateur Open,1981,Russia,81.1,,,,,,,,,,170,185,,185,185,82.5,M,Юрий Лукиев,D
Yes,Raw,1,Anatoliy Akshentsev,Amateur Masters 55-59,1956,Russia,81.6,,,,,,,,,,215,225,-230,225,225,82.5,M,Анатолий Акшенцев,D
Yes,Raw,1,Sevastian Dmitriev,Amateur Teen 13-15,2002,Russia,90,,,,,,,,,,100,110,120,120,120,90,M,Севастиан Дмитриев,D
Yes,Raw,1,Pavel Protsenko,Amateur Juniors 20-23,1994,Russia,85.6,,,,,,,,,,237.5,-245,-247.5,237.5,237.5,90,M,Павел Проценко,D
Yes,Raw,2,Igor Kryat,Amateur Open,1988,Russia,87.1,,,,,,,,,,215,220,225,225,225,90,M,Игорь Крят,D
Yes,Raw,3,Denis Kulikov,Amateur Open,1991,,86.8,,,,,,,,,,180,195,-222.5,195,195,90,M,Денис Куликов,D
Yes,Raw,4,Sergey Eremenko,Amateur Open,1984,Russia,85.1,,,,,,,,,,140,-150,-150,140,140,90,M,Сергей Еременко,D
Yes,Raw,1,Artem Afanasenko,Amateur Teen 18-19,1996,Russia,95.5,,,,,,,,,,-205,210,-240,210,210,100,M,Артем Афанасенко,D
Yes,Raw,1,Roman Nekrushets,Amateur Juniors 20-23,1993,Russia,98.2,,,,,,,,,,220,-240,-240,220,220,100,M,Роман Некрушец,D
Yes,Raw,2,Pavel Aristov,Amateur Juniors 20-23,1994,Russia,95.1,,,,,,,,,,180,202.5,205,205,205,100,M,Павел Аристов,D
Yes,Raw,1,Suren Enokyan,Amateur Open,1989,Russia,97.7,,,,,,,,,,212.5,222.5,232.5,232.5,232.5,100,M,Сурен Енокян,D
Yes,Raw,1,Vitaliy Kostenko,Amateur Open,1984,Russia,102.2,,,,,,,,,,220,230,240,240,240,110,M,Виталий Костенко,D
Yes,Raw,1,Vyacheslav Shadrin,Amateur Open,1968,Russia,124.9,,,,,,,,,,250,-270,,250,250,125,M,Вячеслав Шадрин,D
Yes,Raw,2,Vladimir Sudarikov,Amateur Open,1976,Russia,111.2,,,,,,,,,,185,200,-210,200,200,125,M,Владимир Судариков,D
Yes,Raw,1,Vyacheslav Shadrin,Amateur Masters 45-49,1968,Russia,124.9,,,,,,,,,,250,-270,,250,250,125,M,Вячеслав Шадрин,D
Yes,Single-ply,1,Ekaterina Velikaya,Amateur Open,1990,Russia,50.6,,,,,,,,,,142.5,150,-165,150,150,52,F,Екатерина Великая,D
Yes,Single-ply,1,Maksim Shiryaev,Amateur Open,1989,Russia,73.7,,,,,,,,,,195,200,,200,200,75,M,Максим Ширяев,D
Yes,Single-ply,1,Dmitriy Nosenko,Amateur Open,1976,Russia,81.9,,,,,,,,,,190,200,-205,200,200,82.5,M,Дмитрий Носенко,D
Yes,Single-ply,1,Valeriy Golovin,Amateur Masters 55-59,1961,Russia,82.5,,,,,,,,,,210,225,,225,225,82.5,M,Валерий Головин,D
No,Raw,1,Kristina Dyachenko,Pro Juniors 20-23,1994,Russia,52,,,,,62.5,67.5,70,70,,,,,,70,52,F,Кристина Дьяченко,B
No,Raw,1,Yuliya Mikhaylova,Pro Open,1982,Russia,55.9,,,,,65,-70,-72.5,65,,,,,,65,56,F,Юлия Михайлова,B
No,Raw,1,Olga Boychenko,Pro Masters 45-49,1969,,56,,,,,40,42.5,-45,42.5,,,,,,42.5,56,F,Ольга Бойченко,B
No,Raw,1,Yuliya Razkevich,Pro Juniors 20-23,1992,Russia,58,,,,,-40,50,-60,50,,,,,,50,60,F,Юлия Разкевич,B
No,Raw,1,Svetlana Morozova #1,Pro Teen 16-17,1999,Russia,64.2,,,,,80,87.5,-92.5,87.5,,,,,,87.5,67.5,F,Светлана Морозова,B
No,Raw,DD,Marina Morozova,Pro Open,1978,Russia,72.5,,,,,80,87.5,-95,87.5,,,,,,,75,F,Марина Морозова,B
No,Raw,1,Oksana Melekhonova,Pro Open,1978,Russia,89.9,,,,,57.5,60,-62.5,60,,,,,,60,90,F,Оксана Мелехонова,B
No,Raw,1,Denis Kuimov,Pro Open,1991,Russia,67,,,,,150,157.5,-160,157.5,,,,,,157.5,67.5,M,Денис Куимов,B
No,Raw,2,Aleksey Timerkhanov,Pro Open,1981,Russia,67.5,,,,,125,130,135,135,,,,,,135,67.5,M,Алексей Тимерханов,B
No,Raw,DQ,Nikita Vasilyev,Pro Teen 16-17,1999,Russia,71.9,,,,,-120,-125,-125,,,,,,,,75,M,Никита Васильев,B
No,Raw,1,Roman Vorona,Pro Juniors 20-23,1995,Russia,70,,,,,130,140,150,150,,,,,,150,75,M,Роман Ворона,B
No,Raw,1,Dmitriy Fursov,Pro Open,1991,Russia,80.3,,,,,-150,155,160,160,,,,,,160,82.5,M,Дмитрий Фурсов,B
No,Raw,2,Vadim Vorobyev,Pro Open,1991,Russia,80.9,,,,,145,150,-155,150,,,,,,150,82.5,M,Вадим Воробьев,B
No,Raw,3,Evgeniy Sharun,Pro Open,1984,Russia,81.9,,,,,140,145,-150,145,,,,,,145,82.5,M,Евгений Шарун,B
No,Raw,4,Pavel Fedosov,Pro Open,1991,Russia,81.9,,,,,120,130,-140,130,,,,,,130,82.5,M,Павел Федосов,B
No,Raw,1,Vitaliy Burlakov #2,Pro Juniors 20-23,1993,Russia,90,,,,,165,180,-185,180,,,,,,180,90,M,Виталий Бурлаков,B
No,Raw,1,Artem Zhuravlev,Pro Open,1992,Russia,89.9,,,,,170,180,195,195,,,,,,195,90,M,Артем Журавлев,B
No,Raw,2,Sergey Gromov,Pro Open,1979,Russia,87.9,,,,,175,180,-185,180,,,,,,180,90,M,Сергей Громов,B
No,Raw,3,Stanislav Spiridonok,Pro Open,1986,Russia,83,,,,,150,160,-165,160,,,,,,160,90,M,Станислав Спиридонок,B
No,Raw,1,Vladimir Raimov,Pro Juniors 20-23,1992,Russia,95.6,,,,,-180,190,-200,190,,,,,,190,100,M,Владимир Раимов,B
No,Raw,2,Radik Khabibullin,Pro Juniors 20-23,1993,Russia,92.3,,,,,165,175,-185,175,,,,,,175,100,M,Радик Хабибуллин,B
No,Raw,1,Vladimir Zakharov,Pro Masters 60-64,1955,,99.4,,,,,175,180,185,185,,,,,,185,100,M,,B
No,Raw,1,Roman Gavrilenko,Pro Juniors 20-23,1993,Russia,101.9,,,,,160,167.5,-172.5,167.5,,,,,,167.5,110,M,Роман Гавриленко,B
No,Raw,1,Vladimir Shabliy,Pro Open,1988,Russia,108.4,,,,,185,-195,-197.5,185,,,,,,185,110,M,Владимир Шаблий,B
No,Raw,2,Oleg Zotov,Pro Open,1985,Russia,104,,,,,172.5,-177.5,-177.5,172.5,,,,,,172.5,110,M,Олег Зотов,B
No,Raw,1,Vadim Laptiev,Pro Open,1981,Russia,118.7,,,,,210,-220,220,220,,,,,,220,125,M,Вадим Лаптиев,B
No,Raw,DQ,Vitaliy Belyakov,Pro Open,1983,Russia,117.1,,,,,-220,-220,-220,,,,,,,,125,M,Виталий Беляков,B
No,Raw,1,Oleg Khapaev,Pro Masters 50-54,1964,Russia,122,,,,,200,-210,212.5,212.5,,,,,,212.5,125,M,Олег Хапаев,B
No,Raw,DQ,Dmitriy Kalinin,Pro Open,1989,Russia,133.1,,,,,-205,-205,-205,,,,,,,,140,M,Дмитрий Калинин,B
No,Single-ply,1,Anna Turaeva,Pro Open,1978,Russia,82,,,,,170,180,185,185,-188,,,,,185,82.5,F,Анна Тураева,B
No,Single-ply,1,Stepan Pogosyan,Pro Open,1984,Russia,81.9,,,,,210,-220,-220,210,,,,,,210,82.5,M,Степан Погосян,B
No,Single-ply,1,Vyacheslav Chernobrovyy,Pro Open,1984,Russia,88,,,,,180,-205,-205,180,,,,,,180,90,M,Вячеслав Чернобровый,B
No,Single-ply,1,Sergey Vinnichenko,Pro Open,1974,Russia,91.8,,,,,240,250,-255,250,,,,,,250,100,M,Сергей Винниченко,B
No,Single-ply,DQ,Igor Perepelitsyn,Pro Open,1977,Russia,99.4,,,,,-240,-240,-245,,,,,,,,100,M,Игорь Перепелицын,B
No,Single-ply,1,Aleksey Isaev,Pro Open,1975,Russia,108.4,,,,,220,-240,-240,220,,,,,,220,110,M,Алексей Исаев,B
No,Single-ply,DQ,David Stepanyan,Pro Open,1984,Russia,106.6,,,,,-200,-200,-200,,,,,,,,110,M,Давид Степанян,B
No,Single-ply,1,Vadim Evtushenko,Pro Masters 40-44,1974,Russia,110,,,,,-280,280,-300,280,,,,,,280,110,M,Вадим Евтушенко,B
No,Single-ply,2,Aleksey Isaev,Pro Masters 40-44,1975,Russia,108.4,,,,,220,-240,-240,220,,,,,,220,110,M,Алексей Исаев,B
No,Single-ply,1,Anatoliy Talovasov,Pro Masters 55-59,1960,Russia,116.1,,,,,120,130,-150,130,,,,,,130,125,M,Анатолий Таловасов,B
No,Multi-ply,1,Serafima Aleschenko,Pro Teen 18-19,1997,Russia,56,,,,,85,90,-93,90,,,,,,90,56,F,Серафима Алещенко,B
No,Multi-ply,1,Roman Popov,Pro Open,1977,Russia,74.3,,,,,-170,-170,170,170,,,,,,170,75,M,Роман Попов,B
No,Multi-ply,2,Nikolay Fedotov,Pro Open,1988,Russia,75,,,,,-160,160,-175,160,,,,,,160,75,M,Николай Федотов,B
No,Multi-ply,1,Konstantin Slukin,Pro Open,1990,Russia,99.8,,,,,220,-235,-235,220,,,,,,220,100,M,Константин Слукин,B
No,Multi-ply,1,Andrey Makeev,Pro Open,1985,Russia,102.9,,,,,290,-295,-300,290,,,,,,290,110,M,Андрей Макеев,B
No,Multi-ply,1,Sergey Starodubskiy,Pro Open,1977,Russia,113.8,,,,,282.5,300,-310,300,,,,,,300,125,M,Сергей Стародубский,B
No,Multi-ply,DQ,Evgeniy Chugunov,Pro Open,1983,Russia,119,,,,,-300,-300,-302.5,,,,,,,,125,M,Евгений Чугунов,B
No,Multi-ply,1,Aleksandr Ballod,Pro Open,1979,Russia,155,,,,,-270,270,-300,270,,,,,,270,140+,M,Александр Баллод,B
No,Raw,1,Tatyana Kotlyarova,Pro Open,1994,Russia,52,,,,,,,,,,125,130,135,135,135,52,F,Татьяна Котлярова,D
No,Raw,1,Yuliya Kovaleva,Pro Open,1983,Russia,55.5,,,,,,,,,,115,125,-130,125,125,56,F,Юлия Ковалева,D
No,Raw,1,Olga Boychenko,Pro Masters 45-49,1969,,56,,,,,,,,,,90,100,-105,100,100,56,F,Ольга Бойченко,D
No,Raw,1,Anna Rodnina,Pro Open,1984,Russia,80,,,,,,,,,,165,170,-175,170,170,82.5,F,Анна Роднина,D
No,Raw,1,Aleksandr Antonenko,Pro Open,1989,Russia,66.4,,,,,,,,,,170,180,185,185,185,67.5,M,Александр Антоненко,D
No,Raw,1,Artur Plaksin,Pro Open,1989,Russia,69.9,,,,,,,,,,200,-210,-210,200,200,75,M,Артур Плаксин,D
No,Raw,1,Valeriy Stoyanov,Pro Masters 55-59,1957,Russia,80.7,,,,,,,,,,180,-200,200,200,200,82.5,M,Валерий Стоянов,D
No,Raw,1,Aleksey Orlov,Pro Open,1990,Russia,89.2,,,,,,,,,,260,-280,-280,260,260,90,M,Алексей Орлов,D
No,Raw,2,Stanislav Spiridonok,Pro Open,1986,Russia,83,,,,,,,,,,210,220,-230,220,220,90,M,Станислав Спиридонок,D
No,Raw,1,Daniil Smolyakov,Pro Open,1991,Russia,97.7,,,,,,,,,,280,290,-300,290,290,100,M,Даниил Смоляков,D
No,Raw,2,Nikolay Kolyuchkin,Pro Open,1967,Russia,96.8,,,,,,,,,,220,235,242.5,242.5,242.5,100,M,Николай Колючкин,D
No,Raw,1,Nikolay Kolyuchkin,Pro Masters 45-49,1967,Russia,96.8,,,,,,,,,,220,235,242.5,242.5,242.5,100,M,Николай Колючкин,D
No,Raw,2,Amiran Karpov,Pro Masters 45-49,1968,Russia,96,,,,,,,,,,165,-180,-180,165,165,100,M,Амиран Карпов,D
No,Raw,1,Mikhail Dadonov,Pro Open,1988,Russia,108.2,,,,,,,,,,210,-230,-247.5,210,210,110,M,Михаил Дадонов,D
No,Raw,1,Aleksey Kiselev,Pro Masters 40-44,1974,Russia,109.7,,,,,,,,,,255,265,-272.5,265,265,110,M,Алексей Киселев,D
No,Raw,1,Valeriy Bezborodov,Pro Masters 40-44,1976,Russia,119.6,,,,,,,,,,240,-250,-250,240,240,125,M,Валерий Безбородов,D
No,Raw,1,Dmitriy Bescherov,Pro Open,1991,Russia,153.3,,,,,,,,,,320,-335,-335,320,320,140+,M,Дмитрий Бесчеров,D
No,Single-ply,1,Karina Nebyvaeva,Pro Open,1984,Russia,50.5,,,,,,,,,,130,142.5,150,150,150,52,F,Карина Небываева,D
No,Single-ply,1,Oleg Son,Pro Open,1991,Russia,82.5,,,,,,,,,,235,250,-265,250,250,82.5,M,Олег Сон,D
No,Single-ply,1,Roman Khaustov,Pro Open,1983,Russia,88.5,,,,,,,,,,300,312.5,315,315,315,90,M,Роман Хаустов,D
No,Single-ply,1,Oleg Pichugin,Pro Masters 50-54,1966,Russia,92.8,,,,,,,,,,235,250,-255,250,250,100,M,Олег Пичугин,D
No,Single-ply,1,Yuriy Efimov,Pro Masters 45-49,1969,Russia,102.9,,,,,,,,,,230,250,-260,250,250,110,M,Юрий Ефимов,D
No,Multi-ply,1,Yuriy Ustinov,Pro Masters 40-44,1975,,100,,,,,,,,,,220,230,240,240,240,100,M,Юрий Устинов,D
