Place,Sex,Name,CyrillicName,BodyweightKg,Deadlift1Kg,Deadlift2Kg,Deadlift3Kg,Best3DeadliftKg,Deadlift4Kg,TotalKg,WeightClassKg,Event,Equipment,Tested,Squat1Kg,Squat2Kg,Squat3Kg,Best3SquatKg,Squat4Kg,Bench1Kg,Bench2Kg,Bench3Kg,Best3BenchKg,Bench4Kg,Division,Age,BirthDate
1,M,Maksim Popov #1,Максим Попов,70.6,262.5,-282.5,,262.5,,262.5,75,D,Raw,No,,,,,,,,,,,Pro Open,36,1984-09-03
1,M,Artem Polyakov,Артем Поляков,86.5,310,322.5,-332.5,322.5,,322.5,90,D,Raw,No,,,,,,,,,,,Pro Open,25,1994-12-05
2,M,Ruslan Tashtamirov,Руслан Таштамиров,83.9,285,305,-317.5,305,,305,90,D,Raw,No,,,,,,,,,,,Pro Open,32,1988-07-15
3,M,Kirill Lomanov,Кирилл Ломанов,90,290,-310,-310,290,,290,90,D,Raw,No,,,,,,,,,,,Pro Open,33,1987-07-15
1,M,Evgeniy Kravchenko,Евгений Кравченко,96.5,340,360,375,375,,375,100,D,Raw,No,,,,,,,,,,,Pro Open,33,1986-11-03
2,M,Sergey Gushchin,Сергей Гущин,100,340,360,-370,360,,360,100,D,Raw,No,,,,,,,,,,,Pro Open,45,1974-11-15
3,M,Stanislav Yarukov,Станислав Яруков,97.8,310,-332.5,,310,,310,100,D,Raw,No,,,,,,,,,,,Pro Open,30,1990-07-12
1,M,Sergey Akhlestin,Сергей Ахлестин,109.9,360,380,-385,380,,380,110,D,Raw,No,,,,,,,,,,,Pro Open,31,1989-09-15
2,M,Mikhail Kim,Михаил Ким,101.2,350,-370,370,370,,370,110,D,Raw,No,,,,,,,,,,,Pro Open,40,1980-06-20
1,F,Anastasiya Miganova,Анастасия Миганова,55.7,110,122.5,-132.5,122.5,,322.5,56,SBD,Wraps,No,110,120,130,130,,60,65,70,70,,Pro Open,27,1993-09-15
1,M,Roman Evseev,Роман Евсеев,81.8,200,220,-245,220,,587.5,82.5,SBD,Wraps,No,200,220,-230,220,,140,147.5,,147.5,,Pro Open,27,1993-08-12
1,M,Nikolay Zamp,Николай Замп,97.8,250,260,-270,260,,690,100,SBD,Wraps,No,260,-275,-280,260,,150,160,170,170,,Pro Open,30,1990-03-02
DQ,M,Yuriy Marenkov,Юрий Маренков,99.9,-250,,,,,,100,SBD,Wraps,No,270,-290,,270,,-165,,,,,Pro Open,43,1976-12-18
DQ,M,Yuriy Marenkov,Юрий Маренков,99.9,-250,,,,,,100,SBD,Wraps,No,270,-290,,270,,-165,,,,,Pro Masters 40-44,43,1976-12-18
1,M,Sergey Akhlestin,Сергей Ахлестин,109.9,360,380,,380,,977.5,110,SBD,Wraps,No,360,380,387.5,387.5,,200,210,-217.5,210,,Pro Open,31,1989-09-15
2,M,Anton Belov,Антон Белов,106.2,305,-315,-315,305,,802.5,110,SBD,Wraps,No,280,-290,,280,,210,217.5,-222.5,217.5,,Pro Open,35,1985-03-24
3,M,Maksim Plotnikov,Максим Плотников,107.2,240,257.5,-270,257.5,,710,110,SBD,Wraps,No,250,265,280,280,,160,167.5,172.5,172.5,,Pro Open,37,1983-05-20
1,M,Maksim Talagaev,Максим Талагаев,74.5,200,210,-220,210,,530,75,SBD,Raw,No,185,-195,-200,185,,130,135,-140,135,,Pro Open,23,1997-05-06
1,M,Yakov Stolyarov,Яков Столяров,81.3,200,230,,230,,537.5,82.5,SBD,Raw,No,160,170,185,185,,110,122.5,-127.5,122.5,,Pro Open,35,1985-05-24
1,M,Aleksey Molochkov,Алексей Молочков,81.9,180,190,200,200,,500,82.5,SBD,Raw,No,-150,-160,170,170,,120,125,130,130,,Pro Masters 55-59,58,1962-08-08
1,M,Denis Karpov,Денис Карпов,98.7,,,,,,240,100,B,Single-ply,No,,,,,,240,-250,-250,240,,Pro Open,39,1981-04-20
1,M,Roman Brekhov,Роман Брехов,107.9,,,,,,277.5,110,B,Single-ply,No,,,,,,270,277.5,-285,277.5,,Pro Open,30,1990-02-24
DQ,F,Nataliya Vishnyakova,Наталия Вишнякова,58.2,,,,,,,60,B,Raw,No,,,,,,-65,-65,-65,,,Pro Masters 40-44,40,1980-05-10
1,F,Anna Yatsmenko,Анна Яцменко,67.2,,,,,,60,67.5,B,Raw,No,,,,,,55,60,-62.5,60,,Pro Open,30,1990-04-03
1,F,Nadezhda Vlasova,Надежда Власова,72,,,,,,130,75,B,Raw,No,,,,,,122.5,130,-132.5,130,,Pro Open,38,1982-01-24
1,M,Anton Bukhantsev,Антон Буханцев,76.4,,,,,,120,82.5,B,Raw,No,,,,,,115,120,-125,120,,Pro Open,29,1991-06-22
2,M,Evgeniy Remizevich,Евгений Ремизевич,80.6,,,,,,120,82.5,B,Raw,No,,,,,,110,117.5,120,120,,Pro Open,28,1992-03-03
1,M,Aleksey Kondakov,Алексей Кондаков,82.1,,,,,,145,82.5,B,Raw,No,,,,,,135,145,-152.5,145,,Pro Masters 50-54,50,1970-07-22
1,M,Amir Khusnetdinov,Амир Хуснетдинов,81.8,,,,,,100,82.5,B,Raw,No,,,,,,100,-120,-120,100,,Pro Masters 70-74,72,1948-03-01
1,M,Semen Lyubimskiy,Семен Любимский,88.1,,,,,,175,90,B,Raw,No,,,,,,170,175,-180,175,,Pro Open,34,1986-03-31
1,M,Nikolay Petrokovich,Николай Петрокович,85,,,,,,102.5,90,B,Raw,No,,,,,,90,95,102.5,102.5,,Pro Masters 40-44,41,1979-08-17
1,M,Sergey Semenov,Сергей Семенов,88.3,,,,,,125,90,B,Raw,No,,,,,,120,125,-130,125,,Pro Masters 60-64,61,1959-04-01
1,M,Artur Petrosyan,Артур Петросян,95.8,,,,,,175,100,B,Raw,No,,,,,,172.5,175,-177.5,175,,Pro Masters 50-54,50,1970-02-23
2,M,Eduard Taushunaev,Эдуард Таушунаев,95.9,,,,,,147.5,100,B,Raw,No,,,,,,-145,145,147.5,147.5,,Pro Masters 50-54,54,1966-05-16
1,M,Aleksey Evteev,Алексей Евтеев,102.2,,,,,,230,110,B,Raw,No,,,,,,220,230,-240,230,,Pro Open,26,1994-08-08
2,M,Anton Belov,Антон Белов,106.2,,,,,,217.5,110,B,Raw,No,,,,,,210,217.5,-222.5,217.5,,Pro Open,35,1985-03-24
3,M,Sergey Lisitsyn,Сергей Лисицын,109.1,,,,,,212.5,110,B,Raw,No,,,,,,197.5,205,212.5,212.5,,Pro Open,49,1970-10-26
1,M,Sergey Lisitsyn,Сергей Лисицын,109.1,,,,,,212.5,110,B,Raw,No,,,,,,197.5,205,212.5,212.5,,Pro Masters 45-49,49,1970-10-26
2,M,Sergey Gershtanskiy,Сергей Герштанский,107.3,,,,,,157.5,110,B,Raw,No,,,,,,150,152.5,157.5,157.5,,Pro Masters 45-49,46,1974-04-06
1,M,Aleksey Frolov,Алексей Фролов,115.7,,,,,,205,125,B,Raw,No,,,,,,-205,205,-210,205,,Pro Open,26,1994-05-10
2,M,Andrey Ivanov,Андрей Иванов,115.8,,,,,,190,125,B,Raw,No,,,,,,180,190,-195,190,,Pro Open,44,1976-02-22
1,M,Vitaliy Ishchenko,Виталий Ищенко,115.5,,,,,,192.5,125,B,Raw,No,,,,,,185,190,192.5,192.5,,Pro Masters 45-49,45,1975-07-03
1,M,Andrey Chernyshev,Андрей Чернышев,127.5,,,,,,182.5,140,B,Raw,No,,,,,,170,182.5,-185,182.5,,Pro Open,39,1981-08-24
1,M,Sergey Aladyshev,Сергей Аладышев,137.8,,,,,,180,140,B,Raw,No,,,,,,180,-200,-200,180,,Pro Masters 45-49,49,1971-05-08
1,M,Dmitriy Starov,Дмитрий Старов,123.7,282.5,292.5,-302.5,292.5,,292.5,125,D,Raw,No,,,,,,,,,,,Pro Masters 45-49,47,1973-02-01
1,F,Inna Ozernyuk,Инна Озернюк,51.3,100,-107.5,107.5,107.5,,247.5,52,SBD,Wraps,No,100,-105,-105,100,,40,-45,-45,40,,Amateur Open,31,1989-06-06
1,F,Elizaveta Sarycheva,Елизавета Сарычева,57.8,125,,,125,,340,60,SBD,Wraps,No,130,140,-145,140,,67.5,72.5,75,75,,Amateur Open,22,1998-09-16
1,F,Mariya Volkova,Мария Волкова,65.8,130,145,152.5,152.5,,405,67.5,SBD,Wraps,No,135,145,155,155,,90,97.5,-102.5,97.5,,Amateur Open,25,1995-01-03
1,M,Ivan Rak,Иван Рак,122.8,255,265,277.5,277.5,,727.5,125,SBD,Wraps,No,255,270,280,280,,155,162.5,170,170,,Amateur Open,46,1974-08-27
1,M,Ivan Rak,Иван Рак,122.8,255,265,277.5,277.5,,727.5,125,SBD,Wraps,No,255,270,280,280,,155,162.5,170,170,,Amateur Masters 45-49,46,1974-08-27
1,F,Ekaterina Suchkova,Екатерина Сучкова,44.8,107.5,112.5,-115,112.5,,232.5,48,SBD,Raw,No,75,80,-85,80,,37.5,40,-42.5,40,,Amateur Juniors 20-23,23,1997-05-15
1,F,Elizaveta Smirnova,Елизавета Смирнова,48,107.5,112.5,117.5,117.5,,245,48,SBD,Raw,No,70,75,80,80,,47.5,-52.5,-52.5,47.5,,Amateur Open,25,1995-01-19
1,F,Diana Krekova,Диана Крекова,63.8,122.5,130,135,135,,322.5,67.5,SBD,Raw,No,-95,107.5,115,115,,62.5,67.5,72.5,72.5,,Amateur Juniors 20-23,22,1998-04-25
1,F,Diana Sultanova,Диана Султанова,66.7,125,-137.5,140,140,142.5,285,67.5,SBD,Raw,No,85,95,100,100,,45,-52.5,-52.5,45,,Amateur Open,25,1995-04-15
2,F,Mariya-Agata Ostapenko,Мария-Агата Остапенко,60.4,90,105,112.5,112.5,,282.5,67.5,SBD,Raw,No,90,100,105,105,,60,65,-70,65,,Amateur Open,34,1986-03-26
1,F,Milena Pulbere,Милена Пулбере,74.3,85,95,105,105,,270,75,SBD,Raw,No,85,95,105,105,,52.5,55,60,60,,Amateur Teen 13-15,15,2005-04-03
1,F,Milena Pulbere,Милена Пулбере,74.3,85,95,105,105,,270,75,SBD,Raw,No,85,95,105,105,,52.5,55,60,60,,Amateur Open,15,2005-04-03
1,M,Oleg Chernov,Олег Чернов,82,190,205,-220,205,,515,82.5,SBD,Raw,No,185,195,-205,195,,110,115,-117.5,115,,Amateur Open,34,1986-06-04
2,M,Nikita Drozdov,Никита Дроздов,82.3,165,180,200,200,,482.5,82.5,SBD,Raw,No,145,160,175,175,,95,-107.5,107.5,107.5,,Amateur Open,33,1987-01-18
1,M,Aleksey Gvozdev,Алексей Гвоздев,82.2,220,-227.5,-227.5,220,,520,82.5,SBD,Raw,No,175,190,-192.5,190,,105,110,-112.5,110,,Amateur Masters 45-49,48,1972-03-27
1,M,Maksim Yarlykov,Максим Ярлыков,89.5,255,262.5,270,270,,675,90,SBD,Raw,No,235,245,-252.5,245,,150,160,-165,160,,Amateur Open,35,1984-10-16
2,M,Tigran Sukiasyan,Тигран Сукиасян,88.7,210,-215,-215,210,,575,90,SBD,Raw,No,200,207.5,-215,207.5,,147.5,-155,157.5,157.5,,Amateur Open,32,1987-12-22
3,M,Dmitriy Filippov,Дмитрий Филиппов,87.3,200,210,212.5,212.5,,552.5,90,SBD,Raw,No,195,207.5,-215,207.5,,125,130,132.5,132.5,,Amateur Open,32,1988-02-22
1,M,Sergey Tretyakov,Сергей Третьяков,97.8,180,200,-220,200,,520,100,SBD,Raw,No,150,165,180,180,,130,140,-150,140,,Amateur Masters 40-44,42,1978-08-17
1,M,Ilya Lisitskiy,Илья Лисицкий,100.1,205,215,-225,215,,500,110,SBD,Raw,No,165,175,-185,175,,100,110,-112.5,110,,Amateur Open,27,1993-08-19
1,M,Anton Shurov,Антон Шуров,132.2,250,270,280,280,,705,140,SBD,Raw,No,230,250,-260,250,,160,170,175,175,,Amateur Juniors 20-23,20,2000-06-01
DQ,F,Veronika Grushevskaya,Вероника Грушевская,48,,,,,,,48,B,Raw,No,,,,,,-37.5,-37.5,-37.5,,,Amateur Juniors 20-23,21,1999-07-04
DQ,F,Galina Kravtsova,Галина Кравцова,52,,,,,,,52,B,Raw,No,,,,,,-40,-40,-40,,,Amateur Open,33,1986-11-29
1,F,Svetlana Tolstikova,Светлана Толстикова,52,,,,,,40,52,B,Raw,No,,,,,,35,40,-42.5,40,,Amateur Masters 50-54,53,1967-08-04
1,F,Evgeniya Guseva,Евгения Гусева,59.8,,,,,,62.5,60,B,Raw,No,,,,,,57.5,62.5,-70,62.5,,Amateur Open,43,1976-09-29
1,F,Olga Krichmar,Ольга Кричмар,61.4,,,,,,80,67.5,B,Raw,No,,,,,,75,80,-85,80,,Amateur Open,38,1982-03-09
1,F,Anastasiya Podoprigora,Анастасия Подопригора,66.3,,,,,,75,67.5,B,Raw,No,,,,,,70,-75,75,75,,Amateur Masters 40-44,42,1977-10-03
2,F,Anastasiya Gruzdeva,Анастасия Груздева,65.1,,,,,,45,67.5,B,Raw,No,,,,,,42.5,45,-47.5,45,,Amateur Masters 40-44,41,1979-08-12
1,F,Anna Ermolaeva,Анна Ермолаева,66.8,,,,,,80,67.5,B,Raw,No,,,,,,75,80,-82.5,80,,Amateur Masters 45-49,45,1975-04-27
1,F,Irina Podnebesnaya,Ирина Поднебесная,82.1,,,,,,40,82.5,B,Raw,No,,,,,,37.5,40,-45,40,,Amateur Masters 40-44,43,1977-02-28
1,F,Anastasiya Loginova,Анастасия Логинова,83.9,,,,,,65,90,B,Raw,No,,,,,,62.5,-65,65,65,,Amateur Open,25,1995-04-04
1,M,Nikita Vyshinskiy,Никита Вышинский,47.9,,,,,,35,56,B,Raw,No,,,,,,-30,30,35,35,,Amateur Youth,12,2007-11-30
1,M,Georgiy Tibilov,Георгий Тибилов,60,,,,,,115,60,B,Raw,No,,,,,,112.5,-115,115,115,,Amateur Juniors 20-23,22,1997-11-24
1,M,Aleksey Bespelyukhin,Алексей Беспелюхин,67.5,,,,,,107.5,67.5,B,Raw,No,,,,,,100,107.5,-115,107.5,,Amateur Teen 16-17,16,2003-10-01
2,M,Andrey Agafonov,Андрей Агафонов,61.1,,,,,,85,67.5,B,Raw,No,,,,,,80,-85,85,85,,Amateur Teen 16-17,17,2003-08-25
3,M,Gleb Miroshnikov,Глеб Мирошников,64.5,,,,,,60,67.5,B,Raw,No,,,,,,50,60,-65,60,,Amateur Teen 16-17,16,2004-07-10
1,M,Igor Zlobin,Игорь Злобин,67,,,,,,105,67.5,B,Raw,No,,,,,,105,-112.5,-112.5,105,,Amateur Masters 50-54,54,1966-03-17
1,M,Ilya Sokov,Илья Соков,72.6,,,,,,130,75,B,Raw,No,,,,,,120,125,130,130,,Amateur Juniors 20-23,23,1997-02-13
1,M,Daniil Borisov,Даниил Борисов,80.2,,,,,,110,82.5,B,Raw,No,,,,,,110,-115,-115,110,,Amateur Juniors 20-23,21,1998-12-04
1,M,Aleksey Kozhevnikov,Алексей Кожевников,82.2,,,,,,175,82.5,B,Raw,No,,,,,,165,170,175,175,,Amateur Open,36,1983-12-20
2,M,Aleksey Zakharov,Алексей Захаров,82.5,,,,,,162.5,82.5,B,Raw,No,,,,,,162.5,-170,-170,162.5,,Amateur Open,32,1988-07-07
DQ,M,Mikhail Bobkin,Михаил Бобкин,81.2,,,,,,,82.5,B,Raw,No,,,,,,-122.5,,,,,Amateur Open,37,1983-01-12
1,M,Artem Mishchenko,Артем Мищенко,87.9,,,,,,185,90,B,Raw,No,,,,,,180,182.5,185,185,,Amateur Open,36,1984-06-26
1,M,Oleg Dymov,Олег Дымов,89,,,,,,160,90,B,Raw,No,,,,,,150,155,160,160,,Amateur Masters 50-54,50,1970-05-02
1,M,Andrey Galkin,Андрей Галкин,85.7,,,,,,140,90,B,Raw,No,,,,,,-130,140,-145,140,,Amateur Masters 55-59,57,1963-08-04
1,M,Leonid Smirnov,Леонид Смирнов,89.9,,,,,,120,90,B,Raw,No,,,,,,-120,120,-125,120,,Amateur Masters 60-64,62,1957-09-26
1,M,Kalimulla Murzakhanov,Калимулла Мурзаханов,88.5,,,,,,115,90,B,Raw,No,,,,,,110,115,-117.5,115,,Amateur Masters 65-69,65,1955-07-29
1,M,Anton Tarasov,Антон Тарасов,98,,,,,,165,100,B,Raw,No,,,,,,165,-170,-170,165,,Amateur Open,33,1986-11-09
2,M,Pavel Naumov,Павел Наумов,95.3,,,,,,160,100,B,Raw,No,,,,,,150,-160,160,160,,Amateur Open,35,1985-07-12
3,M,Maksim Danielyan,Максим Даниелян,99.2,,,,,,150,100,B,Raw,No,,,,,,145,150,-155,150,,Amateur Open,25,1995-01-25
4,M,Vitaliy Burdin,Виталий Бурдин,93.7,,,,,,100,100,B,Raw,No,,,,,,100,-105,-105,100,,Amateur Open,39,1981-09-04
DQ,M,Aleksandr Martyshin,Александр Мартышин,90.9,,,,,,,100,B,Raw,No,,,,,,-160,-165,-165,,,Amateur Open,33,1986-10-15
1,M,Andrey Bragin,Андрей Брагин,98,,,,,,162.5,100,B,Raw,No,,,,,,152.5,157.5,162.5,162.5,,Amateur Masters 40-44,44,1976-05-07
2,M,Anatoliy Sibirko,Анатолий Сибирко,93.4,,,,,,145,100,B,Raw,No,,,,,,145,-157.5,-157.5,145,,Amateur Masters 40-44,43,1977-05-15
DQ,M,Dmitriy Zaytsev,Дмитрий Зайцев,97.1,,,,,,,100,B,Raw,No,,,,,,-160,-165,-165,,,Amateur Masters 40-44,43,1976-10-16
1,M,Evgeniy Grishin,Евгений Гришин,106.8,,,,,,190,110,B,Raw,No,,,,,,175,185,190,190,,Amateur Open,33,1987-07-05
2,M,Yan Zhurkin,Ян Журкин,106,,,,,,180,110,B,Raw,No,,,,,,170,180,-182.5,180,,Amateur Open,34,1985-11-05
3,M,Maksim Nikiforov,Максим Никифоров,101.1,,,,,,160,110,B,Raw,No,,,,,,150,160,,160,,Amateur Open,38,1982-05-19
4,M,Ruslan Bakulin,Руслан Бакулин,106.9,,,,,,150,110,B,Raw,No,,,,,,-150,150,-160,150,,Amateur Open,32,1988-06-18
1,M,Kirill Remin,Кирилл Ремин,103.3,,,,,,170,110,B,Raw,No,,,,,,170,-180,-180,170,,Amateur Masters 45-49,45,1975-08-13
1,M,Pavel Bukhantsev,Павел Буханцев,108.9,,,,,,180,110,B,Raw,No,,,,,,170,180,-185,180,,Amateur Masters 50-54,51,1969-08-02
1,M,Saidmagomed Babuev,Саидмагомед Бабуев,115.5,,,,,,200,125,B,Raw,No,,,,,,195,200,-205,200,,Amateur Open,32,1988-01-12
2,M,Georgiy Khachatryan,Георгий Хачатрян,119,,,,,,200,125,B,Raw,No,,,,,,190,200,-202.5,200,,Amateur Open,34,1986-07-23
3,M,Kirill Anatolev,Кирилл Анатольев,118.1,,,,,,140,125,B,Raw,No,,,,,,140,-155,-155,140,,Amateur Open,33,1987-03-18
1,M,Anatoliy Dokuchaev,Анатолий Докучаев,122.6,,,,,,177.5,125,B,Raw,No,,,,,,172.5,-177.5,177.5,177.5,,Amateur Masters 40-44,44,1976-07-08
1,M,Vladimir Chubarov,Владимир Чубаров,125,,,,,,165,125,B,Raw,No,,,,,,165,-170,-170,165,,Amateur Masters 55-59,56,1964-04-03
1,M,Evgeniy Zuykov,Евгений Зуйков,129.6,,,,,,215,140,B,Raw,No,,,,,,210,215,,215,,Amateur Open,26,1994-05-10
1,F,Marina Pavlova,Марина Павлова,56,100,107.5,115,115,,115,56,D,Raw,No,,,,,,,,,,,Amateur Masters 45-49,47,1973-04-19
1,F,Ekaterina Litvinenko,Екатерина Литвиненко,58.2,110,-120,-120,110,,110,60,D,Raw,No,,,,,,,,,,,Amateur Open,35,1985-05-27
1,F,Mariya Zhemerikina,Мария Жемерикина,59.3,100,107.5,110,110,,110,60,D,Raw,No,,,,,,,,,,,Amateur Masters 40-44,42,1978-09-02
1,F,Diana Sultanova,Диана Султанова,66.7,125,-137.5,140,140,142.5,140,67.5,D,Raw,No,,,,,,,,,,,Amateur Open,25,1995-04-15
1,F,Svetlana Bolshakova,Светлана Большакова,66.1,120,135,147.5,147.5,,147.5,67.5,D,Raw,No,,,,,,,,,,,Amateur Masters 45-49,45,1975-05-27
2,F,Elena Serdyuchenko,Елена Сердюченко,63,50,55,57.5,57.5,,57.5,67.5,D,Raw,No,,,,,,,,,,,Amateur Masters 45-49,48,1972-01-15
1,F,Ekaterina Vasileva,Екатерина Васильева,72.8,142.5,150,-155,150,,150,75,D,Raw,No,,,,,,,,,,,Amateur Open,44,1976-09-07
1,F,Svetlana Zaykovskaya,Светлана Зайковская,88.3,140,155,-160,155,,155,90,D,Raw,No,,,,,,,,,,,Amateur Open,31,1989-07-24
1,M,Sergey Konstantinov,Сергей Константинов,74.2,-185,185,200,200,,200,75,D,Raw,No,,,,,,,,,,,Amateur Open,40,1979-10-12
1,M,Ivan Kopyrin,Иван Копырин,74.7,170,182.5,-190,182.5,,182.5,75,D,Raw,No,,,,,,,,,,,Amateur Masters 50-54,52,1967-10-25
1,M,Nikita Podgornov,Никита Подгорнов,80.3,202.5,215,222.5,222.5,,222.5,82.5,D,Raw,No,,,,,,,,,,,Amateur Open,24,1996-06-06
1,M,Viktor Skokin,Виктор Скокин,77.9,-210,210,225,225,,225,82.5,D,Raw,No,,,,,,,,,,,Amateur Masters 60-64,63,1957-06-20
1,M,Ivan Kondrashin,Иван Кондрашин,88.3,245,255,,255,,255,90,D,Raw,No,,,,,,,,,,,Amateur Open,32,1987-09-29
2,M,Dmitriy Filippov,Дмитрий Филиппов,87.3,200,210,212.5,212.5,,212.5,90,D,Raw,No,,,,,,,,,,,Amateur Open,32,1988-02-22
1,M,Sergey Semenov,Сергей Семенов,88.3,200,210,220,220,225,220,90,D,Raw,No,,,,,,,,,,,Amateur Masters 60-64,61,1959-04-01
1,M,Denis Gavrilov,Денис Гаврилов,98,210,225,237.5,237.5,,237.5,100,D,Raw,No,,,,,,,,,,,Amateur Open,33,1986-10-27
2,M,Ivan Proskurnin,Иван Проскурнин,99.6,180,195,-207.5,195,,195,100,D,Raw,No,,,,,,,,,,,Amateur Open,27,1993-08-02
3,M,Mikhail Myzenkov,Михаил Мызенков,91.2,170,180,190,190,,190,100,D,Raw,No,,,,,,,,,,,Amateur Open,35,1985-02-12
1,M,Petr Battakhov,Петр Баттахов,99.3,185,200,-210,200,,200,100,D,Raw,No,,,,,,,,,,,Amateur Masters 65-69,68,1952-04-21
1,M,Ruslan Kulebyakin,Руслан Кулебякин,106.8,250,260,-273,260,,260,110,D,Raw,No,,,,,,,,,,,Amateur Open,29,1991-02-26
1,M,Aleksandr Shlyakhitskiy,Александр Шляхитский,104.1,240,260,267.5,267.5,,267.5,110,D,Raw,No,,,,,,,,,,,Amateur Masters 40-44,40,1980-02-09
1,M,Andrey Dyachev,Андрей Дьячев,111,240,255,260,260,,260,125,D,Raw,No,,,,,,,,,,,Amateur Open,36,1984-04-15
1,M,Ivan Rak,Иван Рак,122.8,255,265,277.5,277.5,,277.5,125,D,Raw,No,,,,,,,,,,,Amateur Masters 45-49,46,1974-08-27
1,M,Mikhail Baranov,Михаил Баранов,123.5,225,-242.5,-242.5,225,,225,125,D,Raw,No,,,,,,,,,,,Amateur Masters 60-64,63,1957-03-02
1,M,Anton Mikhalin,Антон Михалин,139.2,240,270,-297.5,270,,270,140,D,Raw,No,,,,,,,,,,,Amateur Open,33,1987-01-05
2,M,Artem Filatov,Артем Филатов,137.9,200,210,-227.5,210,,210,140,D,Raw,No,,,,,,,,,,,Amateur Open,33,1986-09-26
