Place,Sex,Name,CyrillicName,BodyweightKg,Squat1Kg,Squat2Kg,Squat3Kg,Best3SquatKg,Squat4Kg,Bench1Kg,Bench2Kg,Bench3Kg,Best3BenchKg,Bench4Kg,Deadlift1Kg,Deadlift2Kg,Deadlift3Kg,Best3DeadliftKg,Deadlift4Kg,TotalKg,WeightClassKg,Event,Equipment,Tested,Division,Age,BirthDate
DQ,F,Elena Bystrova,Елена Быстрова,52,-80,-85,-87.5,,,,,,,,,,,,,,52,SBD,Raw,Yes,Open,39,1979-01-27
1,F,Olga Kontsevaya,Ольга Концевая,59.7,90,95,100,100,,50,55,60,60,,100,110,112.5,112.5,,272.5,60,SBD,Raw,Yes,Juniors 20-23,23,1995-07-08
1,F,Evgeniya Ustigova,Евгения Устигова,58.4,-90,90,95,95,,50,-55,-55,50,,90,97.5,105,105,,250,60,SBD,Raw,Yes,Open,33,1985-02-21
1,F,Darya Frolova,Дарья Фролова,67.5,92.5,97.5,100,100,,55,60,-65,60,,100,105,107.5,107.5,,267.5,67.5,SBD,Raw,Yes,Teen 18-19,19,1999-06-21
1,F,Anna Stroganova,Анна Строганова,64.2,105,110,-115,110,,67.5,-72.5,-75,67.5,,120,130,-142.5,130,,307.5,67.5,SBD,Raw,Yes,Open,28,1990-02-24
1,M,Viktor Aun,Виктор Аун,81.4,180,-190,-195,180,,120,-130,130,130,,230,240,250,250,,560,82.5,SBD,Raw,Yes,Open,40,1978-05-29
1,M,Viktor Aun,Виктор Аун,81.4,180,-190,-195,180,,120,-130,130,130,,230,240,250,250,,560,82.5,SBD,Raw,Yes,Masters 40-44,40,1978-05-29
1,M,Egor Voronov,Егор Воронов,88,130,140,150,150,,105,110,115,115,,150,160,170,170,,435,90,SBD,Raw,Yes,Teen 16-17,17,2000-11-13
2,M,Sergey Torlopov,Сергей Торлопов,86.4,-80,82.5,-90,82.5,,55,65,-70,65,,110,122.5,130,130,,277.5,90,SBD,Raw,Yes,Teen 16-17,16,2002-04-03
1,M,Evgeniy Vladimirov,Евгений Владимиров,89.3,250,260,-270,260,,150,155,160,160,,240,250,255,255,,675,90,SBD,Raw,Yes,Open,54,1964-08-22
1,M,Evgeniy Vladimirov,Евгений Владимиров,89.3,250,260,-270,260,,150,155,160,160,,240,250,255,255,,675,90,SBD,Raw,Yes,Masters 50-54,54,1964-08-22
1,M,Maksim Ivanov #6,Максим Иванов,95,220,235,-250,235,,145,-155,155,155,,240,260,-280,260,,650,100,SBD,Raw,Yes,Open,29,1989-06-16
1,M,Igor Korobeynikov,Игорь Коробейников,68.3,110,115,-120,115,,70,72.5,-77.5,72.5,,115,117.5,120,120,,307.5,75,SBD,Raw,No,Teen 16-17,17,2001-02-22
1,M,Mikhail Shpilyov,Михаил Шпилёв,81.1,120,140,-150,140,,-110,120,130,130,,140,150,,150,,420,82.5,SBD,Raw,No,Teen 13-15,14,2004-01-22
DQ,M,Pavel Shuraev,Павел Шураев,82.1,-200,-205,-205,,,,,,,,,,,,,,82.5,SBD,Raw,No,Open,27,1991-04-05
1,M,Vladimir Dvurechenskiy,Владимир Двуреченский,82.5,185,195,-200,195,,130,140,-147.5,140,,180,190,200,200,,535,82.5,SBD,Raw,No,Masters 40-44,41,1977-05-29
1,M,Vitaliy Nikolaev,Виталий Николаев,89.7,270,285,300,300,,210,220,-230,220,,300,312.5,,312.5,,832.5,90,SBD,Raw,No,Open,36,1982-04-29
1,M,Artyom Poryadin,Артём Порядин,98.7,250,265,275,275,,175,185,-195,185,,240,260,270,270,,730,100,SBD,Raw,No,Open,23,1995-01-11
2,M,Sergey Shpilev,Сергей Шпилев,98.3,260,-270,-270,260,,150,160,-167.5,160,,250,260,270,270,,690,100,SBD,Raw,No,Open,38,1980-02-17
3,M,Ruslan Yakhontov,Руслан Яхонтов,96.8,200,210,-220,210,,140,147.5,155,155,,220,-230,-240,220,,585,100,SBD,Raw,No,Open,38,1980-01-21
4,M,Sergey Popov,Сергей Попов,97.3,160,180,200,200,,110,120,-130,120,,170,-200,220,220,,540,100,SBD,Raw,No,Open,33,1984-11-12
1,M,Aleksandr Ivanov,Александр Иванов,101.9,240,-260,-270,240,,170,-180,180,180,,250,280,300,300,,720,110,SBD,Raw,No,Open,29,1989-08-21
2,M,Boris Torlopov,Борис Торлопов,110,215,-220,220,220,,155,160,167.5,167.5,,230,240,-260,240,,627.5,110,SBD,Raw,No,Open,42,1976-08-02
1,M,Ivan Popov,Иван Попов,124,140,160,180,180,,120,-132.5,-137.5,120,,170,190,-202.5,190,,490,125,SBD,Raw,No,Teen 13-15,15,2002-12-10
1,M,Babaev Samir,Бабаев Самир,118,220,235,-242.5,235,,160,170,-180,170,,-240,250,260,260,,665,125,SBD,Raw,No,Open,31,1987-01-21
1,M,Vladimir Sviridov,Владимир Свиридов,155,300,320,-330,320,,200,-215,-215,200,,-315,330,345,345,,865,140+,SBD,Raw,No,Open,39,1979-08-09
1,M,Ivan Gubin,Иван Губин,66.5,165,-175,177.5,177.5,,97.5,105,-110,105,,185,195,217.5,217.5,,500,67.5,SBD,Wraps,Yes,Open,24,1994-09-18
1,M,Artem Kortsev,Артем Корцев,88.2,200,215,-225,215,,135,-142.5,145,145,,190,200,-207.5,200,,560,90,SBD,Wraps,Yes,Open,28,1990-06-25
1,F,Viktoriya Soloveva,Виктория Соловьева,51.4,-60,65,70,70,,30,-35,-35,30,,40,45,50,50,,150,52,SBD,Wraps,No,Teen 13-15,15,2003-10-20
1,F,Yuliya Zimina,Юлия Зимина,59,70,80,-85,80,,35,-45,-45,35,,80,90,100,100,,215,60,SBD,Wraps,No,Masters 40-44,41,1977-07-26
1,M,Daniil Sharov,Даниил Шаров,80.6,-180,180,-190,180,,95,-115,-115,95,,190,205,220,220,,495,82.5,SBD,Wraps,No,Teen 18-19,18,2000-10-03
1,M,Aleksandr Karelin,Александр Карелин,87.5,-150,155,-165,155,,110,120,125,125,,190,200,210,210,,490,90,SBD,Wraps,No,Open,39,1978-12-23
1,M,Dmitriy Shchukin,Дмитрий Щукин,99.4,280,290,-300,290,,195,-205,-205,195,,250,260,-270,260,,745,100,SBD,Wraps,No,Open,28,1990-11-03
DQ,M,Aleksandr Orlov,Александр Орлов,99.5,-240,-240,-240,,,,,,,,,,,,,,100,SBD,Wraps,No,Open,31,1987-03-04
1,M,Stanislav Bychkov,Станислав Бычков,88.8,-245,245,-255,245,,-147.5,152.5,157.5,157.5,,250,260,272.5,272.5,,675,90,SBD,Wraps,No,Open,35,1983-04-25
1,M,Aleksandr Kosarev,Александр Косарев,92.2,285,-292.5,-292.5,285,,197.5,-202.5,-202.5,197.5,,270,275,-280,275,,757.5,100,SBD,Wraps,No,Juniors 20-23,22,1996-08-03
1,M,Aleksey Blinov,Алексей Блинов,96.3,-245,255,265,265,,185,200,210,210,,245,255,265,265,,740,100,SBD,Wraps,No,Open,37,1981-10-05
1,M,Evgeniy Golubev,Евгений Голубев,126.7,-180,180,-200,180,,,,,,,,,,,,180,140,S,Raw,No,Open,30,1988-11-09
1,M,Maksim Chepurin,Максим Чепурин,122.1,270,285,-300,285,,,,,,,,,,,,285,125,S,Wraps,No,Open,39,1979-04-05
1,F,Anastasiya Shaternikova,Анастасия Шатерникова,40.9,,,,,,47.5,-50,-50,47.5,,,,,,,47.5,44,B,Raw,Yes,Juniors 20-23,21,1997-05-15
1,F,Viktoriya Antoshchuk,Виктория Антощук,43,,,,,,42.5,45,-47.5,45,,,,,,,45,44,B,Raw,Yes,Open,23,1995-06-12
1,F,Olesya Geraseva,Олеся Герасева,47,,,,,,50,52.5,-55,52.5,,,,,,,52.5,48,B,Raw,Yes,Teen 16-17,17,2001-09-21
1,F,Ekaterina Cherdakova,Екатерина Чердакова,51.9,,,,,,-50,55,57.5,57.5,,,,,,,57.5,52,B,Raw,Yes,Open,23,1995-06-14
1,F,Anna Krasnyanskaya,Анна Краснянская,55,,,,,,60,67.5,-70,67.5,,,,,,,67.5,56,B,Raw,Yes,Open,35,1983-01-21
1,F,Sataney Razova,Сатаней Разова,58.5,,,,,,40,-45,45,45,,,,,,,45,60,B,Raw,Yes,Open,33,1985-10-06
1,F,Irina Kozurman,Ирина Козурман,66.3,,,,,,62.5,67.5,72.5,72.5,,,,,,,72.5,67.5,B,Raw,Yes,Open,31,1987-02-01
DQ,F,Arina Kazakovskaya,Арина Казаковская,66.9,,,,,,-65,-65,-65,,,,,,,,,67.5,B,Raw,Yes,Open,23,1995-08-11
1,F,Anastasiya Kovaleva,Анастасия Ковалева,68,,,,,,40,42.5,45,45,,,,,,,45,75,B,Raw,Yes,Open,25,1993-03-27
1,M,Sergey Sharshavin,Сергей Шаршавин,65.4,,,,,,-142.5,142.5,-145,142.5,,,,,,,142.5,67.5,B,Raw,Yes,Open,29,1989-05-28
1,M,Maksim Vasilev,Максим Васильев,70.5,,,,,,80,90,-95,90,,,,,,,90,75,B,Raw,Yes,Teen 16-17,17,2001-04-07
1,M,Konstantin Kibirev,Константин Кибирев,72.9,,,,,,145,-155,155,155,,,,,,,155,75,B,Raw,Yes,Open,33,1985-07-22
2,M,Anton Klyuchnik,Антон Ключник,74.1,,,,,,147.5,-152.5,-152.5,147.5,,,,,,,147.5,75,B,Raw,Yes,Open,29,1989-08-01
3,M,Ivan Sevostyanov,Иван Севостьянов,73.3,,,,,,142.5,-150,,142.5,,,,,,,142.5,75,B,Raw,Yes,Open,28,1990-04-11
4,M,Anatoliy Pavlov #2,Анатолий Павлов,70.1,,,,,,135,-140,,135,,,,,,,135,75,B,Raw,Yes,Open,31,1987-02-04
5,M,Maksim Usov,Максим Усов,74.1,,,,,,135,-145,-145,135,,,,,,,135,75,B,Raw,Yes,Open,32,1986-05-28
DQ,M,Aleksey Cheremnov,Алексей Черемнов,72.3,,,,,,-135,-135,-135,,,,,,,,,75,B,Raw,Yes,Open,28,1990-04-23
DQ,M,Emil Bakhshiev,Эмиль Бахшиев,74.8,,,,,,-127.5,-135,-135,,,,,,,,,75,B,Raw,Yes,Open,28,1989-12-07
1,M,Sergey Klatik,Сергей Клатик,80.4,,,,,,135,142.5,145.5,145.5,-147.5,,,,,,145.5,82.5,B,Raw,Yes,Open,63,1955-09-12
1,M,Maksim Masalskiy,Максим Масальский,81.8,,,,,,110,-120,120,120,,,,,,,120,82.5,B,Raw,Yes,Masters 40-44,41,1977-01-16
1,M,Igor Omelchuk,Игорь Омельчук,81.1,,,,,,130,135,-145,135,,,,,,,135,82.5,B,Raw,Yes,Masters 55-59,58,1960-05-29
2,M,Ilya Dergunov,Илья Дергунов,82.3,,,,,,115,120,-127.5,120,,,,,,,120,82.5,B,Raw,Yes,Masters 55-59,55,1963-06-11
1,M,Sergey Klatik,Сергей Клатик,80.4,,,,,,135,142.5,145.5,145.5,-147.5,,,,,,145.5,82.5,B,Raw,Yes,Masters 60-64,63,1955-09-12
1,M,Sergey Roslyakov,Сергей Росляков,88.3,,,,,,170,175,180,180,,,,,,,180,90,B,Raw,Yes,Open,31,1986-12-08
1,M,Aleksandr Ponomarev,Александр Пономарев,89.4,,,,,,147.5,155,,155,,,,,,,155,90,B,Raw,Yes,Masters 40-44,41,1976-11-14
1,M,Nikita Kiryakov,Никита Кирьяков,100,,,,,,165,-170,-170,165,,,,,,,165,100,B,Raw,Yes,Juniors 20-23,23,1995-03-21
2,M,Evgeniy Zevakin,Евгений Зевакин,93.2,,,,,,155,-160,-160,155,,,,,,,155,100,B,Raw,Yes,Juniors 20-23,23,1995-08-20
1,M,Evgeniy Buzin,Евгений Бузин,99.6,,,,,,215,-222.5,-225,215,,,,,,,215,100,B,Raw,Yes,Open,31,1987-02-07
2,M,Aleksandr Ageev,Александр Агеев,96.1,,,,,,205,-215,-215,205,,,,,,,205,100,B,Raw,Yes,Open,25,1992-11-26
3,M,Ilya Malygin,Илья Малыгин,92.8,,,,,,145,155,-162.5,155,,,,,,,155,100,B,Raw,Yes,Open,28,1990-03-19
1,M,Vladimir Alekseev,Владимир Алексеев,95.9,,,,,,162.5,165,-167.5,165,,,,,,,165,100,B,Raw,Yes,Masters 55-59,55,1963-05-21
1,M,Vyacheslav Nikolaev,Вячеслав Николаев,95.5,,,,,,140,152.5,-162.5,152.5,,,,,,,152.5,100,B,Raw,Yes,Masters 60-64,62,1956-07-10
1,M,Artyom Pudchenko,Артём Пудченко,103.4,,,,,,80,85,-90,85,,,,,,,85,110,B,Raw,Yes,Teen 16-17,17,2001-03-29
1,M,Vadim Smirnov,Вадим Смирнов,104.8,,,,,,207.5,212.5,217.5,217.5,-220,,,,,,217.5,110,B,Raw,Yes,Open,36,1982-10-13
DQ,M,Yuriy Malchevskiy,Юрий Мальчевский,100.8,,,,,,-130,,,,,,,,,,,110,B,Raw,Yes,Masters 55-59,57,1961-04-11
1,M,Sergey Grebenkin,Сергей Гребенкин,117.9,,,,,,190,202.5,205,205,,,,,,,205,125,B,Raw,Yes,Open,44,1973-12-04
DQ,M,Aleksandr Tsivanyuk,Александр Циванюк,110.5,,,,,,-200,-200,-200,,,,,,,,,125,B,Raw,Yes,Open,36,1981-11-23
1,M,Sergey Grebenkin,Сергей Гребенкин,117.9,,,,,,190,202.5,205,205,,,,,,,205,125,B,Raw,Yes,Masters 40-44,44,1973-12-04
1,F,Anna Vishnyak,Анна Вишняк,56,,,,,,85,-90,-95,85,,,,,,,85,56,B,Raw,No,Open,33,1984-12-12
1,F,Tatyana Sorokina,Татьяна Сорокина,65.2,,,,,,80,-82.5,-82.5,80,,,,,,,80,67.5,B,Raw,No,Open,30,1988-09-13
1,M,Vitaliy Nikolaev,Виталий Николаев,89.7,,,,,,210,220,-230,220,,,,,,,220,90,B,Raw,No,Open,36,1982-04-29
2,M,Pavel Chemakin,Павел Чемакин,84.7,,,,,,120,130,140,140,,,,,,,140,90,B,Raw,No,Open,31,1986-11-21
1,M,Mikhail Lapin,Михаил Лапин,87.6,,,,,,110,120,125,125,,,,,,,125,90,B,Raw,No,Masters 45-49,46,1972-08-06
1,M,Dmitriy Shchukin,Дмитрий Щукин,99.4,,,,,,195,-205,-205,195,,,,,,,195,100,B,Raw,No,Open,28,1990-11-03
2,M,Aleksandr Mikhaylov,Александр Михайлов,97.6,,,,,,-170,-180,185,185,,,,,,,185,100,B,Raw,No,Open,35,1983-09-28
3,M,Dmitriy Vasilev,Дмитрий Васильев,99.2,,,,,,130,140,145,145,,,,,,,145,100,B,Raw,No,Open,33,1985-01-27
DQ,M,Viktor Garanin,Виктор Гаранин,91.4,,,,,,-175,-175,-175,,,,,,,,,100,B,Raw,No,Open,24,1994-07-15
DQ,M,Dorian Moroz,Дориан Мороз,98.6,,,,,,-170,-177.5,-177.5,,,,,,,,,100,B,Raw,No,Open,30,1988-04-11
1,M,Maksim Gramatunov,Максим Граматунов,99.8,,,,,,100,-120,-120,100,,,,,,,100,100,B,Raw,No,Masters 40-44,42,1976-08-25
1,M,Semyon Akulinin,Семён Акулинин,101.2,,,,,,167.5,175,180,180,,,,,,,180,110,B,Raw,No,Open,33,1984-12-18
DQ,M,Petr Pachin,Петр Пачин,111,,,,,,-150,,,,,,,,,,,125,B,Raw,No,Open,29,1988-11-12
1,M,Vladimir Simonenko,Владимир Симоненко,115.1,,,,,,110,130,140,140,,,,,,,140,125,B,Raw,No,Masters 55-59,58,1960-09-02
1,M,Evgeniy Golubev,Евгений Голубев,126.7,,,,,,150,-160,-160,150,,,,,,,150,140,B,Raw,No,Open,30,1988-11-09
1,M,Sergey Gladkov,Сергей Гладков,150,,,,,,200,215,-230,215,,,,,,,215,140+,B,Raw,No,Open,24,1994-08-25
DQ,M,Aleksandr Rogatenko,Александр Рогатенко,82.4,,,,,,-180,-180,-180,,,,,,,,,82.5,B,Raw,Yes,Open,36,1982-05-07
1,M,Maksim Sobolev,Максим Соболев,108.1,,,,,,210,-220,-227.5,210,,,,,,,210,110,B,Raw,Yes,Masters 40-44,40,1978-09-04
1,M,Konstantin Pleshkov,Константин Плешков,98.3,,,,,,210,217.5,222.5,222.5,,,,,,,222.5,100,B,Single-ply,No,Open,44,1974-02-23
1,M,Konstantin Pleshkov,Константин Плешков,98.3,,,,,,210,217.5,222.5,222.5,,,,,,,222.5,100,B,Single-ply,No,Masters 40-44,44,1974-02-23
1,M,Oleg Pashkov,Олег Пашков,107.6,,,,,,-245,-250,250,250,,,,,,,250,110,B,Single-ply,No,Open,32,1986-07-04
1,M,Andrey Bashkov,Андрей Башков,116,,,,,,-305,305,-320,305,,,,,,,305,125,B,Single-ply,No,Open,37,1981-09-23
1,M,Yaroslav Andrianov,Ярослав Андрианов,119,,,,,,315,-330,-340,315,,,,,,,315,125,B,Multi-ply,Yes,Open,32,1986-07-11
1,M,Roman Rebushev,Роман Ребушев,125.4,,,,,,230,240,-250,240,,,,,,,240,140,B,Multi-ply,Yes,Open,32,1986-07-16
1,M,Evgeniy Nechaev,Евгений Нечаев,82.4,,,,,,295,310,-315,310,,,,,,,310,82.5,B,Multi-ply,No,Open,40,1978-02-10
1,M,Viktor Mistratov,Виктор Мистратов,107.1,,,,,,315,332.5,-345,332.5,,,,,,,332.5,110,B,Multi-ply,No,Open,37,1981-02-10
1,F,Oksana Levenets,Оксана Левенец,51.6,,,,,,60,70,-80,70,,,,,,,70,52,B,Multi-ply,Yes,Open,43,1975-10-16
1,F,Oksana Levenets,Оксана Левенец,51.6,,,,,,60,70,-80,70,,,,,,,70,52,B,Multi-ply,Yes,Masters 40-44,43,1975-10-16
1,F,Anna Stroganova,Анна Строганова,64.2,,,,,,90,95,-100,95,,,,,,,95,67.5,B,Multi-ply,Yes,Open,28,1990-02-24
1,M,Andrey Kolbin,Андрей Колбин,71.6,,,,,,-160,160,-182.5,160,,,,,,,160,75,B,Multi-ply,Yes,Open,34,1984-07-22
1,M,Ruslan Mazurov,Руслан Мазуров,82,,,,,,-190,190,-200,190,,,,,,,190,82.5,B,Multi-ply,Yes,Open,37,1981-09-06
2,M,Aleksandr Balundz,Александр Балундз,82.5,,,,,,-180,180,-200,180,,,,,,,180,82.5,B,Multi-ply,Yes,Open,34,1984-07-17
1,M,Aleksandr Ponomarev,Александр Пономарев,89.4,,,,,,-220,220,231,231,,,,,,,231,90,B,Multi-ply,Yes,Open,41,1976-11-14
2,M,Pavel Kostyurin,Павел Костюрин,86.3,,,,,,215,-230,-230,215,,,,,,,215,90,B,Multi-ply,Yes,Open,28,1989-12-29
1,M,Aleksandr Ponomarev,Александр Пономарев,89.4,,,,,,-220,220,231,231,,,,,,,231,90,B,Multi-ply,Yes,Masters 40-44,41,1976-11-14
DQ,M,Fedor Musin,Федор Мусин,98.4,,,,,,-190,-190,-200,,,,,,,,,100,B,Multi-ply,Yes,Open,26,1992-05-15
1,M,Dmitriy Andryushchenko,Дмитрий Андрющенко,122.4,,,,,,290,300,-312.5,300,,,,,,,300,125,B,Multi-ply,Yes,Open,35,1983-10-24
1,F,Anna Vishnyak,Анна Вишняк,56,,,,,,102.5,117.5,125,125,130,,,,,,125,56,B,Multi-ply,No,Open,33,1984-12-12
1,M,Arseniy Avsievich,Арсений Авсиевич,73.7,,,,,,185,195,-215,195,,,,,,,195,75,B,Multi-ply,No,Open,27,1991-06-01
1,M,Aleksey Verkhoturov,Алексей Верхотуров,80.3,,,,,,250,260,-272.5,260,,,,,,,260,82.5,B,Multi-ply,No,Open,35,1983-03-30
2,M,Viktor Plakhuta,Виктор Плахута,81.3,,,,,,235,-255,-255,235,,,,,,,235,82.5,B,Multi-ply,No,Open,32,1985-12-14
3,M,Igor Grin,Игорь Грин,82.4,,,,,,185,-195,-202.5,185,,,,,,,185,82.5,B,Multi-ply,No,Open,28,1990-09-19
1,M,Artem Bykhovets,Артем Быховец,89.3,,,,,,272.5,292.5,-310.5,292.5,,,,,,,292.5,90,B,Multi-ply,No,Open,35,1983-07-19
2,M,Pavel Myshkin,Павел Мышкин,89.1,,,,,,210,220,240,240,,,,,,,240,90,B,Multi-ply,No,Open,34,1984-05-01
1,M,Mikhail Lapin,Михаил Лапин,87.6,,,,,,160,180,-200,180,,,,,,,180,90,B,Multi-ply,No,Masters 45-49,46,1972-08-06
1,M,Aleksey Churkin,Алексей Чуркин,98.7,,,,,,-190,190,200,200,,,,,,,200,100,B,Multi-ply,No,Open,31,1987-07-06
1,M,Aleksey Santev,Алексей Сантьев,96.4,,,,,,-140,-150,150,150,,,,,,,150,100,B,Multi-ply,No,Masters 50-54,50,1968-07-15
1,M,Vadim Zakryzhevskiy,Вадим Закрыжевский,107.8,,,,,,-230,230,-250,230,,,,,,,230,110,B,Multi-ply,No,Open,27,1991-08-27
1,M,Andrey Terekhin,Андрей Терехин,117.7,,,,,,230,250,-265,250,,,,,,,250,125,B,Multi-ply,No,Masters 45-49,45,1973-10-22
1,M,Mikhail Minov,Михаил Минов,134.3,,,,,,200,-215,215,215,,,,,,,215,140,B,Multi-ply,No,Masters 40-44,41,1977-08-10
1,M,Dmitriy Sherin,Дмитрий Шерин,91.9,,,,,,282.5,-302.5,-302.5,282.5,,,,,,,282.5,100,B,Multi-ply,Yes,Open,27,1991-02-17
1,M,Vyacheslav Nikolaev,Вячеслав Николаев,95.5,,,,,,180,-200,-215,180,,,,,,,180,100,B,Multi-ply,Yes,Masters 60-64,62,1956-07-10
1,M,Konstantin Starodubov,Константин Стародубов,124.4,,,,,,280,-320,-320,280,,,,,,,280,125,B,Multi-ply,Yes,Open,36,1982-10-17
1,M,Sergey Fedoseev,Сергей Федосеев,81.3,,,,,,185,192.5,200,200,,,,,,,200,82.5,B,Multi-ply,No,Open,36,1982-01-18
1,M,Dmitriy Savchenko,Дмитрий Савченко,88.35,,,,,,200,-235,-235,200,,,,,,,200,90,B,Multi-ply,No,Open,48,1970-08-03
1,M,Nikolay Efanov,Николай Ефанов,87,,,,,,-182.5,182.5,-190,182.5,,,,,,,182.5,90,B,Multi-ply,No,Masters 60-64,60,1958-07-10
1,M,Vladimir Samoylov,Владимир Самойлов,108,,,,,,330,352.5,360,360,,,,,,,360,110,B,Multi-ply,No,Open,27,1991-05-09
1,F,Elena Bystrova,Елена Быстрова,52,,,,,,,,,,,107.5,117.5,-120,117.5,,117.5,52,D,Raw,Yes,Open,39,1979-01-27
2,F,Irina Spiridonova,Ирина Спиридонова,51.5,,,,,,,,,,,100,107.5,115,115,,115,52,D,Raw,Yes,Open,36,1981-12-18
1,F,Viktoriya Selivanova,Виктория Селиванова,54.3,,,,,,,,,,,75,80,-85,80,,80,56,D,Raw,Yes,Open,30,1988-09-23
1,F,Yuliya Zhavoronkova,Юлия Жаворонкова,66.3,,,,,,,,,,,120,140,-160,140,,140,67.5,D,Raw,Yes,Juniors 20-23,22,1996-02-28
1,F,Marina Veretnova,Марина Веретнова,65,,,,,,,,,,,110,117.5,122.5,122.5,,122.5,67.5,D,Raw,Yes,Open,28,1990-10-09
1,M,Andrey Koftunov,Андрей Кофтунов,73.5,,,,,,,,,,,225,-237.5,-237.5,225,,225,75,D,Raw,Yes,Open,23,1995-06-02
2,M,Dzhalil Kyazimov,Джалил Кязимов,73.9,,,,,,,,,,,200,215,-225,215,,215,75,D,Raw,Yes,Open,24,1993-12-08
1,M,Danil Praded,Данил Прадед,88.6,,,,,,,,,,,185,195,202.5,202.5,,202.5,90,D,Raw,Yes,Teen 16-17,17,2001-07-09
1,M,Daniil Liganov,Даниил Лиганов,88.2,,,,,,,,,,,262.5,267.5,-270,267.5,,267.5,90,D,Raw,Yes,Open,23,1995-04-18
1,M,Denis Petri,Денис Петри,91.1,,,,,,,,,,,240,260,-275,260,,260,100,D,Raw,Yes,Open,24,1994-09-07
1,M,Vyacheslav Nikolaev,Вячеслав Николаев,95.5,,,,,,,,,,,-240,-240,240,240,,240,100,D,Raw,Yes,Masters 60-64,62,1956-07-10
1,F,Anna Vishnyak,Анна Вишняк,56,,,,,,,,,,,150,-165,-165,150,,150,56,D,Raw,No,Open,33,1984-12-12
1,M,Dmitriy Galeev,Дмитрий Галеев,81.9,,,,,,,,,,,-240,240,-250,240,,240,82.5,D,Raw,No,Teen 18-19,18,2000-09-04
1,M,Pavel Shuraev,Павел Шураев,82.1,,,,,,,,,,,240,250,-255,250,,250,82.5,D,Raw,No,Open,27,1991-04-05
1,M,Vitaliy Nikolaev,Виталий Николаев,89.7,,,,,,,,,,,300,312.5,,312.5,,312.5,90,D,Raw,No,Open,36,1982-04-29
2,M,Aleksandr Yushkov,Александр Юшков,89.5,,,,,,,,,,,285,300,-312.5,300,,300,90,D,Raw,No,Open,35,1983-04-24
1,M,Nikolay Efanov,Николай Ефанов,87,,,,,,,,,,,212.5,-225,-225,212.5,,212.5,90,D,Raw,No,Masters 60-64,60,1958-07-10
1,M,Aleksandr Orlov,Александр Орлов,99.5,,,,,,,,,,,240,255,-260,255,,255,100,D,Raw,No,Open,31,1987-03-04
2,M,Dmitriy Vasilev,Дмитрий Васильев,99.2,,,,,,,,,,,-230,-240,250,250,,250,100,D,Raw,No,Open,33,1985-01-27
3,M,Aleksey Churkin,Алексей Чуркин,98.7,,,,,,,,,,,220,230,-240,230,,230,100,D,Raw,No,Open,31,1987-07-06
DQ,M,Aleksandr Orlov,Александр Орлов,99.5,,,,,,,,,,,-245,,,,,,100,D,Raw,No,Open,31,1987-03-04
1,M,Maksim Gramatunov,Максим Граматунов,99.8,,,,,,,,,,,200,210,220,220,,220,100,D,Raw,No,Masters 40-44,42,1976-08-25
1,M,Nikolay Cherepanov,Николай Черепанов,115.4,,,,,,,,,,,300,315,-330,315,,315,125,D,Raw,No,Juniors 20-23,21,1997-09-18
1,M,Maksim Chepurin,Максим Чепурин,122.1,,,,,,,,,,,230,250,-270,250,,250,125,D,Raw,No,Open,39,1979-04-05
1,M,Evgeniy Golubev,Евгений Голубев,126.7,,,,,,,,,,,180,200,215,215,,215,140,D,Raw,No,Open,30,1988-11-09
1,M,Andrey Kolbin,Андрей Колбин,71.6,,,,,,,,,,,200,-222.5,222.5,222.5,-230,222.5,75,D,Raw,Yes,Open,34,1984-07-22
1,M,Aleksandr Rogatenko,Александр Рогатенко,82.4,,,,,,,,,,,240,260.5,-272.5,260.5,,260.5,82.5,D,Raw,Yes,Open,36,1982-05-07
1,M,Sergey Fedoseev,Сергей Федосеев,81.3,,,,,,,,,,,175,190,,190,,190,82.5,D,Raw,No,Open,36,1982-01-18
1,M,Artem Bykhovets,Артем Быховец,89.3,,,,,,,,,,,262.5,282.5,-322.5,282.5,,282.5,90,D,Raw,No,Open,35,1983-07-19
