Place,Sex,Name,CyrillicName,BodyweightKg,Country,Squat1Kg,Squat2Kg,Squat3Kg,Best3SquatKg,Squat4Kg,Bench1Kg,Bench2Kg,Bench3Kg,Best3BenchKg,Bench4Kg,Deadlift1Kg,Deadlift2Kg,Deadlift3Kg,Best3DeadliftKg,Deadlift4Kg,TotalKg,WeightClassKg,Event,Equipment,Tested,Division,Age,BirthDate
1,F,Marina Stepankina,Марина Степанкина,51.4,Russia,82.5,87.5,90,90,,47.5,-50,-50,47.5,,90,95,100,100,,237.5,52,SBD,Raw,Yes,Amateur Juniors 20-23,21,1998-12-17
1,F,Yuliya German,Юлия Герман,51.8,Russia,85,-90,92.5,92.5,,40,42.5,-45,42.5,,115,120,125,125,,260,52,SBD,Raw,Yes,Amateur Open,27,1992-12-28
2,F,Marina Stepankina,Марина Степанкина,51.4,Russia,82.5,87.5,90,90,,47.5,-50,-50,47.5,,90,95,100,100,,237.5,52,SBD,Raw,Yes,Amateur Open,21,1998-12-17
3,F,Snezhana Kokorina,Снежана Кокорина,50.4,Russia,75,80,-85,80,,40,45,-47.5,45,,85,92.5,100,100,,225,52,SBD,Raw,Yes,Amateur Open,36,1983-11-05
1,F,Anna Zemlyanskaya,Анна Землянская,55.2,Ukraine,110,115,-120,115,,65,67.5,70,70,,135,145,-152.5,145,,330,56,SBD,Raw,Yes,Amateur Open,39,1981-03-10
2,F,Olga Ostreyko,Ольга Острейко,53.3,Russia,77.5,-82.5,82.5,82.5,,50,-52.5,-52.5,50,,85,90,-95,90,,222.5,56,SBD,Raw,Yes,Amateur Open,25,1994-09-13
3,F,Firuza Nakopiya,Фируза Накопия,55.3,Russia,45,50,55,55,,40,42.5,-45,42.5,,75,80,85,85,,182.5,56,SBD,Raw,Yes,Amateur Open,34,1985-09-04
1,F,Valentina Kharina,Валентина Харина,66.8,Russia,-120,125,130,130,,100,105,-110,105,,130,140,150,150,,385,67.5,SBD,Raw,Yes,Amateur Open,42,1977-12-24
2,F,Mariya Yadrikhinskaya,Мария Ядрихинская,66.6,Russia,125,132.5,,132.5,,60,65,,65,,120,127.5,-135,127.5,,325,67.5,SBD,Raw,Yes,Amateur Open,38,1982-07-09
DQ,F,Ekaterina Krupskaya,Екатерина Крупская,62,Russia,-110,110,-115,110,,60,65,70,70,,-150,-150,-150,,,,67.5,SBD,Raw,Yes,Amateur Open,21,1999-02-20
DQ,F,Irina Trofimchuk,Ирина Трофимчук,65,Russia,115,120,-125,120,,-65,-65,-65,,,,,,,,,67.5,SBD,Raw,Yes,Amateur Open,32,1988-03-15
1,F,Evgeniya Malysheva,Евгения Малышева,74.8,Russia,120,130,135,135,,55,60,-65,60,,140,-147.5,147.5,147.5,,342.5,75,SBD,Raw,Yes,Amateur Open,36,1984-04-09
2,F,Svetlana Chernobay,Светлана Чернобай,72,Russia,115,125,130,130,,57.5,-62.5,-62.5,57.5,,130,-135,-135,130,,317.5,75,SBD,Raw,Yes,Amateur Open,41,1978-12-08
3,F,Ekaterina Rozhkova,Екатерина Рожкова,71.1,Russia,-57.5,60,62.5,62.5,,-37.5,-40,40,40,,62.5,67.5,72.5,72.5,,175,75,SBD,Raw,Yes,Amateur Open,25,1995-05-08
1,M,Mahmoud Elsayed,,67.2,Egypt,135,150,155,155,,-100,110,-122.5,110,,-215,220,230,230,-240,495,67.5,SBD,Raw,Yes,Amateur Open,28,1992-06-28
2,M,Evgeniy Bayborodin,Евгений Байбородин,65.4,Russia,145,-155,155,155,,95,-100,100,100,,-190,190,200,200,,455,67.5,SBD,Raw,Yes,Amateur Open,33,1987-01-23
1,M,Yaroslav Frolov,Ярослав Фролов,72.8,Russia,110,120,130,130,,62.5,70,-75,70,,110,120,130,130,,330,75,SBD,Raw,Yes,Amateur Teen 14-16,15,2004-12-17
1,M,Andrey Kuznetsov,Андрей Кузнецов,73.4,Russia,172.5,180,185,185,,140,-145,-145,140,,215,227.5,232.5,232.5,,557.5,75,SBD,Raw,Yes,Amateur Juniors 20-23,21,1999-01-31
2,M,Mirtahib Karimov,,73.4,Azerbaijan,160,172.5,182.5,182.5,,-100,-105,105,105,,190,200,212.5,212.5,,500,75,SBD,Raw,Yes,Amateur Juniors 20-23,20,2000-07-03
1,M,Grigoriy Chuprin,Григорий Чуприн,74.4,Russia,120,130,135,135,,97.5,-102.5,-102.5,97.5,,170,180,185,185,,417.5,75,SBD,Raw,Yes,Amateur Open,30,1989-12-10
1,M,Viktor Korunov,Виктор Корунов,69,Russia,115,120,130.5,130.5,,-80,80,-90.5,80,,155,160,165,165,,375.5,75,SBD,Raw,Yes,Amateur Masters 60-69,61,1959-05-01
1,M,Aleksandr Morgunov,Александр Моргунов,79.7,Russia,142.5,152.5,-160,152.5,,-100,100,105,105,,155,170,185,185,200,442.5,82.5,SBD,Raw,Yes,Amateur Teen 14-16,16,2004-01-18
1,M,Konstantin Elsakov,Константин Елсаков,82.4,Russia,210,220,225,225,,135,142.5,-145,142.5,,230,250,-260,250,,617.5,82.5,SBD,Raw,Yes,Amateur Open,30,1990-05-26
2,M,Sergey Denisov,Сергей Денисов,80.3,Russia,195,205,-215,205,,135,-145,145,145,,-245,-250,250,250,,600,82.5,SBD,Raw,Yes,Amateur Open,28,1991-09-15
3,M,Aleksey Vorotnikov,Алексей Воротников,82.4,Russia,210,-217.5,-220,210,,130,135,-137.5,135,,230,240,-245,240,,585,82.5,SBD,Raw,Yes,Amateur Open,39,1980-10-08
4,M,Yuriy Donnikov,Юрий Донников,81,Russia,190,200,-205,200,,115,120,125,125,,210,220,-235,220,,545,82.5,SBD,Raw,Yes,Amateur Open,36,1983-12-01
1,M,Vladimir Zhakin,,80,Russia,125,-130,-132.5,125,,85,90,-92.5,90,,125,132.5,137.5,137.5,,352.5,82.5,SBD,Raw,Yes,Amateur Masters 60-69,67,1952-09-15
1,M,Egor Korobeyko,Егор Коробейко,87.7,Russia,165,180,-192.5,180,,125,135,140,140,,160,180,-200,180,,500,90,SBD,Raw,Yes,Amateur Sub-Juniors 17-19,18,2002-03-06
1,M,Mikhail Fedorets,Михаил Федорец,86.6,Russia,190,200,210,210,,130,140,145,145,,220,240,-250,240,,595,90,SBD,Raw,Yes,Amateur Open,31,1989-07-29
2,M,David Stenshin,Давид Стеншин,89.2,Russia,165,175,185,185,,120,-130,-130,120,,180,190,205,205,,510,90,SBD,Raw,Yes,Amateur Open,28,1992-07-02
DQ,M,Nikita Abramov,Никита Абрамов,89.3,Russia,255,-260,-260,255,,-165,-165,-165,,,,,,,,,90,SBD,Raw,Yes,Amateur Open,28,1991-11-29
1,M,Sultan Vorokov,Султан Вороков,99.5,Russia,-170,170,180,180,,135,140,142.5,142.5,,200,210,215,215,,537.5,100,SBD,Raw,Yes,Amateur Juniors 20-23,23,1997-03-24
1,M,Denis Kiselyov,Денис Киселёв,93.3,Russia,190,207.5,-215,207.5,,155,165,172.5,172.5,,-210,225,250,250,,630,100,SBD,Raw,Yes,Amateur Open,23,1997-08-03
2,M,Mikhail Rublev,Михаил Рублев,98.2,Russia,185,200,-210,200,,150,160,167.5,167.5,,220,235,245,245,,612.5,100,SBD,Raw,Yes,Amateur Open,41,1979-06-07
1,M,Oleg Voronov,Олег Воронов,98.1,Russia,-190,-200,200,200,,130,140,150,150,,227.5,235,-242.5,235,,585,100,SBD,Raw,Yes,Amateur Masters 40-49,46,1973-12-24
1,M,Vladimir Makarov,Владимир Макаров,95.8,Russia,137.5,142.5,-147.5,142.5,,92.5,97.5,,97.5,,160,167.5,-172.5,167.5,,407.5,100,SBD,Raw,Yes,Amateur Masters 70-79,74,1946-07-25
1,M,Denis Serov,Денис Серов,105.3,Russia,-160,-160,160,160,,120,130,-140,130,,200,210,215,215,,505,110,SBD,Raw,Yes,Amateur Open,38,1981-09-05
1,M,Denis Astakhov,Денис Астахов,116.7,Russia,290,300,-307.5,300,,150,157.5,,157.5,,275,285,-292.5,285,,742.5,125,SBD,Raw,Yes,Amateur Open,36,1984-05-21
2,M,Nikolay Markin,Николай Маркин,116.1,Russia,210,235,-250,235,,150,165,175,175,,250,270,-285,270,,680,125,SBD,Raw,Yes,Amateur Open,39,1981-03-14
1,M,Lev Samarin,Лев Самарин,137,Russia,255,265,-275,265,,135,142.5,-147.5,142.5,,285,-302.5,,285,,692.5,140,SBD,Raw,Yes,Amateur Open,37,1983-05-28
1,F,Yuliya Zhuk,Юлия Жук,47.75,Russia,92.5,-97.5,-97.5,92.5,,42.5,-45,45,45,,110,117.5,-122.5,117.5,,255,48,SBD,Raw,No,Pro Open,34,1986-04-01
1,F,Yuliya Abramova,Юлия Абрамова,55.1,Russia,-132.5,137.5,145,145,,70,-75,75,75,,172.5,-185,185,185,,405,56,SBD,Raw,No,Pro Open,38,1982-06-29
1,F,Elena Bondarchuk,Елена Бондарчук,60,Russia,-135,135,142.5,142.5,,87.5,90,-92.5,90,,157.5,-167.5,-167.5,157.5,,390,60,SBD,Raw,No,Pro Open,40,1980-06-18
2,F,Nadezhda Logvinova,Надежда Логвинова,60,Russia,120,130,-135,130,,72.5,80,-85,80,,125,135,140,140,,350,60,SBD,Raw,No,Pro Open,34,1986-07-27
3,F,Yuliya Natekina,Юлия Натекина,59.9,Russia,77.5,85,92.5,92.5,,40,45,-50,45,,80,90,100,100,,237.5,60,SBD,Raw,No,Pro Open,25,1994-12-02
1,F,Darya Starodubova,Дарья Стародубова,79,Russia,160,-170,-170,160,,95,100,-105,100,,165,170,,170,,430,82.5,SBD,Raw,No,Pro Teen 14-16,15,2004-09-27
1,F,Viktoriya Doga,Виктория Дога,77.9,Russia,150,160,165,165,,107.5,115,117.5,117.5,,180,190,-200,190,,472.5,82.5,SBD,Raw,No,Pro Open,37,1982-09-04
2,F,Darya Starodubova,Дарья Стародубова,79,Russia,160,-170,-170,160,,95,100,-105,100,,165,170,,170,,430,82.5,SBD,Raw,No,Pro Open,15,2004-09-27
1,M,Viktor Korunov,Виктор Корунов,69,Russia,115,120,130.5,130.5,,-80,80,-90.5,80,,155,160,165,165,,375.5,75,SBD,Raw,No,Pro Masters 60-69,61,1959-05-01
1,M,Ivan Tsaryov,Иван Царёв,88.6,Russia,235,242.5,-250,242.5,,155,162.5,170,170,,245,252.5,260,260,,672.5,90,SBD,Raw,No,Pro Open,35,1985-01-29
2,M,Dmitriy Golubev,Дмитрий Голубев,90,Russia,220,230,240,240,,160,170,175,175,,220,232.5,242.5,242.5,,657.5,90,SBD,Raw,No,Pro Open,28,1992-02-27
1,M,Artem Riznik,Артем Ризник,98.5,Russia,220,240,260,260,,170,185,200,200,,240,260,280,280,,740,100,SBD,Raw,No,Pro Open,26,1994-05-04
2,M,Valentin Gusev,Валентин Гусев,90.4,Russia,190,-200,-200,190,,135,140,-150,140,,230,240,-245,240,,570,100,SBD,Raw,No,Pro Open,34,1986-06-01
DQ,M,Sergey Pavlov,Сергей Павлов,96.6,Russia,225,237.5,-247.5,237.5,,,,,,,,,,,,,100,SBD,Raw,No,Pro Open,35,1985-05-30
1,M,Ivan Zagorodnyuk,Иван Загороднюк,109.2,Russia,240,-255,255,255,,155,162.5,170,170,,270,285,-300,285,,710,110,SBD,Raw,No,Pro Juniors 20-23,23,1997-05-02
2,M,Ruslan Murzinov,Руслан Мурзинов,101.7,Russia,230,-240,-250,230,,140,150,-160,150,,-230,230,250,250,,630,110,SBD,Raw,No,Pro Juniors 20-23,22,1997-10-16
3,M,Zakir Omarov,Закир Омаров,110,Russia,175,190,205,205,,95,105,115,115,,190,-205,205,205,,525,110,SBD,Raw,No,Pro Juniors 20-23,22,1998-07-31
1,M,Pavel Chukhnov,Павел Чухнов,107,Russia,280,300,310,310,,180,185,190,190,,270,285,290,290,,790,110,SBD,Raw,No,Pro Open,31,1989-03-05
2,M,Yuriy Samsonov,Юрий Самсонов,108.7,Russia,285,-295,-295,285,,200,205,207.5,207.5,,275,280,-295,280,,772.5,110,SBD,Raw,No,Pro Open,37,1982-08-24
3,M,Egor Isakov,Егор Исаков,109.9,Russia,230,240,-250,240,,180,187.5,190,190,,260,272.5,-285,272.5,,702.5,110,SBD,Raw,No,Pro Open,28,1992-03-12
1,M,Aleksey Makarenko,Алексей Макаренко,115.6,Russia,180,-200,200,200,,150,-160,-160,150,,200,220,-230,220,,570,125,SBD,Raw,No,Pro Open,39,1981-02-22
1,M,Aleksandr Zaytsev,Александр Зайцев,112.1,Russia,-290,290,,290,,180,-190,,180,,290,-310,-310,290,,760,125,SBD,Raw,No,Pro Masters 40-49,40,1980-04-06
1,M,Dmitriy Pys,Дмитрий Пысь,125.1,Russia,320,340,-350,340,,210,-220,220,220,,300,325,,325,,885,140,SBD,Raw,No,Pro Open,34,1986-05-04
1,F,Inessa Komlach,Инесса Комлач,51.7,Belarus,-75,75,82.5,82.5,,42.5,45,-47.5,45,,77.5,82.5,87.5,87.5,,215,52,SBD,Wraps,Yes,Amateur Teen 14-16,16,2004-06-05
1,F,Nataliya Katkova,Наталия Каткова,55,Russia,90,97.5,105,105,,55,-60,-60,55,,-100,110,-115,110,,270,56,SBD,Wraps,Yes,Amateur Open,30,1989-08-24
1,M,Bahamin Rahimi,,72,Afghanistan,185,195,-210,195,,100,107.5,112.5,112.5,,210,225,-240,225,,532.5,75,SBD,Wraps,Yes,Amateur Open,27,1993-06-06
1,M,Dmitriy Proskurin,Дмитрий Проскурин,88.1,Russia,-190,190,-200,190,,100,105,107.5,107.5,,160,180,-200,180,,477.5,90,SBD,Wraps,Yes,Amateur Open,26,1994-06-24
DQ,M,Aleksey Zuev,Алексей Зуев,87.5,Russia,-180,-180,-180,,,,,,,,,,,,,,90,SBD,Wraps,Yes,Amateur Open,40,1980-04-16
DQ,M,Aleksey Zuev,Алексей Зуев,87.5,Russia,-180,-180,-180,,,,,,,,,,,,,,90,SBD,Wraps,Yes,Amateur Masters 40-49,40,1980-04-16
1,M,Vladimir Ponomarev,Владимир Пономарев,95.7,Russia,235,250,-260,250,,145,152.5,157.5,157.5,,-215,215,230,230,,637.5,100,SBD,Wraps,Yes,Amateur Open,39,1981-08-03
2,M,Anton Kalinin,Антон Калинин,100,Russia,205,-220,-227.5,205,,150,-157.5,-157.5,150,,195,-205,210,210,,565,100,SBD,Wraps,Yes,Amateur Open,34,1986-07-05
1,M,Azamat Pagov,Азамат Пагов,107,Russia,195,205,215,215,,115,122.5,127.5,127.5,,232.5,-245,-250,232.5,,575,110,SBD,Wraps,Yes,Amateur Open,28,1991-08-10
1,M,Muraz Khakyashev,Мураз Хакяшев,114.1,Russia,205,217.5,225,225,,147.5,-150,152.5,152.5,,242.5,250,260,260,,637.5,125,SBD,Wraps,Yes,Amateur Open,42,1977-12-06
1,M,Vladimir Zhadenov,Владимир Жаденов,73.8,Russia,290,-300,300,300,,180,-190,-190,180,,240,250,-270,250,,730,75,SBD,Wraps,No,Pro Open,33,1987-06-01
2,M,Oleg Novogolub,Олег Новоголуб,74.2,Moldova,190,-205,-205,190,,132.5,140,-145,140,,-200,200,220,220,,550,75,SBD,Wraps,No,Pro Open,25,1995-01-27
1,M,Artyom Bortnik,Артём Бортник,80.7,Belarus,-270,275,-287.5,275,,170,-177.5,-177.5,170,,270,-290,-290,270,,715,82.5,SBD,Wraps,No,Pro Open,25,1995-07-17
DQ,M,Andrey Kryzhanovskiy,Андрей Крыжановский,81.6,Russia,-260,,,,,,,,,,,,,,,,82.5,SBD,Wraps,No,Pro Open,35,1984-10-24
1,M,Konstantin Dremenkov,Константин Дременков,82.4,Belarus,-215,215,225,225,,130,140,-145,140,,235,250,260,260,-267.5,625,82.5,SBD,Wraps,No,Pro Masters 50-59,54,1966-07-21
1,M,Ivan Kachaev,Иван Качаев,88.5,Russia,200,220,235,235,,130,140,150,150,,230,245,-255,245,,630,90,SBD,Wraps,No,Pro Juniors 20-23,23,1996-11-05
2,M,Nikita Zakharov,Никита Захаров,88.3,Russia,200,215,225,225,,120,130,-135,130,,210,230,-240,230,,585,90,SBD,Wraps,No,Pro Juniors 20-23,21,1998-08-31
1,M,Ilya Fedorov,Илья Фёдоров,89.7,Russia,295,310,-320,310,,195,205,210,210,,350,-365,-375,350,,870,90,SBD,Wraps,No,Pro Open,27,1992-08-29
2,M,Lenur Kataev,Ленур Катаев,89.9,Russia,240,250,260,260,,195,-200,-200,195,,250,-265,265,265,,720,90,SBD,Wraps,No,Pro Open,25,1994-10-11
3,M,Oleg Gorbunov,Олег Горбунов,90,Russia,-220,220,252.5,252.5,,170,-180,180,180,,230,245,-260,245,,677.5,90,SBD,Wraps,No,Pro Open,31,1989-02-10
1,M,Yuriy Marenkov,Юрий Маренков,99.7,Russia,260,285,-290,285,,160,170,,170,,255,-265,265,265,,720,100,SBD,Wraps,No,Pro Open,43,1976-12-18
DQ,M,Rauf Apsov,Рауф Апсов,98.6,Russia,-300,-300,-300,,,,,,,,,,,,,,100,SBD,Wraps,No,Pro Open,28,1992-04-16
DQ,M,Timur Bozov,Тимур Бозов,99.2,Russia,-280,-280,-280,,,,,,,,,,,,,,100,SBD,Wraps,No,Pro Open,27,1992-11-13
1,M,Yuriy Marenkov,Юрий Маренков,99.7,Russia,260,285,-290,285,,160,170,,170,,255,-265,265,265,,720,100,SBD,Wraps,No,Pro Masters 40-49,43,1976-12-18
1,M,Anatoliy Markov,Анатолий Марков,93.2,Russia,-180,180,-205,180,,120,135,-140,135,,180,-200,,180,,495,100,SBD,Wraps,No,Pro Masters 60-69,69,1951-01-13
1,M,Sergey Akhlestin,Сергей Ахлестин,108.2,Russia,345,355,-362.5,355,,190,200,205,205,,355,-375,-375,355,,915,110,SBD,Wraps,No,Pro Open,30,1989-09-15
1,M,Ilya Grikin,Илья Грикин,121.9,Russia,270,-290,290,290,,190,200,-205,200,,280,300,,300,,790,125,SBD,Wraps,No,Pro Open,28,1992-04-08
DQ,M,Aleksandr Komkov,Александр Комков,122,Russia,-330,-330,-330,,,,,,,,,,,,,,125,SBD,Wraps,No,Pro Open,36,1983-11-26
DQ,M,Aleksandr Sedykh,Александр Седых,122.6,Russia,360,380,-400,380,,,,,,,,,,,,,125,SBD,Wraps,No,Pro Open,30,1990-05-24
1,M,Aleksandr Lugovoy,Александр Луговой,134.3,Russia,370,390,-400,390,,190,202.5,210,210,,370,-390,-390,370,,970,140,SBD,Wraps,No,Pro Open,24,1995-10-28
1,F,Natalya Sycheva,Наталья Сычева,50.6,Russia,,,,,,47.5,50,52.5,52.5,,,,,,,52.5,52,B,Raw,Yes,Amateur Open,25,1995-06-04
2,F,Elena Lidzhieva,Елена Лиджиева,51.2,Russia,,,,,,40,-45,-45,40,,,,,,,40,52,B,Raw,Yes,Amateur Open,28,1992-06-17
3,F,Elena Shcherbakova,Елена Щербакова,51.5,Russia,,,,,,35,-37.5,-37.5,35,,,,,,,35,52,B,Raw,Yes,Amateur Open,41,1979-04-14
1,F,Elena Shcherbakova,Елена Щербакова,51.5,Russia,,,,,,35,-37.5,-37.5,35,,,,,,,35,52,B,Raw,Yes,Amateur Masters 40-49,41,1979-04-14
1,F,Alina Tokareva,Алина Токарева,55.4,Russia,,,,,,42.5,45,-47.5,45,,,,,,,45,56,B,Raw,Yes,Amateur Teen 14-16,15,2005-06-24
1,F,Lyubov Telegina,Любовь Телегина,55.5,Russia,,,,,,62.5,-65,-65,62.5,,,,,,,62.5,56,B,Raw,Yes,Amateur Open,35,1985-08-05
2,F,Anastasiya Savchuk,Анастасия Савчук,54.3,Russia,,,,,,50,55,60,60,,,,,,,60,56,B,Raw,Yes,Amateur Open,28,1992-03-31
1,F,Olga Maksimchuk,Ольга Максимчук,58.4,Russia,,,,,,42.5,45,-47.5,45,,,,,,,45,60,B,Raw,Yes,Amateur Juniors 20-23,23,1997-07-05
1,F,Ekaterina Rodionova,Екатерина Родионова,56.5,Russia,,,,,,55,57.5,60,60,,,,,,,60,60,B,Raw,Yes,Amateur Open,26,1994-04-02
1,F,Valentina Kharina,Валентина Харина,66.8,Russia,,,,,,100,105,-110,105,,,,,,,105,67.5,B,Raw,Yes,Amateur Open,42,1977-12-24
1,F,Nadezhda Matvienko,Надежда Матвиенко,73.3,Russia,,,,,,102.5,107.5,-110,107.5,,,,,,,107.5,75,B,Raw,Yes,Amateur Open,56,1964-07-27
1,F,Nadezhda Matvienko,Надежда Матвиенко,73.3,Russia,,,,,,102.5,107.5,-110,107.5,,,,,,,107.5,75,B,Raw,Yes,Amateur Masters 50-59,56,1964-07-27
1,M,Vadim Shishkin,Вадим Шишкин,59.1,Russia,,,,,,85,90,-95,90,,,,,,,90,60,B,Raw,Yes,Amateur Sub-Juniors 17-19,19,2000-12-08
1,M,Aleksey Bespelyukhin,Алексей Беспелюхин,65.8,Russia,,,,,,100,107.5,-110,107.5,,,,,,,107.5,67.5,B,Raw,Yes,Amateur Teen 14-16,16,2003-10-01
1,M,Maksim Goncharov,Максим Гончаров,66.5,Russia,,,,,,110,117.5,-125,117.5,,,,,,,117.5,67.5,B,Raw,Yes,Amateur Sub-Juniors 17-19,19,2001-04-01
2,M,Ivan Shcherbakov,Иван Щербаков,61.3,Russia,,,,,,-107.5,107.5,110,110,,,,,,,110,67.5,B,Raw,Yes,Amateur Sub-Juniors 17-19,17,2002-09-26
DQ,M,Anton Kritskiy,Антон Крицкий,66.9,Russia,,,,,,-120,-120,-120,,,,,,,,,67.5,B,Raw,Yes,Amateur Sub-Juniors 17-19,19,2000-12-18
1,M,Andrey Zhilin,Андрей Жилин,67.1,Russia,,,,,,120,125,-127.5,125,,,,,,,125,67.5,B,Raw,Yes,Amateur Open,40,1980-04-05
2,M,Maksim Goncharov,Максим Гончаров,66.5,Russia,,,,,,110,117.5,-125,117.5,,,,,,,117.5,67.5,B,Raw,Yes,Amateur Open,19,2001-04-01
3,M,Valentin Rueda-Suares,Валентин Руэда-Суарес,66.3,Spain,,,,,,97.5,107.5,-117.5,107.5,,,,,,,107.5,67.5,B,Raw,Yes,Amateur Open,30,1990-03-08
1,M,Dmitriy Slutskiy,Дмитрий Слуцкий,66.5,Russia,,,,,,105,115,-120,115,,,,,,,115,67.5,B,Raw,Yes,Amateur Masters 40-49,45,1974-11-16
1,M,Nikita Yurchenko,Никита Юрченко,69.7,Russia,,,,,,92.5,97.5,-102.5,97.5,,,,,,,97.5,75,B,Raw,Yes,Amateur Teen 14-16,16,2004-08-06
1,M,Daniil Shishlyannikov,Даниил Шишлянников,69.7,Russia,,,,,,92.5,-95,95,95,,,,,,,95,75,B,Raw,Yes,Amateur Sub-Juniors 17-19,18,2002-04-05
2,M,Konstantin Sizentsev,Константин Сизенцев,69.4,Russia,,,,,,70,75,-82.5,75,,,,,,,75,75,B,Raw,Yes,Amateur Sub-Juniors 17-19,19,2000-12-02
1,M,Ivan Karpov,Иван Карпов,73.5,Russia,,,,,,125,130,-135,130,,,,,,,130,75,B,Raw,Yes,Amateur Open,32,1987-12-09
1,M,Viktor Korunov,Виктор Корунов,69,Russia,,,,,,-80,80,-90.5,80,,,,,,,80,75,B,Raw,Yes,Amateur Masters 60-69,61,1959-05-01
1,M,Maksim Samoylov,Максим Самойлов,79.8,Russia,,,,,,-135,-135,135,135,,,,,,,135,82.5,B,Raw,Yes,Amateur Open,24,1996-05-04
2,M,Dmitriy Danilin,Дмитрий Данилин,81,Russia,,,,,,-110,110,-127.5,110,,,,,,,110,82.5,B,Raw,Yes,Amateur Open,31,1988-12-08
1,M,Filipp Aksenov,Филипп Аксенов,83.4,Russia,,,,,,120,130,132.5,132.5,,,,,,,132.5,90,B,Raw,Yes,Amateur Teen 14-16,16,2003-08-29
1,M,Evgeniy Mazur,Евгений Мазур,90,Russia,,,,,,185,192.5,197.5,197.5,,,,,,,197.5,90,B,Raw,Yes,Amateur Open,29,1990-11-30
2,M,Farrukh Shakirov,Фаррух Шакиров,89.6,Tajikistan,,,,,,170,177.5,180,180,,,,,,,180,90,B,Raw,Yes,Amateur Open,32,1987-08-16
3,M,Artem Mishchenko,Артем Мищенко,89.5,Russia,,,,,,-170,177.5,-180,177.5,,,,,,,177.5,90,B,Raw,Yes,Amateur Open,36,1984-06-26
4,M,Fedor Zhirkov,Федор Жирков,88.7,Russia,,,,,,167.5,175,-180,175,,,,,,,175,90,B,Raw,Yes,Amateur Open,36,1984-01-19
5,M,Sosruko Uligov,Сосруко Улигов,89.3,Russia,,,,,,147.5,155,160,160,,,,,,,160,90,B,Raw,Yes,Amateur Open,37,1983-04-22
6,M,Ruslan Sadykov,Руслан Садыков,90,Russia,,,,,,-142.5,142.5,-147.5,142.5,,,,,,,142.5,90,B,Raw,Yes,Amateur Open,49,1971-03-16
DQ,M,Nikita Abramov,Никита Абрамов,89.3,Russia,,,,,,-165,-165,-165,,,,,,,,,90,B,Raw,Yes,Amateur Open,28,1991-11-29
DQ,M,Anton Dostavalov,Антон Доставалов,89.9,Russia,,,,,,-170,-175,,,,,,,,,,90,B,Raw,Yes,Amateur Open,27,1993-05-23
1,M,Ruslan Sadykov,Руслан Садыков,90,Russia,,,,,,-142.5,142.5,-147.5,142.5,,,,,,,142.5,90,B,Raw,Yes,Amateur Masters 40-49,49,1971-03-16
1,M,Leonid Smirnov,Леонид Смирнов,90,Russia,,,,,,117.5,122.5,-125,122.5,,,,,,,122.5,90,B,Raw,Yes,Amateur Masters 60-69,62,1957-09-26
1,M,Vladimir Pleshkov,Владимир Плешков,84,Russia,,,,,,115,122.5,-125,122.5,,,,,,,122.5,90,B,Raw,Yes,Amateur Masters 70-79,75,1944-08-29
2,M,Vladimir Klimenko,Владимир Клименко,87,Russia,,,,,,100,-110,-110,100,,,,,,,100,90,B,Raw,Yes,Amateur Masters 70-79,75,1945-03-12
1,M,Sultan Vorokov,Султан Вороков,99.5,Russia,,,,,,135,140,142.5,142.5,,,,,,,142.5,100,B,Raw,Yes,Amateur Juniors 20-23,23,1997-03-24
1,M,Konstantin Dyomkin,Константин Дёмкин,97.7,Russia,,,,,,162.5,-165,-170,162.5,,,,,,,162.5,100,B,Raw,Yes,Amateur Open,36,1984-03-07
2,M,Anton Kalinin,Антон Калинин,100,Russia,,,,,,150,-157.5,-157.5,150,,,,,,,150,100,B,Raw,Yes,Amateur Open,34,1986-07-05
1,M,Maksim Bashkevich,Максим Башкевич,99.3,Russia,,,,,,157.5,162.5,-167.5,162.5,,,,,,,162.5,100,B,Raw,Yes,Amateur Masters 40-49,44,1975-09-02
1,M,Sergey Strakhalis,Сергей Страхалис,95.4,Belarus,,,,,,140,145,150,150,,,,,,,150,100,B,Raw,Yes,Amateur Masters 50-59,57,1963-03-10
1,M,Viktor Vasilev,Виктор Васильев,99.3,Russia,,,,,,115,120,125,125,,,,,,,125,100,B,Raw,Yes,Amateur Masters 60-69,66,1954-02-09
1,M,Georgiy Sasania,Георгий Сасаниа,107.6,Russia,,,,,,220,-231,231,231,,,,,,,231,110,B,Raw,Yes,Amateur Open,27,1993-02-14
2,M,Inal Kilyarov,Инал Киляров,106.4,Russia,,,,,,192.5,197.5,200,200,,,,,,,200,110,B,Raw,Yes,Amateur Open,26,1994-02-13
3,M,Aleksandr Kostin,Александр Костин,107.2,Russia,,,,,,-155,-162.5,167.5,167.5,,,,,,,167.5,110,B,Raw,Yes,Amateur Open,25,1995-03-04
4,M,Magomed Tsurov,Магомед Цуров,108.3,Russia,,,,,,140,147.5,-152.5,147.5,,,,,,,147.5,110,B,Raw,Yes,Amateur Open,29,1991-07-01
DQ,M,Andrey Zaykin,Андрей Зайкин,109.4,Russia,,,,,,-190,-200,-200,,,,,,,,,110,B,Raw,Yes,Amateur Open,36,1984-01-21
1,M,Kirill Ostapenko,Кирилл Остапенко,102.1,Russia,,,,,,165,172.5,177.5,177.5,,,,,,,177.5,110,B,Raw,Yes,Amateur Masters 40-49,42,1977-10-19
1,M,Albert Shomakhov,Альберт Шомахов,106.4,Russia,,,,,,182.5,190,197.5,197.5,,,,,,,197.5,110,B,Raw,Yes,Amateur Masters 50-59,52,1968-06-08
2,M,Denis Ogloblin,Денис Оглоблин,108.5,Russia,,,,,,155,160,-162.5,160,,,,,,,160,110,B,Raw,Yes,Amateur Masters 50-59,53,1967-05-12
1,M,Evgeniy Usoltsev,Евгений Усольцев,122.9,Russia,,,,,,-200,-207.5,207.5,207.5,,,,,,,207.5,125,B,Raw,Yes,Amateur Open,50,1970-02-01
1,M,Evgeniy Usoltsev,Евгений Усольцев,122.9,Russia,,,,,,-200,-207.5,207.5,207.5,,,,,,,207.5,125,B,Raw,Yes,Amateur Masters 50-59,50,1970-02-01
2,M,Pavel Perov,Павел Перов,115.3,Russia,,,,,,160,170,180,180,,,,,,,180,125,B,Raw,Yes,Amateur Masters 50-59,54,1966-08-06
1,M,Vladimir Yakovenko,Владимир Яковенко,112,Russia,,,,,,130,140,,140,,,,,,,140,125,B,Raw,Yes,Amateur Masters 60-69,61,1959-03-27
1,M,Dmytro Gosman,Дмитро Госман,129.9,Ukraine,,,,,,192.5,200,-205,200,,,,,,,200,140,B,Raw,Yes,Amateur Open,27,1993-05-22
1,F,Natalya Nikolaeva,Наталья Николаева,66,Russia,,,,,,65,-67.5,-70,65,,,,,,,65,67.5,B,Raw,No,Pro Masters 40-49,48,1972-05-23
1,F,Olga Gracheva,Ольга Грачева,73.9,Russia,,,,,,95,102.5,-107.5,102.5,,,,,,,102.5,75,B,Raw,No,Pro Masters 40-49,41,1978-09-19
1,F,Darya Starodubova,Дарья Стародубова,79,Russia,,,,,,95,100,-105,100,,,,,,,100,82.5,B,Raw,No,Pro Open,15,2004-09-27
1,M,Vladimir Osipov,Владимир Осипов,66.3,Russia,,,,,,152.5,157.5,-162.5,157.5,,,,,,,157.5,67.5,B,Raw,No,Pro Open,34,1985-10-27
1,M,Dmitriy Slutskiy,Дмитрий Слуцкий,66.5,Russia,,,,,,105,115,-120,115,,,,,,,115,67.5,B,Raw,No,Pro Masters 40-49,45,1974-11-16
1,M,Aleksandr Danchenko,Александр Данченко,73.5,Belarus,,,,,,130,137.5,142.5,142.5,,,,,,,142.5,75,B,Raw,No,Pro Open,34,1986-08-03
1,M,Viktor Korunov,Виктор Корунов,69,Russia,,,,,,-80,80,-90.5,80,,,,,,,80,75,B,Raw,No,Pro Masters 60-69,61,1959-05-01
1,M,Robert Khachatryan,Роберт Хачатрян,81.8,Russia,,,,,,-150,150,-157.5,150,,,,,,,150,82.5,B,Raw,No,Pro Juniors 20-23,20,2000-02-02
1,M,Stanislav Milostnoy,Станислав Милостной,81,Russia,,,,,,232.5,-242.5,,232.5,,,,,,,232.5,82.5,B,Raw,No,Pro Open,41,1978-12-19
2,M,Denis Sokov,Денис Соков,79.5,Russia,,,,,,180,-185,185,185,,,,,,,185,82.5,B,Raw,No,Pro Open,34,1985-12-06
3,M,David Shakhbazyan,Давид Шахбазян,78.2,Russia,,,,,,165,-172.5,-172.5,165,,,,,,,165,82.5,B,Raw,No,Pro Open,25,1994-08-30
4,M,Igor Belkov,Игорь Бельков,80.9,Russia,,,,,,135,145,-150,145,,,,,,,145,82.5,B,Raw,No,Pro Open,37,1983-03-08
1,M,Konstantin Dremenkov,Константин Дременков,82.4,Belarus,,,,,,130,140,-145,140,,,,,,,140,82.5,B,Raw,No,Pro Masters 50-59,54,1966-07-21
1,M,Vyacheslav Pereezchikov,Вячеслав Переезчиков,86.6,Russia,,,,,,197.5,202.5,205,205,,,,,,,205,90,B,Raw,No,Pro Teen,19,2000-12-06
1,M,Denis Ryazantsev,Денис Рязанцев,89.2,Russia,,,,,,-160,160,-165,160,,,,,,,160,90,B,Raw,No,Pro Juniors 20-23,22,1998-03-08
1,M,Andrey Sapozhonkov,Андрей Сапожонков,89,Russia,,,,,,260,270,-277,270,,,,,,,270,90,B,Raw,No,Pro Open,33,1987-06-26
2,M,Maksim Pytkin,Максим Пыткин,88.6,Russia,,,,,,205,217.5,225,225,,,,,,,225,90,B,Raw,No,Pro Open,28,1992-03-30
3,M,Vyacheslav Pereezchikov,Вячеслав Переезчиков,86.6,Russia,,,,,,197.5,202.5,205,205,,,,,,,205,90,B,Raw,No,Pro Open,19,2000-12-06
4,M,Vladimir Aliev,Владимир Алиев,88.9,Russia,,,,,,195,200,-205,200,,,,,,,200,90,B,Raw,No,Pro Open,28,1992-01-26
5,M,Aleksandr Shmadchenko,Александр Шмадченко,86.6,Russia,,,,,,160,165,-170,165,,,,,,,165,90,B,Raw,No,Pro Open,33,1986-12-26
6,M,Aleksey Stolyarov,Алексей Столяров,88.8,Russia,,,,,,-155,155,162.5,162.5,,,,,,,162.5,90,B,Raw,No,Pro Open,30,1990-02-25
7,M,Aleksandr Timofeev,Александр Тимофеев,88,Russia,,,,,,160,-170,-175,160,,,,,,,160,90,B,Raw,No,Pro Open,32,1988-01-26
8,M,Aleksandr Tolmachev,Александр Толмачев,87,Russia,,,,,,140,150,152.5,152.5,,,,,,,152.5,90,B,Raw,No,Pro Open,36,1984-01-06
1,M,Kirill Mogilnikov,Кирилл Могильников,96.8,Russia,,,,,,235,242.5,-250,242.5,,,,,,,242.5,100,B,Raw,No,Pro Open,30,1990-07-14
2,M,Roman Fedorenko,Роман Федоренко,96.8,Russia,,,,,,205,210,215,215,,,,,,,215,100,B,Raw,No,Pro Open,32,1988-05-28
3,M,Stanislav Kandaurov,Станислав Кандауров,99.4,Russia,,,,,,195,-205,-205,195,,,,,,,195,100,B,Raw,No,Pro Open,30,1990-05-26
4,M,Sergey Baydyuk,Сергей Байдюк,95.3,Russia,,,,,,150,160,167.5,167.5,,,,,,,167.5,100,B,Raw,No,Pro Open,27,1993-04-07
1,M,Aleksandr Muchler,Александр Мучлер,95.5,Russia,,,,,,180,-182.5,-182.5,180,,,,,,,180,100,B,Raw,No,Pro Masters 40-49,41,1979-08-06
1,M,Artur Petrosyan,Артур Петросян,97,Russia,,,,,,-170,170,-172.5,170,,,,,,,170,100,B,Raw,No,Pro Masters 50-59,50,1970-02-23
1,M,Evgeniy Bondarev,Евгений Бондарев,107.8,Russia,,,,,,227.5,-255,-255,227.5,,,,,,,227.5,110,B,Raw,No,Pro Open,34,1985-09-21
2,M,Yuriy Samsonov,Юрий Самсонов,108.7,Russia,,,,,,200,205,207.5,207.5,,,,,,,207.5,110,B,Raw,No,Pro Open,37,1982-08-24
3,M,Aleksey Mokshin,Алексей Мокшин,107.1,Russia,,,,,,170,-182.5,-182.5,170,,,,,,,170,110,B,Raw,No,Pro Open,37,1983-03-07
4,M,Aleksey Ivanchuk,Алексей Иванчук,107,Russia,,,,,,160,-167.5,-167.5,160,,,,,,,160,110,B,Raw,No,Pro Open,29,1991-04-13
1,M,Oleg Kulakov,Олег Кулаков,106,Russia,,,,,,160,167.5,172.5,172.5,,,,,,,172.5,110,B,Raw,No,Pro Masters 50-59,50,1969-10-14
1,M,Kirill Grinko,Кирилл Гринько,119.4,Russia,,,,,,-90,90,-100,90,,,,,,,90,125,B,Raw,No,Youth,13,2007-03-30
1,M,Ivan Ilinykh,Иван Ильиных,122.2,Russia,,,,,,190,202.5,212.5,212.5,,,,,,,212.5,125,B,Raw,No,Pro Juniors 20-23,23,1996-10-25
1,M,Dmitriy Dyakonov,Дмитрий Дьяконов,115,Russia,,,,,,265,270,-277.5,270,,,,,,,270,125,B,Raw,No,Pro Open,32,1988-07-07
2,M,Maksim Lisyutin,Максим Лисютин,114.1,Russia,,,,,,230,245,255,255,,,,,,,255,125,B,Raw,No,Pro Open,35,1985-04-24
3,M,Sergey Chulin,Сергей Чулин,118.6,Russia,,,,,,205,210,215,215,,,,,,,215,125,B,Raw,No,Pro Open,33,1987-04-18
4,M,Anatoliy Ryzhkov,Анатолий Рыжков,116.2,Russia,,,,,,200,207.5,-215,207.5,,,,,,,207.5,125,B,Raw,No,Pro Open,36,1984-06-20
1,M,Pavel Kolokhin,Павел Колохин,135.9,Russia,,,,,,260,275,-282.5,275,,,,,,,275,140,B,Raw,No,Pro Open,36,1984-07-02
1,M,Arif Makhmudov,Ариф Махмудов,141.3,Russia,,,,,,205,215,-220,215,,,,,,,215,140+,B,Raw,No,Pro Open,58,1962-07-31
1,M,Arif Makhmudov,Ариф Махмудов,141.3,Russia,,,,,,205,215,-220,215,,,,,,,215,140+,B,Raw,No,Pro Masters 50-59,58,1962-07-31
1,F,Anna Ivanenko,Анна Иваненко,74.3,Russia,,,,,,110,115,120,120,,,,,,,120,75,B,Single-ply,Yes,Amateur Open,34,1986-01-03
1,M,Marat Nekrasov,Марат Некрасов,100,Russia,,,,,,-190,205,217.5,217.5,,,,,,,217.5,100,B,Single-ply,No,Pro Open,29,1990-08-14
1,M,Vladimir Konchakov,Владимир Кончаков,99,Russia,,,,,,265,275,292.5,292.5,,,,,,,292.5,100,B,Single-ply,No,Pro Masters 40-49,47,1973-05-25
1,M,Denis Grigorev,Денис Григорьев,107.3,Russia,,,,,,225,240,-245,240,,,,,,,240,110,B,Single-ply,No,Pro Open,38,1982-08-07
1,M,Aleksandr Gamaev,Александр Гамаев,104.5,Russia,,,,,,-165,165,170,170,,,,,,,170,110,B,Unlimited,Yes,Amateur Open,37,1983-02-06
1,M,Igor Kurotchenko,Игорь Куротченко,109.5,Russia,,,,,,170,-180,180,180,-190,,,,,,180,110,B,Unlimited,Yes,Amateur Masters 50-59,58,1962-03-20
1,M,Vladimir Zhadenov,Владимир Жаденов,73.8,Russia,,,,,,240,-250,250,250,252.5,,,,,,250,75,B,Unlimited,No,Pro Open,33,1987-06-01
2,M,Ruslan Kosarev,Руслан Косарев,75,Russia,,,,,,160,175,-185,175,,,,,,,175,75,B,Unlimited,No,Pro Open,29,1990-11-29
1,M,Aleksandr Matveev,Александр Матвеев,75.85,Russia,,,,,,190,-200,-200,190,,,,,,,190,82.5,B,Unlimited,No,Pro Open,46,1974-03-14
2,M,Radmir Yakupov,Радмир Якупов,81.4,Russia,,,,,,175,185,-207.5,185,,,,,,,185,82.5,B,Unlimited,No,Pro Open,27,1993-04-18
1,M,Anton Morkin,Антон Моркин,81.3,Russia,,,,,,180,190,-200,190,,,,,,,190,82.5,B,Unlimited,No,Pro Masters 40-49,40,1979-10-30
1,M,Pavel Silushin,Павел Силушин,87.55,Russia,,,,,,250,-265,-265,250,,,,,,,250,90,B,Unlimited,No,Pro Open,30,1989-09-17
2,M,Aliaksei Sheikin,,90,Belarus,,,,,,230,-240,240,240,,,,,,,240,90,B,Unlimited,No,Pro Open,32,1988-03-24
1,M,Aleksandr Akulich,Александр Акулич,98,Russia,,,,,,285,295,305,305,-310,,,,,,305,100,B,Unlimited,No,Pro Open,38,1981-11-17
2,M,Vitaliy Boev,Виталий Боев,98.5,Russia,,,,,,260,-272.5,272.5,272.5,,,,,,,272.5,100,B,Unlimited,No,Pro Open,36,1984-06-27
3,M,Valeriy Bespalikov,Валерий Беспаликов,99.9,Russia,,,,,,255,265,-272.5,265,,,,,,,265,100,B,Unlimited,No,Pro Open,39,1981-04-07
1,M,Nikolay Emelyanov #1,Николай Емельянов,106.5,Russia,,,,,,230,240,250,250,,,,,,,250,110,B,Unlimited,No,Pro Open,40,1979-08-30
2,M,Denis Puzyrev,Денис Пузырев,109.9,Russia,,,,,,230,-240,-245,230,,,,,,,230,110,B,Unlimited,No,Pro Open,46,1974-03-31
1,M,Nikolay Emelyanov #1,Николай Емельянов,106.5,Russia,,,,,,230,240,250,250,,,,,,,250,110,B,Unlimited,No,Pro Masters 40-49,40,1979-08-30
2,M,Denis Puzyrev,Денис Пузырев,109.9,Russia,,,,,,230,-240,-245,230,,,,,,,230,110,B,Unlimited,No,Pro Masters 40-49,46,1974-03-31
1,M,Igor Kurotchenko,Игорь Куротченко,109.5,Russia,,,,,,170,-180,180,180,-190,,,,,,180,110,B,Unlimited,No,Pro Masters 50-59,58,1962-03-20
1,M,Dmitriy Zhemarkin,Дмитрий Жемаркин,121.8,Russia,,,,,,260,270,-280,270,,,,,,,270,125,B,Unlimited,No,Pro Juniors 20-23,23,1997-01-29
1,M,Dmitriy Zhemarkin,Дмитрий Жемаркин,121.8,Russia,,,,,,260,270,-280,270,,,,,,,270,125,B,Unlimited,No,Pro Open,23,1997-01-29
1,M,Arif Makhmudov,Ариф Махмудов,141.3,Russia,,,,,,305,320,-325.5,320,,,,,,,320,140+,B,Unlimited,No,Pro Open,58,1962-07-31
1,M,Arif Makhmudov,Ариф Махмудов,141.3,Russia,,,,,,305,320,-325.5,320,,,,,,,320,140+,B,Unlimited,No,Pro Masters 50-59,58,1962-07-31
1,M,Grigoriy Loshchinin,Григорий Лощинин,54.9,Russia,,,,,,90,95,-100,95,,,,,,,95,56,B,Raw,No,Pro Open,29,1991-05-05
1,M,Nikolay Petrokovich,Николай Петрокович,84.6,Russia,,,,,,90,95,-102.5,95,,,,,,,95,90,B,Raw,No,Pro Masters 40-49,40,1979-08-17
1,F,Olga Golikova,Ольга Голикова,47.8,Russia,,,,,,,,,,,90,100,110,110,,110,48,D,Raw,Yes,Amateur Open,34,1985-12-06
DQ,F,Milada Petrova,Милада Петрова,51.5,Russia,,,,,,,,,,,-95,-95,-95,,,,52,D,Raw,Yes,Amateur Open,34,1986-04-29
1,F,Anna Zemlyanskaya,Анна Землянская,55.2,Ukraine,,,,,,,,,,,135,145,-152.5,145,,145,56,D,Raw,Yes,Amateur Open,39,1981-03-10
2,F,Anna Stamo,Анна Стамо,53.1,Russia,,,,,,,,,,,105,115,-127.5,115,,115,56,D,Raw,Yes,Amateur Open,38,1982-04-10
1,F,Irina Trofimchuk,Ирина Трофимчук,65,Russia,,,,,,,,,,,140,-145,-145,140,,140,67.5,D,Raw,Yes,Amateur Open,32,1988-03-15
1,F,Elena Serdyuchenko,Елена Сердюченко,62.8,Russia,,,,,,,,,,,45,50,-55,50,,50,67.5,D,Raw,Yes,Amateur Masters 40-49,48,1972-01-15
1,F,Evgeniya Malysheva,Евгения Малышева,74.8,Russia,,,,,,,,,,,140,-147.5,147.5,147.5,,147.5,75,D,Raw,Yes,Amateur Open,36,1984-04-09
1,M,Vadim Shishkin,Вадим Шишкин,59.1,Russia,,,,,,,,,,,-160,-160,160,160,,160,60,D,Raw,Yes,Amateur Sub-Juniors 17-19,19,2000-12-08
1,M,Ruslan Zakiev,Руслан Закиев,66.2,Russia,,,,,,,,,,,170,-180,180,180,,180,67.5,D,Raw,Yes,Amateur Sub-Juniors 17-19,17,2002-11-12
1,M,Evgeniy Bayborodin,Евгений Байбородин,65.4,Russia,,,,,,,,,,,-190,190,200,200,,200,67.5,D,Raw,Yes,Amateur Open,33,1987-01-23
1,M,Konstantin Sizentsev,Константин Сизенцев,69.4,Russia,,,,,,,,,,,-120,130,150,150,,150,75,D,Raw,Yes,Amateur Sub-Juniors 17-19,19,2000-12-02
1,M,Bahamin Rahimi,,72,Afghanistan,,,,,,,,,,,210,227.5,235,235,,235,75,D,Raw,Yes,Amateur Open,27,1993-06-06
2,M,Mikhail Kolomytsev,Михаил Коломыцев,73.7,Russia,,,,,,,,,,,200,-215,220,220,,220,75,D,Raw,Yes,Amateur Open,31,1989-06-21
3,M,Aleksey Kotov,Алексей Котов,75,Russia,,,,,,,,,,,210,220,-235,220,,220,75,D,Raw,Yes,Amateur Open,32,1987-09-19
1,M,Viktor Korunov,Виктор Корунов,69,Russia,,,,,,,,,,,155,160,165,165,,165,75,D,Raw,Yes,Amateur Masters 60-69,61,1959-05-01
1,M,Vadim Komissarov,Вадим Комиссаров,78.4,Russia,,,,,,,,,,,125,135,-145,135,,135,82.5,D,Raw,Yes,Amateur Teen 14-16,14,2006-04-17
1,M,Mukhtar Aysaev,Мухтар Айсаев,80,Russia,,,,,,,,,,,230,240,-250,240,,240,82.5,D,Raw,Yes,Amateur Juniors 20-23,22,1998-01-21
1,M,Konstantin Elsakov,Константин Елсаков,82.4,Russia,,,,,,,,,,,230,250,-260,250,,250,82.5,D,Raw,Yes,Amateur Open,30,1990-05-26
2,M,Vasiliy Olar,Василий Оларь,78.9,Moldova,,,,,,,,,,,240,-250,-250,240,,240,82.5,D,Raw,Yes,Amateur Open,26,1994-01-13
1,M,Mikhail Kublikov,Михаил Кубликов,80.7,Russia,,,,,,,,,,,190,-200,-200,190,,190,82.5,D,Raw,Yes,Amateur Masters 40-49,49,1970-08-12
1,M,Konstantin Dremenkov,Константин Дременков,82.4,Belarus,,,,,,,,,,,235,250,-260,250,,250,82.5,D,Raw,Yes,Amateur Masters 50-59,54,1966-07-21
2,M,Vladimir Shchemelev,Владимир Щемелев,78.8,Russia,,,,,,,,,,,-200,200,-210,200,,200,82.5,D,Raw,Yes,Amateur Masters 50-59,59,1961-04-02
1,M,Nikita Abramov,Никита Абрамов,89.3,Russia,,,,,,,,,,,255,-262.5,-262.5,255,,255,90,D,Raw,Yes,Amateur Open,28,1991-11-29
2,M,Mikhail Fedorets,Михаил Федорец,86.6,Russia,,,,,,,,,,,220,240,-250,240,,240,90,D,Raw,Yes,Amateur Open,31,1989-07-29
3,M,Sosruko Uligov,Сосруко Улигов,89.3,Russia,,,,,,,,,,,-207.5,215,-222.5,215,,215,90,D,Raw,Yes,Amateur Open,37,1983-04-22
4,M,Pavel Yuferov,Павел Юферов,89.7,Russia,,,,,,,,,,,190,200,210,210,,210,90,D,Raw,Yes,Amateur Open,35,1984-11-24
1,M,Sultan Vorokov,Султан Вороков,99.5,Russia,,,,,,,,,,,200,210,215,215,,215,100,D,Raw,Yes,Amateur Juniors 20-23,23,1997-03-24
1,M,Eduard Marchenko,Эдуард Марченко,98.5,Ukraine,,,,,,,,,,,-250,260,-285,260,,260,100,D,Raw,Yes,Amateur Open,28,1992-03-17
2,M,Denis Kiselyov,Денис Киселёв,93.3,Russia,,,,,,,,,,,225,250,-280,250,,250,100,D,Raw,Yes,Amateur Open,23,1997-08-03
1,M,Aleksey Shkel,Алексей Шкель,98.8,Russia,,,,,,,,,,,200,210,-217.5,210,,210,100,D,Raw,Yes,Amateur Masters 40-49,42,1977-09-07
1,M,Vladimir Makarov,Владимир Макаров,95.8,Russia,,,,,,,,,,,160,167.5,-172.5,167.5,,167.5,100,D,Raw,Yes,Amateur Masters 70-79,74,1946-07-25
1,M,Dmitriy Kulagin,Дмитрий Кулагин,102.3,Russia,,,,,,,,,,,240,255,-265,255,,255,110,D,Raw,Yes,Amateur Open,31,1989-06-07
2,M,Azamat Pagov,Азамат Пагов,107,Russia,,,,,,,,,,,232.5,-245,-250,232.5,,232.5,110,D,Raw,Yes,Amateur Open,28,1991-08-10
1,M,Muraz Khakyashev,Мураз Хакяшев,114.1,Russia,,,,,,,,,,,242.5,250,260,260,,260,125,D,Raw,Yes,Amateur Open,42,1977-12-06
1,M,Evgeniy Babin,Евгений Бабин,117.3,Russia,,,,,,,,,,,170,190,200,200,,200,125,D,Raw,Yes,Amateur Masters 40-49,49,1971-04-17
1,M,Lev Samarin,Лев Самарин,137,Russia,,,,,,,,,,,285,-302.5,,285,,285,140,D,Raw,Yes,Amateur Open,37,1983-05-28
2,M,Sergey Vorobyov,Сергей Воробьёв,129.9,Russia,,,,,,,,,,,275,-290,-290,275,,275,140,D,Raw,Yes,Amateur Open,46,1974-05-25
1,M,Sergey Vorobyov,Сергей Воробьёв,129.9,Russia,,,,,,,,,,,275,-290,-290,275,,275,140,D,Raw,Yes,Amateur Masters 40-49,46,1974-05-25
1,F,Ekaterina Pchelintseva,Екатерина Пчелинцева,46.35,Russia,,,,,,,,,,,45,65,75,75,,75,48,D,Raw,No,Pro Open,30,1990-07-31
1,F,Yuliya Abramova,Юлия Абрамова,55.1,Russia,,,,,,,,,,,172.5,-185,185,185,,185,56,D,Raw,No,Pro Open,38,1982-06-29
1,F,Natalya Nikolaeva,Наталья Николаева,66,Russia,,,,,,,,,,,70,110,115,115,,115,67.5,D,Raw,No,Pro Masters 40-49,48,1972-05-23
1,F,Viktoriya Doga,Виктория Дога,77.9,Russia,,,,,,,,,,,180,192.5,197.5,197.5,,197.5,82.5,D,Raw,No,Pro Open,37,1982-09-04
1,M,Oleg Novogolub,Олег Новоголуб,74.2,Moldova,,,,,,,,,,,-200,200,220,220,,220,75,D,Raw,No,Pro Open,25,1995-01-27
2,M,Aleksandr Minaev,Александр Минаев,72.3,Russia,,,,,,,,,,,180,200,-220,200,,200,75,D,Raw,No,Pro Open,27,1993-08-01
1,M,Viktor Korunov,Виктор Корунов,69,Russia,,,,,,,,,,,155,160,165,165,,165,75,D,Raw,No,Pro Masters 60-69,61,1959-05-01
1,M,Dmitry Nasonov,Дмитрий Насонов,82.5,Russia,,,,,,,,,,,365,-385,-385,365,,365,82.5,D,Raw,No,Pro Open,28,1992-02-13
2,M,Egor Filatov,Егор Филатов,79.1,Russia,,,,,,,,,,,200,-215,-215,200,,200,82.5,D,Raw,No,Pro Open,27,1993-04-22
1,M,Mikhail Kublikov,Михаил Кубликов,80.7,Russia,,,,,,,,,,,190,-200,-200,190,,190,82.5,D,Raw,No,Pro Masters 40-49,49,1970-08-12
1,M,Konstantin Azizmamadov,Константин Азизмамадов,89.3,Russia,,,,,,,,,,,302.5,-312.5,-312.5,302.5,,302.5,90,D,Raw,No,Pro Open,35,1985-03-17
2,M,Ivan Dmitriev,Иван Дмитриев,87.4,Russia,,,,,,,,,,,270,292.5,-302.5,292.5,,292.5,90,D,Raw,No,Pro Open,50,1970-06-11
3,M,Aliaksei Sheikin,,90,Belarus,,,,,,,,,,,280,-295,-295,280,,280,90,D,Raw,No,Pro Open,32,1988-03-24
DQ,M,Vladimir Babin,Владимир Бабин,83.7,Russia,,,,,,,,,,,-340,-370,-370,,,,90,D,Raw,No,Pro Open,27,1992-08-09
1,M,Ivan Dmitriev,Иван Дмитриев,87.4,Russia,,,,,,,,,,,270,292.5,-302.5,292.5,,292.5,90,D,Raw,No,Pro Masters 50-59,50,1970-06-11
1,M,Rauf Apsov,Рауф Апсов,98.6,Russia,,,,,,,,,,,-340,-340,350,350,,350,100,D,Raw,No,Pro Open,28,1992-04-16
2,M,Andrey Sizov,Андрей Сизов,99.3,Russia,,,,,,,,,,,280,300,312.5,312.5,,312.5,100,D,Raw,No,Pro Open,52,1968-01-29
3,M,Timur Bozov,Тимур Бозов,99.2,Russia,,,,,,,,,,,300,,,300,,300,100,D,Raw,No,Pro Open,27,1992-11-13
DQ,M,Evgeniy Kravchenko,Евгений Кравченко,97.9,Russia,,,,,,,,,,,-365,-365,-380,,,,100,D,Raw,No,Pro Open,33,1986-11-03
1,M,Aleksey Shustrov,Алексей Шустров,98.1,Russia,,,,,,,,,,,150,160,172.5,172.5,,172.5,100,D,Raw,No,Pro Masters 40-49,43,1976-09-01
1,M,Andrey Sizov,Андрей Сизов,99.3,Russia,,,,,,,,,,,280,300,312.5,312.5,,312.5,100,D,Raw,No,Pro Masters 50-59,52,1968-01-29
1,M,Yuriy Samsonov,Юрий Самсонов,108.7,Russia,,,,,,,,,,,275,280,-295,280,,280,110,D,Raw,No,Pro Open,37,1982-08-24
1,M,Pavel Lavin,Павел Лавин,107,Russia,,,,,,,,,,,280,300,,300,,300,110,D,Raw,No,Pro Masters 40-49,41,1979-04-14
1,M,Dmitriy Starov,Дмитрий Старов,122.6,Russia,,,,,,,,,,,270,280,290,290,,290,125,D,Raw,No,Pro Masters 40-49,47,1973-02-01
1,M,Aleksandr Lugovoy,Александр Луговой,134.3,Russia,,,,,,,,,,,350,370,-390,370,,370,140,D,Raw,No,Pro Open,24,1995-10-28
2,M,Denis Makeev #1,Денис Макеев,137.3,Russia,,,,,,,,,,,275,290,-305,290,,290,140,D,Raw,No,Pro Open,37,1983-04-22
1,M,Aleksey Kotov,Алексей Котов,75,Russia,,,,,,,,,,,225,235,-252.5,235,,235,75,D,Raw,Yes,Amateur Open,32,1987-09-19
1,M,Eslam Soliman,,79.4,Egypt,,,,,,,,,,,-245,255,-272.5,255,,255,82.5,D,Raw,Yes,Amateur Open,24,1996-02-11
